{"success":true,"data":[{"id":"01hqwhr2ycx19j9vhv5g89r9tb","user_id":"01hqwd9q9qggp73rbdyznhfjkh","event_type":"Updated KYB setting","description":"updated document with name - Certificate of Incorporation","business_id":"","date_created":"01\/03\/2024 @ 09:23AM","team_member":"Platform Owner"},{"id":"01hqwhqt0kzmzbqx244xrf31ry","user_id":"01hqwd9q9qggp73rbdyznhfjkh","event_type":"Created a KYB setting","description":"created KYB setting with document name - Certificate of Incorporation","business_id":"","date_created":"01\/03\/2024 @ 09:22AM","team_member":"Platform Owner"},{"id":"01hqwhpdxr40akn5b7x39de60q","user_id":"01hqwd9q9qggp73rbdyznhfjkh","event_type":"Updated team member status","description":"Updated team member status with email - sultan+860@assurdly.com","business_id":"","date_created":"01\/03\/2024 @ 09:22AM","team_member":"Platform Owner"},{"id":"01hqwhpbxy0c6m5ycs7d2ggh2e","user_id":"01hqwd9q9qggp73rbdyznhfjkh","event_type":"Updated team member status","description":"Updated team member status with email - sultan+860@assurdly.com","business_id":"","date_created":"01\/03\/2024 @ 09:22AM","team_member":"Platform Owner"},{"id":"01hqwhp9yw9ny4t93gn675e49w","user_id":"01hqwd9q9qggp73rbdyznhfjkh","event_type":"Updated team member","description":"updated team with email - ","business_id":"","date_created":"01\/03\/2024 @ 09:22AM","team_member":"Platform Owner"},{"id":"01hqwhp1ajdy0g3ase8v8qaztq","user_id":"01hqwd9q9qggp73rbdyznhfjkh","event_type":"Invited team member","description":"Resent Invite team member email - sultan+860@assurdly.com","business_id":"","date_created":"01\/03\/2024 @ 09:21AM","team_member":"Platform Owner"},{"id":"01hqwhnx1wcc9x55yxd9f6ka0d","user_id":"01hqwd9q9qggp73rbdyznhfjkh","event_type":"Invited team member","description":"Invited team member email - sultan+860@assurdly.com","business_id":"","date_created":"01\/03\/2024 @ 09:21AM","team_member":"Platform Owner"},{"id":"01hqwhnm9dy9s4sa2fh6tqyx3j","user_id":"01hqwd9q9qggp73rbdyznhfjkh","event_type":"Updated role status","description":"Updated role status with name - Internal","business_id":"","date_created":"01\/03\/2024 @ 09:21AM","team_member":"Platform Owner"},{"id":"01hqwhnjakc592a0j0hz9ah2dz","user_id":"01hqwd9q9qggp73rbdyznhfjkh","event_type":"Updated role status","description":"Updated role status with name - Internal","business_id":"","date_created":"01\/03\/2024 @ 09:21AM","team_member":"Platform Owner"},{"id":"01hqwhng10v38xc5jnqby0fw7r","user_id":"01hqwd9q9qggp73rbdyznhfjkh","event_type":"Updated role","description":"updated role with name - Internal","business_id":"","date_created":"01\/03\/2024 @ 09:21AM","team_member":"Platform Owner"}],"pagination":{"current_page":1,"per_page":10,"total":17,"next_page_url":"http:\/\/salary.dev.onepipe.io\/api\/audit?page=2","prev_page_url":null},"message":"Audit trails retrieved successfully"}