{"success":true,"data":[{"id":"01hrq6vjkhvnb94p3zd8tfe9pj","user_id":"01hrnzwq8cjyvjpvxrhbw8tktc","event_type":"Deleted KYB setting","description":"Deleted KYB setting with document name - Certificate of Incorporation","business_id":null,"date_created":"11\/03\/2024 @ 05:52PM","team_member":"Platform Owner"},{"id":"01hrq6vgjv8ywh9rzhfxd7m75x","user_id":"01hrnzwq8cjyvjpvxrhbw8tktc","event_type":"Updated KYB setting","description":"Updated document with name - Certificate of Incorporation","business_id":null,"date_created":"11\/03\/2024 @ 05:52PM","team_member":"Platform Owner"},{"id":"01hrq6v836rs92ajsq48kjh81p","user_id":"01hrnzwq8cjyvjpvxrhbw8tktc","event_type":"Created a KYB setting","description":"Created KYB setting with document name - Certificate of Incorporation","business_id":null,"date_created":"11\/03\/2024 @ 05:52PM","team_member":"Platform Owner"},{"id":"01hrq6t056amgm91fq1x4cd463","user_id":"01hrnzwq8cjyvjpvxrhbw8tktc","event_type":"Activated business","description":"Activated business with name - Assurdly Verse","business_id":null,"date_created":"11\/03\/2024 @ 05:51PM","team_member":"Platform Owner"},{"id":"01hrq6sv8krkpyvw14ys9dfy3g","user_id":"01hrnzwq8cjyvjpvxrhbw8tktc","event_type":"Deactivated business","description":"Deactivated business with name - Assurdly Verse","business_id":null,"date_created":"11\/03\/2024 @ 05:51PM","team_member":"Platform Owner"},{"id":"01hrq6spwvz6dqgekwhgqx2p1e","user_id":"01hrnzwq8cjyvjpvxrhbw8tktc","event_type":"Deactivated business","description":"Deactivated business with name - Assurdly Verse","business_id":null,"date_created":"11\/03\/2024 @ 05:51PM","team_member":"Platform Owner"},{"id":"01hrq6sjg6pwct5nmbqamttrje","user_id":"01hrnzwq8cjyvjpvxrhbw8tktc","event_type":"Activated business","description":"Activated business with name - Assurdly Verse","business_id":null,"date_created":"11\/03\/2024 @ 05:51PM","team_member":"Platform Owner"},{"id":"01hrq6sdjte1v3jqn1vbb84nqq","user_id":"01hrnzwq8cjyvjpvxrhbw8tktc","event_type":"Deactivated business","description":"Deactivated business with name - Assurdly Verse","business_id":null,"date_created":"11\/03\/2024 @ 05:51PM","team_member":"Platform Owner"},{"id":"01hrq6s96897ptvxe4gwnzjt3s","user_id":"01hrnzwq8cjyvjpvxrhbw8tktc","event_type":"Deactivated business","description":"Deactivated business with name - Assurdly Verse","business_id":null,"date_created":"11\/03\/2024 @ 05:50PM","team_member":"Platform Owner"},{"id":"01hrq6rttdqhjypbqd2xvchg27","user_id":"01hrnzwq8cjyvjpvxrhbw8tktc","event_type":"Updated team member status","description":"Updated team member status with email - sultan+988@assurdly.com","business_id":null,"date_created":"11\/03\/2024 @ 05:50PM","team_member":"Platform Owner"}],"pagination":{"current_page":1,"per_page":10,"total":67,"next_page_url":"http:\/\/salary.dev.onepipe.io\/api\/audit?page=2","prev_page_url":null},"message":"Audit trails retrieved successfully"}