{"success":true,"data":[{"id":"01hrq7fgzcygr38aa9wbye12pg","user_id":"01hrnzwq8cjyvjpvxrhbw8tktc","event_type":"Deleted KYB setting","description":"Deleted KYB setting with document name - Certificate of Incorporation","business_id":null,"date_created":"11\/03\/2024 @ 06:03PM","team_member":"Platform Owner"},{"id":"01hrq7few16ndtxsjrcdptgqr7","user_id":"01hrnzwq8cjyvjpvxrhbw8tktc","event_type":"Updated KYB setting","description":"Updated document with name - Certificate of Incorporation","business_id":null,"date_created":"11\/03\/2024 @ 06:03PM","team_member":"Platform Owner"},{"id":"01hrq7f63bvjb0ectdq4934qxc","user_id":"01hrnzwq8cjyvjpvxrhbw8tktc","event_type":"Created a KYB setting","description":"Created KYB setting with document name - Certificate of Incorporation","business_id":null,"date_created":"11\/03\/2024 @ 06:02PM","team_member":"Platform Owner"},{"id":"01hrq7dwh6p0kw7b1qeg0d5m8w","user_id":"01hrnzwq8cjyvjpvxrhbw8tktc","event_type":"Blacklisted business","description":"Blacklisted business with name - Assurdly Verse","business_id":null,"date_created":"11\/03\/2024 @ 06:02PM","team_member":"Platform Owner"},{"id":"01hrq7dpdkf75vdc331bc7p4a1","user_id":"01hrnzwq8cjyvjpvxrhbw8tktc","event_type":"Activated business","description":"Activated business with name - Assurdly Verse","business_id":null,"date_created":"11\/03\/2024 @ 06:02PM","team_member":"Platform Owner"},{"id":"01hrq7dfysrz2nqm4jhp0r7zt2","user_id":"01hrnzwq8cjyvjpvxrhbw8tktc","event_type":"Deactivated business","description":"Deactivated business with name - Assurdly Verse","business_id":null,"date_created":"11\/03\/2024 @ 06:01PM","team_member":"Platform Owner"},{"id":"01hrq7d93fzhwktv0n3j8hrrr6","user_id":"01hrnzwq8cjyvjpvxrhbw8tktc","event_type":"Activated business","description":"Activated business with name - Assurdly Verse","business_id":null,"date_created":"11\/03\/2024 @ 06:01PM","team_member":"Platform Owner"},{"id":"01hrq7d2ttv3m8vk96gn93cks1","user_id":"01hrnzwq8cjyvjpvxrhbw8tktc","event_type":"Deactivated business","description":"Deactivated business with name - Assurdly Verse","business_id":null,"date_created":"11\/03\/2024 @ 06:01PM","team_member":"Platform Owner"},{"id":"01hrq7cgk071nyy3s1d35frvn7","user_id":"01hrnzwq8cjyvjpvxrhbw8tktc","event_type":"Updated team member status","description":"Updated team member status with email - sultan+419@assurdly.com","business_id":null,"date_created":"11\/03\/2024 @ 06:01PM","team_member":"Platform Owner"},{"id":"01hrq7cekrp3s064jsn3bvpfvy","user_id":"01hrnzwq8cjyvjpvxrhbw8tktc","event_type":"Updated team member status","description":"Updated team member status with email - sultan+419@assurdly.com","business_id":null,"date_created":"11\/03\/2024 @ 06:01PM","team_member":"Platform Owner"}],"pagination":{"current_page":1,"per_page":10,"total":93,"next_page_url":"http:\/\/salary.dev.onepipe.io\/api\/audit?page=2","prev_page_url":null},"message":"Audit trails retrieved successfully"}