{"success":true,"data":[{"id":"01hqakcdh3z12aqmhjb02tk4qf","user_id":"01hq3781r6qm4ney4aaxtfk065","event_type":"Created role","description":"created role with name - Central","business_id":null,"date_created":"23\/02\/2024 @ 10:05AM","team_member":"Platform Owner"},{"id":"01hqak21qhkv9mz8hj5tw9ybk4","user_id":"01hq3781r6qm4ney4aaxtfk065","event_type":"Created role","description":"created role with name - Dynamic","business_id":null,"date_created":"23\/02\/2024 @ 09:59AM","team_member":"Platform Owner"},{"id":"01hqajrktd1tmsmf2c7jy5xwgz","user_id":"01hq3781r6qm4ney4aaxtfk065","event_type":"Created role","description":"created role with name - Chief","business_id":null,"date_created":"23\/02\/2024 @ 09:54AM","team_member":"Platform Owner"},{"id":"01hqajeb2pfth2sa9rpebzktdd","user_id":"01hq3781r6qm4ney4aaxtfk065","event_type":"Created role","description":"created role with name - Dynamic","business_id":null,"date_created":"23\/02\/2024 @ 09:48AM","team_member":"Platform Owner"},{"id":"01hqaje70vqayzqkr0dtz44nfp","user_id":"01hq3781r6qm4ney4aaxtfk065","event_type":"Created role","description":"created role with name - Human","business_id":null,"date_created":"23\/02\/2024 @ 09:48AM","team_member":"Platform Owner"},{"id":"01hqaj4h95bt8masf2ms298tby","user_id":"01hq3781r6qm4ney4aaxtfk065","event_type":"Created role","description":"created role with name - Internal","business_id":null,"date_created":"23\/02\/2024 @ 09:43AM","team_member":"Platform Owner"},{"id":"01hqaee2sfk7vkemxh1bw11s24","user_id":"01hq3781r6qm4ney4aaxtfk065","event_type":"Created role","description":"created role with name - Central","business_id":null,"date_created":"23\/02\/2024 @ 08:38AM","team_member":"Platform Owner"},{"id":"01hqae42edejchzwh15wqymj6c","user_id":"01hq3781r6qm4ney4aaxtfk065","event_type":"Created role","description":"created role with name - Principal","business_id":null,"date_created":"23\/02\/2024 @ 08:33AM","team_member":"Platform Owner"},{"id":"01hqadsbmtt7h8rsnm1xgahaav","user_id":"01hq3781r6qm4ney4aaxtfk065","event_type":"Created role","description":"created role with name - International","business_id":null,"date_created":"23\/02\/2024 @ 08:27AM","team_member":"Platform Owner"},{"id":"01hqadfk34ja42vm6w8cfyeqpb","user_id":"01hq3781r6qm4ney4aaxtfk065","event_type":"Created role","description":"created role with name - Corporate","business_id":null,"date_created":"23\/02\/2024 @ 08:22AM","team_member":"Platform Owner"}],"pagination":{"current_page":1,"per_page":10,"total":19,"next_page_url":"http:\/\/salary.dev.onepipe.io\/api\/audit?page=2","prev_page_url":null},"message":"Audit trails retrieved successfully"}