{"success":true,"data":[{"id":"01hqnmb64zxm2c71xc9wtsmzyr","user_id":"01hq3781r6qm4ney4aaxtfk065","event_type":"Updated kyb-setting","description":"updated document with name - Certificate of Incorporation","business_id":"","date_created":"27\/02\/2024 @ 04:53PM","team_member":"Platform Owner"},{"id":"01hqnmay3yseskw3k4wrzk16yh","user_id":"01hq3781r6qm4ney4aaxtfk065","event_type":"Created a kyb-setting","description":"created kyb setting with document-name - Certificate of Incorporation","business_id":"","date_created":"27\/02\/2024 @ 04:53PM","team_member":"Platform Owner"},{"id":"01hqnm9y6btqdbc5wykj417seb","user_id":"01hq3781r6qm4ney4aaxtfk065","event_type":"Deactivated Business","description":"Deactivated business with name - Habeeb13","business_id":"","date_created":"27\/02\/2024 @ 04:53PM","team_member":"Platform Owner"},{"id":"01hqnm9w3p9ms3h5gafk8j35mv","user_id":"01hq3781r6qm4ney4aaxtfk065","event_type":"Deactivated Business","description":"Deactivated business with name - Habeeb13","business_id":"","date_created":"27\/02\/2024 @ 04:53PM","team_member":"Platform Owner"},{"id":"01hqnm9sxq83swm4pfq23j3n2a","user_id":"01hq3781r6qm4ney4aaxtfk065","event_type":"Activated Business","description":"Activated business with name - Habeeb13","business_id":"","date_created":"27\/02\/2024 @ 04:52PM","team_member":"Platform Owner"},{"id":"01hqnm9q9vafcgeysc04736wpb","user_id":"01hq3781r6qm4ney4aaxtfk065","event_type":"Activated Business","description":"Activated business with name - Habeeb13","business_id":"","date_created":"27\/02\/2024 @ 04:52PM","team_member":"Platform Owner"},{"id":"01hqnm99t67xnncxwmys0s0nyv","user_id":"01hq3781r6qm4ney4aaxtfk065","event_type":"Updated team member status","description":"Updated team member status with email - sultan+917@assurdly.com","business_id":"","date_created":"27\/02\/2024 @ 04:52PM","team_member":"Platform Owner"},{"id":"01hqnm97ygnj1sbtrb86ykjdj7","user_id":"01hq3781r6qm4ney4aaxtfk065","event_type":"Updated team member status","description":"Updated team member status with email - sultan+917@assurdly.com","business_id":"","date_created":"27\/02\/2024 @ 04:52PM","team_member":"Platform Owner"},{"id":"01hqnm8pk9q1zxwes800jhntdm","user_id":"01hq3781r6qm4ney4aaxtfk065","event_type":"Invited team member","description":"Resent Invite team member email - sultan+917@assurdly.com","business_id":"","date_created":"27\/02\/2024 @ 04:52PM","team_member":"Platform Owner"},{"id":"01hqnm8j3cerrd7qdc0aw54xtx","user_id":"01hq3781r6qm4ney4aaxtfk065","event_type":"Invited team member","description":"Invited team member email - sultan+917@assurdly.com","business_id":"","date_created":"27\/02\/2024 @ 04:52PM","team_member":"Platform Owner"}],"pagination":{"current_page":1,"per_page":10,"total":822,"next_page_url":"http:\/\/salary.dev.onepipe.io\/api\/audit?page=2","prev_page_url":null},"message":"Audit trails retrieved successfully"}