{"success":true,"data":[{"id":"01hqn76xxy7bzpsexc6bvb8hnn","user_id":"01hq3781r6qm4ney4aaxtfk065","event_type":"Updated kyb-setting","description":"updated document with name - Certificate of Incorporation","business_id":"","date_created":"27\/02\/2024 @ 01:04PM","team_member":"Platform Owner"},{"id":"01hqn76nkkqbsgmqhyf7d6amzk","user_id":"01hq3781r6qm4ney4aaxtfk065","event_type":"Created a kyb-setting","description":"created kyb setting with document-name - Certificate of Incorporation","business_id":"","date_created":"27\/02\/2024 @ 01:04PM","team_member":"Platform Owner"},{"id":"01hqn769jsmxv7hnfgt5cchaje","user_id":"01hq3781r6qm4ney4aaxtfk065","event_type":"Deactivated Business","description":"Deactivated business with name - Habeeb13","business_id":"","date_created":"27\/02\/2024 @ 01:03PM","team_member":"Platform Owner"},{"id":"01hqn767gr1f3vkvt8eh58r914","user_id":"01hq3781r6qm4ney4aaxtfk065","event_type":"Deactivated Business","description":"Deactivated business with name - Habeeb13","business_id":"","date_created":"27\/02\/2024 @ 01:03PM","team_member":"Platform Owner"},{"id":"01hqn765fr3rg29erc0ftpa6fr","user_id":"01hq3781r6qm4ney4aaxtfk065","event_type":"Activated Business","description":"Activated business with name - Habeeb13","business_id":"","date_created":"27\/02\/2024 @ 01:03PM","team_member":"Platform Owner"},{"id":"01hqn762y80prbbj9e83xvg3by","user_id":"01hq3781r6qm4ney4aaxtfk065","event_type":"Activated Business","description":"Activated business with name - Habeeb13","business_id":"","date_created":"27\/02\/2024 @ 01:03PM","team_member":"Platform Owner"},{"id":"01hqn75n79zt65w8yefner988c","user_id":"01hq3781r6qm4ney4aaxtfk065","event_type":"Updated team member status","description":"Updated team member status with email - sultan+593@assurdly.com","business_id":"","date_created":"27\/02\/2024 @ 01:03PM","team_member":"Platform Owner"},{"id":"01hqn75kbwzactbqd19tw8f2hd","user_id":"01hq3781r6qm4ney4aaxtfk065","event_type":"Updated team member status","description":"Updated team member status with email - sultan+593@assurdly.com","business_id":"","date_created":"27\/02\/2024 @ 01:03PM","team_member":"Platform Owner"},{"id":"01hqn755bdarz3h1rgqhad35nw","user_id":"01hq3781r6qm4ney4aaxtfk065","event_type":"Invited team member","description":"Resent Invite team member email - sultan+593@assurdly.com","business_id":"","date_created":"27\/02\/2024 @ 01:03PM","team_member":"Platform Owner"},{"id":"01hqn74zb9j4nr5bdqmag0wqqs","user_id":"01hq3781r6qm4ney4aaxtfk065","event_type":"Invited team member","description":"Invited team member email - sultan+593@assurdly.com","business_id":"","date_created":"27\/02\/2024 @ 01:03PM","team_member":"Platform Owner"}],"pagination":{"current_page":1,"per_page":10,"total":627,"next_page_url":"http:\/\/salary.dev.onepipe.io\/api\/audit?page=2","prev_page_url":null},"message":"Audit trails retrieved successfully"}