{"success":true,"data":[{"id":"01hs8nytkjwpw3nxkj8yv53ed5","user_id":"01hrnzwq8cjyvjpvxrhbw8tktc","event_type":"Deleted KYB setting","description":"Deleted KYB setting with document name - Certificate of Incorporation","business_id":null,"date_created":"18\/03\/2024 @ 12:43PM","team_member":"Platform Owner"},{"id":"01hs8nyrhhffa8tdkkjc2saemx","user_id":"01hrnzwq8cjyvjpvxrhbw8tktc","event_type":"Updated KYB setting","description":"Updated document with name - Certificate of Incorporation","business_id":null,"date_created":"18\/03\/2024 @ 12:43PM","team_member":"Platform Owner"},{"id":"01hs8nyfq2kppyqv3yhfq1a51e","user_id":"01hrnzwq8cjyvjpvxrhbw8tktc","event_type":"Created a KYB setting","description":"Created KYB setting with document name - Certificate of Incorporation","business_id":null,"date_created":"18\/03\/2024 @ 12:43PM","team_member":"Platform Owner"},{"id":"01hs8nx41p6dsshz2x8hqba5k6","user_id":"01hrnzwq8cjyvjpvxrhbw8tktc","event_type":"Activated business","description":"Activated business with name - Habeeb12","business_id":null,"date_created":"18\/03\/2024 @ 12:42PM","team_member":"Platform Owner"},{"id":"01hs8nwyw83dsf82aq6kgmhsb7","user_id":"01hrnzwq8cjyvjpvxrhbw8tktc","event_type":"Blacklisted business","description":"Blacklisted business with name - Habeeb12","business_id":null,"date_created":"18\/03\/2024 @ 12:42PM","team_member":"Platform Owner"},{"id":"01hs8nwtf0p4s8bphjge8p01zf","user_id":"01hrnzwq8cjyvjpvxrhbw8tktc","event_type":"Blacklisted business","description":"Blacklisted business with name - Habeeb12","business_id":null,"date_created":"18\/03\/2024 @ 12:42PM","team_member":"Platform Owner"},{"id":"01hs8nwm3dr80ta5yw312c3fwk","user_id":"01hrnzwq8cjyvjpvxrhbw8tktc","event_type":"Activated business","description":"Activated business with name - Habeeb12","business_id":null,"date_created":"18\/03\/2024 @ 12:41PM","team_member":"Platform Owner"},{"id":"01hs8nwdvskrep3ze9tptrnpfe","user_id":"01hrnzwq8cjyvjpvxrhbw8tktc","event_type":"Deactivated business","description":"Deactivated business with name - Habeeb12","business_id":null,"date_created":"18\/03\/2024 @ 12:41PM","team_member":"Platform Owner"},{"id":"01hs8nw7ew36ws57ghj2nck1re","user_id":"01hrnzwq8cjyvjpvxrhbw8tktc","event_type":"Activated business","description":"Activated business with name - Habeeb12","business_id":null,"date_created":"18\/03\/2024 @ 12:41PM","team_member":"Platform Owner"},{"id":"01hs8nw1bdqpmhcwd6dd0cfzw0","user_id":"01hrnzwq8cjyvjpvxrhbw8tktc","event_type":"Deactivated business","description":"Deactivated business with name - Habeeb12","business_id":null,"date_created":"18\/03\/2024 @ 12:41PM","team_member":"Platform Owner"}],"pagination":{"current_page":1,"per_page":10,"total":234,"next_page_url":"http:\/\/salary.dev.onepipe.io\/api\/audit?page=2","prev_page_url":null},"message":"Audit trails retrieved successfully"}