{"success":true,"data":[{"id":"01hqx6c1wnq20q5ahy7pd256e6","user_id":"01hqwd9q9qggp73rbdyznhfjkh","event_type":"Updated KYB setting","description":"updated document with name - Certificate of Incorporation","business_id":"","date_created":"01\/03\/2024 @ 03:23PM","team_member":"Platform Owner"},{"id":"01hqx6bs13243swm1da2462922","user_id":"01hqwd9q9qggp73rbdyznhfjkh","event_type":"Created a KYB setting","description":"created KYB setting with document name - Certificate of Incorporation","business_id":"","date_created":"01\/03\/2024 @ 03:23PM","team_member":"Platform Owner"},{"id":"01hqx6ajsfxewy0bene8552wwg","user_id":"01hqwd9q9qggp73rbdyznhfjkh","event_type":"Blacklisted Business","description":"Blacklisted business with name - Test Team","business_id":"","date_created":"01\/03\/2024 @ 03:22PM","team_member":"Platform Owner"},{"id":"01hqx6agjt27cprrjf483c9kj4","user_id":"01hqwd9q9qggp73rbdyznhfjkh","event_type":"Activated Business","description":"Activated business with name - Test Team","business_id":"","date_created":"01\/03\/2024 @ 03:22PM","team_member":"Platform Owner"},{"id":"01hqx6ads7ss2qn52xjswxp0fk","user_id":"01hqwd9q9qggp73rbdyznhfjkh","event_type":"Deactivated Business","description":"Deactivated business with name - Test Team","business_id":"","date_created":"01\/03\/2024 @ 03:22PM","team_member":"Platform Owner"},{"id":"01hqx6abk2317pzpt4n560nfxy","user_id":"01hqwd9q9qggp73rbdyznhfjkh","event_type":"Activated Business","description":"Activated business with name - Test Team","business_id":"","date_created":"01\/03\/2024 @ 03:22PM","team_member":"Platform Owner"},{"id":"01hqx6a8vxvz8kv7xnpzcf78wf","user_id":"01hqwd9q9qggp73rbdyznhfjkh","event_type":"Deactivated Business","description":"Deactivated business with name - Test Team","business_id":"","date_created":"01\/03\/2024 @ 03:22PM","team_member":"Platform Owner"},{"id":"01hqx69y98n4rgqwjp4kn009f8","user_id":"01hqwd9q9qggp73rbdyznhfjkh","event_type":"Updated team member status","description":"Updated team member status with email - sultan+144@assurdly.com","business_id":"","date_created":"01\/03\/2024 @ 03:22PM","team_member":"Platform Owner"},{"id":"01hqx69w8ad2kxvkrqhn3wmens","user_id":"01hqwd9q9qggp73rbdyznhfjkh","event_type":"Updated team member status","description":"Updated team member status with email - sultan+144@assurdly.com","business_id":"","date_created":"01\/03\/2024 @ 03:22PM","team_member":"Platform Owner"},{"id":"01hqx69t75e59c8g3wm4drs316","user_id":"01hqwd9q9qggp73rbdyznhfjkh","event_type":"Updated team member","description":"updated team with email - ","business_id":"","date_created":"01\/03\/2024 @ 03:22PM","team_member":"Platform Owner"}],"pagination":{"current_page":1,"per_page":10,"total":72,"next_page_url":"http:\/\/salary.dev.onepipe.io\/api\/audit?page=2","prev_page_url":null},"message":"Audit trails retrieved successfully"}