{"success":true,"data":[{"id":"01hqnsg4pfx2ad095agy9gqk39","user_id":"01hq3781r6qm4ney4aaxtfk065","event_type":"Updated kyb-setting","description":"updated document with name - Certificate of Incorporation","business_id":"","date_created":"27\/02\/2024 @ 06:23PM","team_member":"Platform Owner"},{"id":"01hqnsfwg7ztf82518sv1z2v30","user_id":"01hq3781r6qm4ney4aaxtfk065","event_type":"Created a kyb-setting","description":"created kyb setting with document-name - Certificate of Incorporation","business_id":"","date_created":"27\/02\/2024 @ 06:23PM","team_member":"Platform Owner"},{"id":"01hqnsevgp37ctjwhzvh9an22w","user_id":"01hq3781r6qm4ney4aaxtfk065","event_type":"Blacklisted Business","description":"Blacklisted business with name - Habeeb13","business_id":"","date_created":"27\/02\/2024 @ 06:23PM","team_member":"Platform Owner"},{"id":"01hqnsesemyd0vaev13a4mrvjk","user_id":"01hq3781r6qm4ney4aaxtfk065","event_type":"Deactivated Business","description":"Deactivated business with name - Habeeb13","business_id":"","date_created":"27\/02\/2024 @ 06:23PM","team_member":"Platform Owner"},{"id":"01hqnseqb85x1xhxb40vgnsp7h","user_id":"01hq3781r6qm4ney4aaxtfk065","event_type":"Deactivated Business","description":"Deactivated business with name - Habeeb13","business_id":"","date_created":"27\/02\/2024 @ 06:23PM","team_member":"Platform Owner"},{"id":"01hqnsen6a5qh64c7t6hrp8m10","user_id":"01hq3781r6qm4ney4aaxtfk065","event_type":"Activated Business","description":"Activated business with name - Habeeb13","business_id":"","date_created":"27\/02\/2024 @ 06:22PM","team_member":"Platform Owner"},{"id":"01hqnsejjkjm6qqz6n9ebfpcck","user_id":"01hq3781r6qm4ney4aaxtfk065","event_type":"Activated Business","description":"Activated business with name - Habeeb13","business_id":"","date_created":"27\/02\/2024 @ 06:22PM","team_member":"Platform Owner"},{"id":"01hqnse4xrmep4jbv07s0jkvny","user_id":"01hq3781r6qm4ney4aaxtfk065","event_type":"Updated team member status","description":"Updated team member status with email - sultan+753@assurdly.com","business_id":"","date_created":"27\/02\/2024 @ 06:22PM","team_member":"Platform Owner"},{"id":"01hqnse2zq76etq96fvqq6vjcz","user_id":"01hq3781r6qm4ney4aaxtfk065","event_type":"Updated team member status","description":"Updated team member status with email - sultan+753@assurdly.com","business_id":"","date_created":"27\/02\/2024 @ 06:22PM","team_member":"Platform Owner"},{"id":"01hqnsdhya78shgg8h0rs1gtyx","user_id":"01hq3781r6qm4ney4aaxtfk065","event_type":"Invited team member","description":"Resent Invite team member email - sultan+753@assurdly.com","business_id":"","date_created":"27\/02\/2024 @ 06:22PM","team_member":"Platform Owner"}],"pagination":{"current_page":1,"per_page":10,"total":874,"next_page_url":"http:\/\/salary.dev.onepipe.io\/api\/audit?page=2","prev_page_url":null},"message":"Audit trails retrieved successfully"}