{"success":true,"data":[{"id":"01hqqv5bc84vxq4q0hxspve21e","user_id":"01hq3781r6qm4ney4aaxtfk065","event_type":"Updated kyb-setting","description":"updated document with name - Certificate of Incorporation","business_id":"","date_created":"28\/02\/2024 @ 01:31PM","team_member":"Platform Owner"},{"id":"01hqqv52pfbf5wr17f3fqm4bmw","user_id":"01hq3781r6qm4ney4aaxtfk065","event_type":"Created a kyb-setting","description":"created kyb setting with document-name - Certificate of Incorporation","business_id":"","date_created":"28\/02\/2024 @ 01:31PM","team_member":"Platform Owner"},{"id":"01hqqv3z0chg5sr96n4erpprk4","user_id":"01hq3781r6qm4ney4aaxtfk065","event_type":"Blacklisted Business","description":"Blacklisted business with name - Habeeb13","business_id":"","date_created":"28\/02\/2024 @ 01:30PM","team_member":"Platform Owner"},{"id":"01hqqv3wteh1x974500v2a7n51","user_id":"01hq3781r6qm4ney4aaxtfk065","event_type":"Deactivated Business","description":"Deactivated business with name - Habeeb13","business_id":"","date_created":"28\/02\/2024 @ 01:30PM","team_member":"Platform Owner"},{"id":"01hqqv3tkcza1yn7x2089mgadc","user_id":"01hq3781r6qm4ney4aaxtfk065","event_type":"Deactivated Business","description":"Deactivated business with name - Habeeb13","business_id":"","date_created":"28\/02\/2024 @ 01:30PM","team_member":"Platform Owner"},{"id":"01hqqv3rdwc6jqmbwdst6vn153","user_id":"01hq3781r6qm4ney4aaxtfk065","event_type":"Activated Business","description":"Activated business with name - Habeeb13","business_id":"","date_created":"28\/02\/2024 @ 01:30PM","team_member":"Platform Owner"},{"id":"01hqqv3nqt0mfbde0m9empfsjn","user_id":"01hq3781r6qm4ney4aaxtfk065","event_type":"Activated Business","description":"Activated business with name - Habeeb13","business_id":"","date_created":"28\/02\/2024 @ 01:30PM","team_member":"Platform Owner"},{"id":"01hqqv37kggmycrtx8646fm4c1","user_id":"01hq3781r6qm4ney4aaxtfk065","event_type":"Updated team member status","description":"Updated team member status with email - sultan+371@assurdly.com","business_id":"","date_created":"28\/02\/2024 @ 01:30PM","team_member":"Platform Owner"},{"id":"01hqqv35kd5b1cm6zzzxp3pbk1","user_id":"01hq3781r6qm4ney4aaxtfk065","event_type":"Updated team member status","description":"Updated team member status with email - sultan+371@assurdly.com","business_id":"","date_created":"28\/02\/2024 @ 01:30PM","team_member":"Platform Owner"},{"id":"01hqqv33h0akn2darn81nsaky1","user_id":"01hq3781r6qm4ney4aaxtfk065","event_type":"Updated team member","description":"updated team with email - ","business_id":"","date_created":"28\/02\/2024 @ 01:30PM","team_member":"Platform Owner"}],"pagination":{"current_page":1,"per_page":10,"total":947,"next_page_url":"http:\/\/salary.dev.onepipe.io\/api\/audit?page=2","prev_page_url":null},"message":"Audit trails retrieved successfully"}