{"success":true,"data":[{"id":"01hsvb0a97ae5fk7ymd2h7yn8s","user_id":"01hshhrgmbdtfbnf7vg8tfq95d","event_type":"Deleted KYB setting","description":"Deleted KYB setting with document name - Certificate of Incorporation","business_id":null,"date_created":"25\/03\/2024 @ 06:37PM","team_member":"Platform Owner"},{"id":"01hsvb084p03acxyxk0hr2vvp0","user_id":"01hshhrgmbdtfbnf7vg8tfq95d","event_type":"Updated KYB setting","description":"Updated document with name - Certificate of Incorporation","business_id":null,"date_created":"25\/03\/2024 @ 06:37PM","team_member":"Platform Owner"},{"id":"01hsvazyt1h6nf0j7vq1tqeq48","user_id":"01hshhrgmbdtfbnf7vg8tfq95d","event_type":"Created a KYB setting","description":"Created KYB setting with document name - Certificate of Incorporation","business_id":null,"date_created":"25\/03\/2024 @ 06:37PM","team_member":"Platform Owner"},{"id":"01hsvaxwbqrcascnd5tc231bg8","user_id":"01hshhrgmbdtfbnf7vg8tfq95d","event_type":"Activated business","description":"Activated business with name - Mohammed HQ","business_id":null,"date_created":"25\/03\/2024 @ 06:36PM","team_member":"Platform Owner"},{"id":"01hsvaxpj9ef4wz9dqrs8gpsjm","user_id":"01hshhrgmbdtfbnf7vg8tfq95d","event_type":"Deactivated business","description":"Deactivated business with name - Mohammed HQ","business_id":null,"date_created":"25\/03\/2024 @ 06:35PM","team_member":"Platform Owner"},{"id":"01hsvaxfp1gbkpg1srvbweaam7","user_id":"01hshhrgmbdtfbnf7vg8tfq95d","event_type":"Activated business","description":"Activated business with name - Mohammed HQ","business_id":null,"date_created":"25\/03\/2024 @ 06:35PM","team_member":"Platform Owner"},{"id":"01hsvaxar1grq5d98p9nkprfng","user_id":"01hshhrgmbdtfbnf7vg8tfq95d","event_type":"Deactivated business","description":"Deactivated business with name - Mohammed HQ","business_id":null,"date_created":"25\/03\/2024 @ 06:35PM","team_member":"Platform Owner"},{"id":"01hsvawqx39fg9z06f6hzrtnb8","user_id":"01hshhrgmbdtfbnf7vg8tfq95d","event_type":"Updated team member status","description":"Updated team member status with email - sultan+217@assurdly.com","business_id":null,"date_created":"25\/03\/2024 @ 06:35PM","team_member":"Platform Owner"},{"id":"01hsvawnt50c7zy6eqjt5mtjhs","user_id":"01hshhrgmbdtfbnf7vg8tfq95d","event_type":"Updated team member status","description":"Updated team member status with email - sultan+217@assurdly.com","business_id":null,"date_created":"25\/03\/2024 @ 06:35PM","team_member":"Platform Owner"},{"id":"01hsvawkpzqcw10jd7qpfrnd1n","user_id":"01hshhrgmbdtfbnf7vg8tfq95d","event_type":"Updated team member","description":"Updated team with email - ","business_id":null,"date_created":"25\/03\/2024 @ 06:35PM","team_member":"Platform Owner"}],"pagination":{"current_page":1,"per_page":10,"total":156,"next_page_url":"http:\/\/salary.dev.onepipe.io\/api\/audit?page=2","prev_page_url":null},"message":"Audit trails retrieved successfully"}