{"success":true,"data":[{"id":"01hsba2n5tjmjyd5rpjkj7wsqn","transaction_ref":"01HSBA2N5TJMJYD5RPJKJ7WSQM","type":"PAYROLL","amount":"83,333.33","narration":"SALARY\/Stock 2","employee_name":"Tola Dele","status":"pending","date":"19\/03\/2024 @ 01:13PM"},{"id":"01hsb9h7a8mjjwp73e8tr0bj5v","transaction_ref":"01HSB9H7A7ZDA5WV1W9BXPY3Y9","type":"PAYROLL","amount":"83,333.33","narration":"SALARY\/Munch","employee_name":"Tola Dele","status":"pending","date":"19\/03\/2024 @ 01:03PM"},{"id":"01hsb8d126d0gmd532y00eyqqp","transaction_ref":"01HSB8D126D0GMD532Y00EYQQN","type":"PAYROLL","amount":"100,000.00","narration":"SALARY\/gabriella.inc","employee_name":"tobechukwu Udoye","status":"pending","date":"19\/03\/2024 @ 12:44PM"},{"id":"01hsb7xtt415rv7fe413x7xmk1","transaction_ref":"01HSB7XTT3K5ZRTF73RYAMWKKT","type":"PAYROLL","amount":"41,666.67","narration":"SALARY\/Main","employee_name":"Enoch Sam","status":"pending","date":"19\/03\/2024 @ 12:35PM"},{"id":"01hsb7fahf8rwp399xt34jh4p5","transaction_ref":"01HSB7FAHF8RWP399XT34JH4P4","type":"PAYROLL","amount":"200,000.00","narration":"SALARY\/Contract","employee_name":"Precious Testing","status":"pending","date":"19\/03\/2024 @ 12:27PM"},{"id":"01hsb70hbd0xj5we6bcdkebh4t","transaction_ref":"01HSB70HBD0XJ5WE6BCDKEBH4S","type":"PAYROLL","amount":"3,804.67","narration":"SALARY\/May","employee_name":"Janre jung","status":"pending","date":"19\/03\/2024 @ 12:19PM"},{"id":"01hsb6nvjwqtkvah5cv0bv8prh","transaction_ref":"01HSB6NVJVRG1G0TZ839WWQ7RP","type":"PAYROLL","amount":"8,333.33","narration":"SALARY\/PayPro","employee_name":"Jane Doe","status":"pending","date":"19\/03\/2024 @ 12:13PM"},{"id":"01hsb66rpc7d1f3ddb92xyk9wy","transaction_ref":"01HSB66RPBZVD5M5PV91MRAX31","type":"PAYROLL","amount":"166,666.67","narration":"SALARY\/March","employee_name":"Great Owo","status":"pending","date":"19\/03\/2024 @ 12:05PM"},{"id":"01hsa12x06v40af301cvekf0w7","transaction_ref":"01HSA12X06V40AF301CVEKF0W6","type":"PAYROLL","amount":"166,666.67","narration":"SALARY\/Hab Test Payroll","employee_name":"Habeeb Seun","status":"pending","date":"19\/03\/2024 @ 01:16AM"},{"id":"01hs9qz4ns2k1kdmvvqggeqyg0","transaction_ref":"01HS9QZ4NRTYBD09B24NHB2XTY","type":"PAYROLL","amount":"66,666.67","narration":"SALARY\/Basic Allowance","employee_name":"Udeme Nse","status":"pending","date":"18\/03\/2024 @ 10:37PM"}],"pagination":{"current_page":1,"per_page":10,"total":22,"next_page_url":"http:\/\/salary.dev.onepipe.io\/api\/transaction?page=2","prev_page_url":null},"message":"List of transactions fetched successfully"}