{"success":true,"data":[{"id":"01hsbz7gzf6k67em6gt6vws6yq","business_name":"Kaysal","email":"salamikayode50@outlook.com","phone_number":"2347084418236","owner_name":"Kay Sal","date_created":"19\/03\/2024 @ 07:22PM","rc_number":"3465979","business_type":"Others","status":"pending","enable_email":false,"enable_sms":false,"has_completed_kyb":0,"owner_id":"01hsbz7hrkgrwav8dvkevtqcqf","state_id":"01hrnzz91327kjrhd201vb56rz","state":"Lagos","address":"Ewedonbon","virtualAccount":null,"settlementAccount":{"id":"01hsc0swdee20tzd5pbjax557b","account_name":"KAYODE SAMUEL SALAMI","account_number":"7064959182","bank_name":"OPAY DIGITAL SERVICES LIMITED"},"payslipSettings":null},{"id":"01hsb573ne3tqfp21z0579yd7h","business_name":"qa","email":"favour@mailinator.com","phone_number":"2348022114546","owner_name":"NEW TEAM","date_created":"19\/03\/2024 @ 11:48AM","rc_number":"0944555555","business_type":"Real Estate","status":"blacklisted","enable_email":false,"enable_sms":false,"has_completed_kyb":1,"owner_id":"01hsb574atthyd0pxhm6sthw6x","state_id":null,"state":null,"address":null,"virtualAccount":null,"settlementAccount":null,"payslipSettings":null},{"id":"01hsb51v27fyjw8x8cwr3rwg82","business_name":"intergrated services","email":"Ayoouche@gmail.com","phone_number":"2348059785508","owner_name":"Ahmed Haruna","date_created":"19\/03\/2024 @ 11:45AM","rc_number":"0000000","business_type":"Real Estate","status":"pending","enable_email":false,"enable_sms":false,"has_completed_kyb":0,"owner_id":"01hsb51vqj3gwjpgq1r7nq12j1","state_id":"01hrnzz91327kjrhd201vb56rz","state":"Lagos","address":"ojodu","virtualAccount":null,"settlementAccount":{"id":"01hsb5bebw1w9pg01xwmhj9qpr","account_name":"HARUNA  AHMED AYODEJI","account_number":"0045510628","bank_name":"GTBank"},"payslipSettings":null},{"id":"01hsb42c6q9kq4qs6zyh4762jp","business_name":"Kachi","email":"onyekachi@assurdly.com","phone_number":"2348054726044","owner_name":"Onyekachi Okere","date_created":"19\/03\/2024 @ 11:28AM","rc_number":"1223245313","business_type":"Real Estate","status":"active","enable_email":false,"enable_sms":false,"has_completed_kyb":1,"owner_id":"01hsb42cw9fb3e5zrqsmb3q69z","state_id":null,"state":null,"address":null,"virtualAccount":{"id":"01hsb4f52bj0aym5bdgbtbtqrq","account_name":"Kachi","account_number":"1910696416","bank_name":"SUPPORT MICROFINANCE BANK"},"settlementAccount":null,"payslipSettings":null},{"id":"01hsb3t6p7gwg6nbr809knfp76","business_name":"gabriella.inc","email":"gabriella@assurdly.com","phone_number":"2349017432574","owner_name":"Gabriella OlaThomas","date_created":"19\/03\/2024 @ 11:23AM","rc_number":"12345","business_type":"Healthcare","status":"active","enable_email":true,"enable_sms":true,"has_completed_kyb":1,"owner_id":"01hsb3t7bqhfg972bxgzkpwk26","state_id":"Lagos","state":null,"address":"123, Abidoskar way, Lagos","virtualAccount":{"id":"01hsb4cgwb4x2dyzbjdfkr90w9","account_name":"gabriella.inc","account_number":"1218900086","bank_name":"SUPPORT MICROFINANCE BANK"},"settlementAccount":{"id":"01hsb418vc2kdgzn3t8gfs2bbb","account_name":"OLA  THOMAS GABRIELLA BUKOLA","account_number":"3102466592","bank_name":"First Bank"},"payslipSettings":{"id":6,"business_id":"01hsb3t6p7gwg6nbr809knfp76","brand_color":"undefined","company_logo":"businessLogo\/01hsb3t6p7gwg6nbr809knfp76.pdf","header_text":"Assurdly","footer_text":"Policy","created_at":"2024-03-19T10:30:23.000000Z","updated_at":"2024-03-19T10:30:23.000000Z"}},{"id":"01hsb3sq34pe0vsbvkg2ec7px5","business_name":"Gee Inc","email":"gwendoline+1pipe@assurdly.com","phone_number":"2348168519515","owner_name":"Gwen Dolyn","date_created":"19\/03\/2024 @ 11:23AM","rc_number":"0001111119","business_type":"Entertainment","status":"active","enable_email":true,"enable_sms":true,"has_completed_kyb":1,"owner_id":"01hsb3sqrj6sjtgq38g5mjbn2f","state_id":"01hrnzz91327kjrhd201vb56rz","state":"Lagos","address":"Around the world","virtualAccount":{"id":"01hsb4aj0rywyzbf4vkv85xca8","account_name":"Gee Inc","account_number":"855464408","bank_name":"SUPPORT MICROFINANCE BANK"},"settlementAccount":{"id":"01hsb4bcrj1hanjgxjc3k3twhh","account_name":"UFOT  GWENDOLINE EMIYE","account_number":"0161987335","bank_name":"GTBank"},"payslipSettings":{"id":7,"business_id":"01hsb3sq34pe0vsbvkg2ec7px5","brand_color":"undefined","company_logo":"businessLogo\/01hsb3sq34pe0vsbvkg2ec7px5.jpg","header_text":"Gee Inc","footer_text":"Gee Inc","created_at":"2024-03-19T10:35:11.000000Z","updated_at":"2024-03-19T10:35:11.000000Z"}},{"id":"01hsb3s2ad46xe2fwpg86ttw96","business_name":"Azeez Inc","email":"azeez@assurdly.com","phone_number":"2349055755671","owner_name":"Ibrahim Azeez","date_created":"19\/03\/2024 @ 11:23AM","rc_number":"12345600","business_type":"Telecommunications","status":"active","enable_email":false,"enable_sms":false,"has_completed_kyb":1,"owner_id":"01hsb3s30ce9vqsrh1dvezr3ac","state_id":"01hrnzwqgk160jxkcqxwww2nr6","state":"Abia ","address":"Abia","virtualAccount":{"id":"01hsb48xrt455ddq2jycrrzkhg","account_name":"Azeez Inc","account_number":"207601880","bank_name":"SUPPORT MICROFINANCE BANK"},"settlementAccount":{"id":"01hsb3xfq9bqt838kx1vyt2kkx","account_name":"IBRAHIM OLAMILEKAN AZEEZ","account_number":"2265006649","bank_name":"Zenith Bank"},"payslipSettings":null},{"id":"01hsb3g7r6xa7gt8wtgr1tk1b6","business_name":"tester","email":"favour@assurdly.com","phone_number":"2349033362914","owner_name":"favour Elijah","date_created":"19\/03\/2024 @ 11:18AM","rc_number":"54432211","business_type":"Healthcare","status":"active","enable_email":false,"enable_sms":false,"has_completed_kyb":1,"owner_id":"01hsb3g8dyfeey5sdgwvf7a40n","state_id":null,"state":null,"address":null,"virtualAccount":{"id":"01hsb46vfbbjhce8z1sg4bhhef","account_name":"tester","account_number":"411533617","bank_name":"SUPPORT MICROFINANCE BANK"},"settlementAccount":null,"payslipSettings":null},{"id":"01hsb3b0vv7gqapg7nhbe6dss1","business_name":"Frank","email":"adetutu@assurdly.com","phone_number":"2348138096551","owner_name":"Adetutu Isinks","date_created":"19\/03\/2024 @ 11:15AM","rc_number":"2345678957","business_type":"Real Estate","status":"active","enable_email":false,"enable_sms":false,"has_completed_kyb":1,"owner_id":"01hsb3b1hd4dnhm6wr3gekbwwq","state_id":"Lagos","state":null,"address":"12 Salient street Lagos","virtualAccount":{"id":"01hsb44m6r2xj1fver51h2vgm7","account_name":"Frank","account_number":"1744343655","bank_name":"SUPPORT MICROFINANCE BANK"},"settlementAccount":{"id":"01hsb3hy85d3j1sdddr1eg346m","account_name":"ISINKAIYE  ADETUTU OMOYEMI","account_number":"0151123145","bank_name":"GTBank"},"payslipSettings":null},{"id":"01hsb39q4xen033ween3cf9epm","business_name":"Bloom Station","email":"oten+1@assurdly.com","phone_number":"2348160353712","owner_name":"Otee Big","date_created":"19\/03\/2024 @ 11:14AM","rc_number":"123456789","business_type":"Hospitality","status":"active","enable_email":true,"enable_sms":true,"has_completed_kyb":1,"owner_id":"01hsb39qtr2qx8bcr6mmqxjw6r","state_id":"01hrnzxeck7pe9r492zcvc9592","state":"Cross River","address":"oten+1@assurdly.com","virtualAccount":{"id":"01hsb439acn9m8jnzd9ctvxv3k","account_name":"Bloom Station","account_number":"535569850","bank_name":"SUPPORT MICROFINANCE BANK"},"settlementAccount":{"id":"01hsb3j8c3pz2xqnm0w0dnmt3n","account_name":"ITA   OTEN EYO","account_number":"0478673006","bank_name":"GTBank"},"payslipSettings":{"id":5,"business_id":"01hsb39q4xen033ween3cf9epm","brand_color":"#307123","company_logo":"businessLogo\/01hsb39q4xen033ween3cf9epm.png","header_text":"Hospitality 101","footer_text":"No 1 choice","created_at":"2024-03-19T10:27:08.000000Z","updated_at":"2024-03-19T10:27:08.000000Z"}}],"pagination":{"current_page":1,"per_page":10,"total":23,"next_page_url":"http:\/\/salary.dev.onepipe.io\/api\/businesses?page=2","prev_page_url":null},"message":"Businesses retrieved successfully"}