{"success":true,"data":[{"id":"01hsba13pk9ttxzp2y4trt7x8e","name":"Stock 2","cycle_starts":"Mar 20, 2024","cycle_ends":"Mar 21, 2024","amount_disbursed":"83333.33","date_created":"19\/03\/2024 @ 01:12PM","business_id":"01hsb31pnhhvbbctj1z01vp97h","business_name":"Tinubu Rentals","employee_count":"1","status":"Approved"},{"id":"01hsb9xj5ct4fcnefse64b4cq3","name":"Stock","cycle_starts":"Mar 19, 2024","cycle_ends":"Mar 20, 2024","amount_disbursed":"83333.33","date_created":"19\/03\/2024 @ 01:10PM","business_id":"01hsb31pnhhvbbctj1z01vp97h","business_name":"Tinubu Rentals","employee_count":"1","status":"pending"},{"id":"01hsb9dm6ny53sab67k43s5mab","name":"Munch","cycle_starts":"Mar 19, 2024","cycle_ends":"Mar 24, 2024","amount_disbursed":"83333.33","date_created":"19\/03\/2024 @ 01:01PM","business_id":"01hsb31pnhhvbbctj1z01vp97h","business_name":"Tinubu Rentals","employee_count":"1","status":"Approved"},{"id":"01hsb8c5pxpfmm98d315sjywc5","name":"123ABS","cycle_starts":"Mar 06, 2024","cycle_ends":"Mar 06, 2025","amount_disbursed":"100000.00","date_created":"19\/03\/2024 @ 12:43PM","business_id":"01hsb3t6p7gwg6nbr809knfp76","business_name":"gabriella.inc","employee_count":"1","status":"pending"},{"id":"01hsb86tr58mdywknwgc0fbfzq","name":"Third","cycle_starts":"Mar 04, 2024","cycle_ends":"Mar 22, 2024","amount_disbursed":"41666.67","date_created":"19\/03\/2024 @ 12:40PM","business_id":"01hsb39drqvazbc9hc94ayxnby","business_name":"Insight","employee_count":"1","status":"decline"},{"id":"01hsb82k2wjtshgchxjy8yy79r","name":"Second","cycle_starts":"Mar 11, 2024","cycle_ends":"Mar 14, 2024","amount_disbursed":"41666.67","date_created":"19\/03\/2024 @ 12:38PM","business_id":"01hsb39drqvazbc9hc94ayxnby","business_name":"Insight","employee_count":"1","status":"pending"},{"id":"01hsb7tscqh4cdb56547vmq26a","name":"Main","cycle_starts":"Mar 19, 2024","cycle_ends":"Mar 29, 2024","amount_disbursed":"41666.67","date_created":"19\/03\/2024 @ 12:34PM","business_id":"01hsb39drqvazbc9hc94ayxnby","business_name":"Insight","employee_count":"1","status":"Approved"},{"id":"01hsb7td005636rz3rr3926w2s","name":"gabriella.inc","cycle_starts":"Mar 19, 2024","cycle_ends":"Mar 19, 2025","amount_disbursed":"100000.00","date_created":"19\/03\/2024 @ 12:33PM","business_id":"01hsb3t6p7gwg6nbr809knfp76","business_name":"gabriella.inc","employee_count":"1","status":"Approved"},{"id":"01hsb7e22343zq5tw3za70wg7q","name":"Contract","cycle_starts":"Mar 29, 2024","cycle_ends":"Jul 26, 2024","amount_disbursed":"200000.00","date_created":"19\/03\/2024 @ 12:27PM","business_id":"01hsb2zgpr785ntpvks2j26x0b","business_name":"Precious Testing","employee_count":"1","status":"Approved"},{"id":"01hsb760tkz8v4apyrz7jz22zr","name":"Gee Inc Payroll","cycle_starts":"Mar 19, 2024","cycle_ends":"Apr 19, 2024","amount_disbursed":"4166666.67","date_created":"19\/03\/2024 @ 12:22PM","business_id":"01hsb3sq34pe0vsbvkg2ec7px5","business_name":"Gee Inc","employee_count":"1","status":"pending"}],"pagination":{"current_page":1,"per_page":10,"total":24,"next_page_url":"http:\/\/salary.dev.onepipe.io\/api\/payrolls?page=2","prev_page_url":null},"message":"Payrolls retrieved successfully"}