{"success":true,"data":[{"id":"01hsdgcvqz2635kdv1sdyf0feq","user_id":"01hrnzwq8cjyvjpvxrhbw8tktc","event_type":"Deleted KYB setting","description":"Deleted KYB setting with document name - Certificate of Incorporation","business_id":null,"date_created":"20\/03\/2024 @ 09:42AM","team_member":"Platform Owner"},{"id":"01hsdgcsd74bsdr42q2rbbe9q5","user_id":"01hrnzwq8cjyvjpvxrhbw8tktc","event_type":"Updated KYB setting","description":"Updated document with name - Certificate of Incorporation","business_id":null,"date_created":"20\/03\/2024 @ 09:42AM","team_member":"Platform Owner"},{"id":"01hsdgcfe29tpjh8dv69xy5bdc","user_id":"01hrnzwq8cjyvjpvxrhbw8tktc","event_type":"Created a KYB setting","description":"Created KYB setting with document name - Certificate of Incorporation","business_id":null,"date_created":"20\/03\/2024 @ 09:41AM","team_member":"Platform Owner"},{"id":"01hsdgaq72mw4b7ey51ejefftv","user_id":"01hrnzwq8cjyvjpvxrhbw8tktc","event_type":"Activated business","description":"Activated business with name - Kaysal","business_id":null,"date_created":"20\/03\/2024 @ 09:41AM","team_member":"Platform Owner"},{"id":"01hsdgag94r2vycda53cefptnf","user_id":"01hrnzwq8cjyvjpvxrhbw8tktc","event_type":"Deactivated business","description":"Deactivated business with name - Kaysal","business_id":null,"date_created":"20\/03\/2024 @ 09:40AM","team_member":"Platform Owner"},{"id":"01hsdga96k128xak5vx3c7j58q","user_id":"01hrnzwq8cjyvjpvxrhbw8tktc","event_type":"Activated business","description":"Activated business with name - Kaysal","business_id":null,"date_created":"20\/03\/2024 @ 09:40AM","team_member":"Platform Owner"},{"id":"01hsdga2a57tqp7q1bnaeyabn0","user_id":"01hrnzwq8cjyvjpvxrhbw8tktc","event_type":"Deactivated business","description":"Deactivated business with name - Kaysal","business_id":null,"date_created":"20\/03\/2024 @ 09:40AM","team_member":"Platform Owner"},{"id":"01hsdg97s32xpya3bc9yx73bn9","user_id":"01hrnzwq8cjyvjpvxrhbw8tktc","event_type":"Updated team member status","description":"Updated team member status with email - sultan+261@assurdly.com","business_id":null,"date_created":"20\/03\/2024 @ 09:40AM","team_member":"Platform Owner"},{"id":"01hsdg95gjhrjx005rhthch3he","user_id":"01hrnzwq8cjyvjpvxrhbw8tktc","event_type":"Updated team member status","description":"Updated team member status with email - sultan+261@assurdly.com","business_id":null,"date_created":"20\/03\/2024 @ 09:40AM","team_member":"Platform Owner"},{"id":"01hsdg938bempxym26gh44faa1","user_id":"01hrnzwq8cjyvjpvxrhbw8tktc","event_type":"Updated team member","description":"Updated team with email - ","business_id":null,"date_created":"20\/03\/2024 @ 09:40AM","team_member":"Platform Owner"}],"pagination":{"current_page":1,"per_page":10,"total":343,"next_page_url":"http:\/\/salary.dev.onepipe.io\/api\/audit?page=2","prev_page_url":null},"message":"Audit trails retrieved successfully"}