{"success":true,"data":[{"id":"01hsrx5wtgw1xk3panfcb71eqa","user_id":"01hshhrgmbdtfbnf7vg8tfq95d","event_type":"Deleted KYB setting","description":"Deleted KYB setting with document name - Certificate of Incorporation","business_id":null,"date_created":"24\/03\/2024 @ 07:57PM","team_member":"Platform Owner"},{"id":"01hsrx5tp64vpcx3s9rzq1nn85","user_id":"01hshhrgmbdtfbnf7vg8tfq95d","event_type":"Updated KYB setting","description":"Updated document with name - Certificate of Incorporation","business_id":null,"date_created":"24\/03\/2024 @ 07:57PM","team_member":"Platform Owner"},{"id":"01hsrx5htb1pbwfqhqa579j06c","user_id":"01hshhrgmbdtfbnf7vg8tfq95d","event_type":"Created a KYB setting","description":"Created KYB setting with document name - Certificate of Incorporation","business_id":null,"date_created":"24\/03\/2024 @ 07:57PM","team_member":"Platform Owner"},{"id":"01hsrx3y797svrhj2fb65q9wra","user_id":"01hshhrgmbdtfbnf7vg8tfq95d","event_type":"Activated business","description":"Activated business with name - Assurdly Bus","business_id":null,"date_created":"24\/03\/2024 @ 07:56PM","team_member":"Platform Owner"},{"id":"01hsrx3sdhq0hdbwr5396e4j8f","user_id":"01hshhrgmbdtfbnf7vg8tfq95d","event_type":"Deactivated business","description":"Deactivated business with name - Assurdly Bus","business_id":null,"date_created":"24\/03\/2024 @ 07:56PM","team_member":"Platform Owner"},{"id":"01hsrx3jtgqfkpy4pbd8be4jgf","user_id":"01hshhrgmbdtfbnf7vg8tfq95d","event_type":"Activated business","description":"Activated business with name - Assurdly Bus","business_id":null,"date_created":"24\/03\/2024 @ 07:55PM","team_member":"Platform Owner"},{"id":"01hsrx3d590s88gbzj8nxtkd28","user_id":"01hshhrgmbdtfbnf7vg8tfq95d","event_type":"Deactivated business","description":"Deactivated business with name - Assurdly Bus","business_id":null,"date_created":"24\/03\/2024 @ 07:55PM","team_member":"Platform Owner"},{"id":"01hsrx2x3pxy9y76geve01qdqc","user_id":"01hshhrgmbdtfbnf7vg8tfq95d","event_type":"Updated team member status","description":"Updated team member status with email - sultan+353@assurdly.com","business_id":null,"date_created":"24\/03\/2024 @ 07:55PM","team_member":"Platform Owner"},{"id":"01hsrx2v0ffn3w8tepacr1vabt","user_id":"01hshhrgmbdtfbnf7vg8tfq95d","event_type":"Updated team member status","description":"Updated team member status with email - sultan+353@assurdly.com","business_id":null,"date_created":"24\/03\/2024 @ 07:55PM","team_member":"Platform Owner"},{"id":"01hsrx2rzbkw06k2tf6403yw9j","user_id":"01hshhrgmbdtfbnf7vg8tfq95d","event_type":"Updated team member","description":"Updated team with email - ","business_id":null,"date_created":"24\/03\/2024 @ 07:55PM","team_member":"Platform Owner"}],"pagination":{"current_page":1,"per_page":10,"total":72,"next_page_url":"http:\/\/salary.dev.onepipe.io\/api\/audit?page=2","prev_page_url":null},"message":"Audit trails retrieved successfully"}