{"success":true,"data":[{"id":"01hsb5gh6zwykwcerpsrwanbf0","user_id":"01hrnzwq8cjyvjpvxrhbw8tktc","event_type":"Deleted KYB setting","description":"Deleted KYB setting with document name - Certificate of Incorporation","business_id":null,"date_created":"19\/03\/2024 @ 11:53AM","team_member":"Platform Owner"},{"id":"01hsb5gf4kmkh0c14nt17waxs2","user_id":"01hrnzwq8cjyvjpvxrhbw8tktc","event_type":"Updated KYB setting","description":"Updated document with name - Certificate of Incorporation","business_id":null,"date_created":"19\/03\/2024 @ 11:53AM","team_member":"Platform Owner"},{"id":"01hsb5g6ekfjbzpdpbpnpp0kfc","user_id":"01hrnzwq8cjyvjpvxrhbw8tktc","event_type":"Created a KYB setting","description":"Created KYB setting with document name - Certificate of Incorporation","business_id":null,"date_created":"19\/03\/2024 @ 11:53AM","team_member":"Platform Owner"},{"id":"01hsb5eq5eytqms5pc3y9y81xc","user_id":"01hrnzwq8cjyvjpvxrhbw8tktc","event_type":"Blacklisted business","description":"Blacklisted business with name - qa","business_id":null,"date_created":"19\/03\/2024 @ 11:52AM","team_member":"Platform Owner"},{"id":"01hsb5egy25vqwq8rkgb2paw68","user_id":"01hrnzwq8cjyvjpvxrhbw8tktc","event_type":"Activated business","description":"Activated business with name - qa","business_id":null,"date_created":"19\/03\/2024 @ 11:52AM","team_member":"Platform Owner"},{"id":"01hsb5ec0mhnqz0t34gbajewat","user_id":"01hrnzwq8cjyvjpvxrhbw8tktc","event_type":"Deactivated business","description":"Deactivated business with name - qa","business_id":null,"date_created":"19\/03\/2024 @ 11:52AM","team_member":"Platform Owner"},{"id":"01hsb5e59fdgfrwbmbw2ce4znh","user_id":"01hrnzwq8cjyvjpvxrhbw8tktc","event_type":"Activated business","description":"Activated business with name - qa","business_id":null,"date_created":"19\/03\/2024 @ 11:52AM","team_member":"Platform Owner"},{"id":"01hsb5dz5vw0f48tmcgy8jek8r","user_id":"01hrnzwq8cjyvjpvxrhbw8tktc","event_type":"Deactivated business","description":"Deactivated business with name - qa","business_id":null,"date_created":"19\/03\/2024 @ 11:52AM","team_member":"Platform Owner"},{"id":"01hsb5d7c9zrrb48vw01v110k7","user_id":"01hrnzwq8cjyvjpvxrhbw8tktc","event_type":"Updated team member status","description":"Updated team member status with email - sultan+492@assurdly.com","business_id":null,"date_created":"19\/03\/2024 @ 11:51AM","team_member":"Platform Owner"},{"id":"01hsb5d5848p8rzscbshc3ck12","user_id":"01hrnzwq8cjyvjpvxrhbw8tktc","event_type":"Updated team member status","description":"Updated team member status with email - sultan+492@assurdly.com","business_id":null,"date_created":"19\/03\/2024 @ 11:51AM","team_member":"Platform Owner"}],"pagination":{"current_page":1,"per_page":10,"total":328,"next_page_url":"http:\/\/salary.dev.onepipe.io\/api\/audit?page=2","prev_page_url":null},"message":"Audit trails retrieved successfully"}