{"success":true,"data":[{"id":"01hqn9cbqj45a89yr2zawn56yy","user_id":"01hq3781r6qm4ney4aaxtfk065","event_type":"Updated kyb-setting","description":"updated document with name - Certificate of Incorporation","business_id":"","date_created":"27\/02\/2024 @ 01:42PM","team_member":"Platform Owner"},{"id":"01hqn9c3efjmv0mype75snm7h0","user_id":"01hq3781r6qm4ney4aaxtfk065","event_type":"Created a kyb-setting","description":"created kyb setting with document-name - Certificate of Incorporation","business_id":"","date_created":"27\/02\/2024 @ 01:41PM","team_member":"Platform Owner"},{"id":"01hqn9b6hcga5sxtdyhwmgv1rq","user_id":"01hq3781r6qm4ney4aaxtfk065","event_type":"Deactivated Business","description":"Deactivated business with name - Habeeb13","business_id":"","date_created":"27\/02\/2024 @ 01:41PM","team_member":"Platform Owner"},{"id":"01hqn9b4fw7debpkrrjpqwctya","user_id":"01hq3781r6qm4ney4aaxtfk065","event_type":"Deactivated Business","description":"Deactivated business with name - Habeeb13","business_id":"","date_created":"27\/02\/2024 @ 01:41PM","team_member":"Platform Owner"},{"id":"01hqn9b2c2knhqbz7zabyff0e5","user_id":"01hq3781r6qm4ney4aaxtfk065","event_type":"Activated Business","description":"Activated business with name - Habeeb13","business_id":"","date_created":"27\/02\/2024 @ 01:41PM","team_member":"Platform Owner"},{"id":"01hqn9azrwdgtwrn64hq6wpmjq","user_id":"01hq3781r6qm4ney4aaxtfk065","event_type":"Activated Business","description":"Activated business with name - Habeeb13","business_id":"","date_created":"27\/02\/2024 @ 01:41PM","team_member":"Platform Owner"},{"id":"01hqn9ahw2fqd05ykz78jjza89","user_id":"01hq3781r6qm4ney4aaxtfk065","event_type":"Updated team member status","description":"Updated team member status with email - sultan+581@assurdly.com","business_id":"","date_created":"27\/02\/2024 @ 01:41PM","team_member":"Platform Owner"},{"id":"01hqn9afzcq34erq2jsky67tn8","user_id":"01hq3781r6qm4ney4aaxtfk065","event_type":"Updated team member status","description":"Updated team member status with email - sultan+581@assurdly.com","business_id":"","date_created":"27\/02\/2024 @ 01:41PM","team_member":"Platform Owner"},{"id":"01hqn9a2xp68jfgwa9tc2vty9e","user_id":"01hq3781r6qm4ney4aaxtfk065","event_type":"Invited team member","description":"Resent Invite team member email - sultan+581@assurdly.com","business_id":"","date_created":"27\/02\/2024 @ 01:40PM","team_member":"Platform Owner"},{"id":"01hqn99x4xn2qx6d7xy1ycd3f9","user_id":"01hq3781r6qm4ney4aaxtfk065","event_type":"Invited team member","description":"Invited team member email - sultan+581@assurdly.com","business_id":"","date_created":"27\/02\/2024 @ 01:40PM","team_member":"Platform Owner"}],"pagination":{"current_page":1,"per_page":10,"total":730,"next_page_url":"http:\/\/salary.dev.onepipe.io\/api\/audit?page=2","prev_page_url":null},"message":"Audit trails retrieved successfully"}