{"success":true,"data":[{"id":"01hqns6r4t8brtnb03e4y2zx55","user_id":"01hq3781r6qm4ney4aaxtfk065","event_type":"Updated kyb-setting","description":"updated document with name - Certificate of Incorporation","business_id":"","date_created":"27\/02\/2024 @ 06:18PM","team_member":"Platform Owner"},{"id":"01hqns6fq2g75mahrm9tdnv9st","user_id":"01hq3781r6qm4ney4aaxtfk065","event_type":"Created a kyb-setting","description":"created kyb setting with document-name - Certificate of Incorporation","business_id":"","date_created":"27\/02\/2024 @ 06:18PM","team_member":"Platform Owner"},{"id":"01hqns5ddbywnsqwa0dgy9gnz1","user_id":"01hq3781r6qm4ney4aaxtfk065","event_type":"Blacklisted Business","description":"Blacklisted business with name - Habeeb13","business_id":"","date_created":"27\/02\/2024 @ 06:17PM","team_member":"Platform Owner"},{"id":"01hqns5b9fhvvdm733xfhzp81a","user_id":"01hq3781r6qm4ney4aaxtfk065","event_type":"Deactivated Business","description":"Deactivated business with name - Habeeb13","business_id":"","date_created":"27\/02\/2024 @ 06:17PM","team_member":"Platform Owner"},{"id":"01hqns594vpp6hhkr8txf8m85j","user_id":"01hq3781r6qm4ney4aaxtfk065","event_type":"Deactivated Business","description":"Deactivated business with name - Habeeb13","business_id":"","date_created":"27\/02\/2024 @ 06:17PM","team_member":"Platform Owner"},{"id":"01hqns572fqf2sx81av47p2h6z","user_id":"01hq3781r6qm4ney4aaxtfk065","event_type":"Activated Business","description":"Activated business with name - Habeeb13","business_id":"","date_created":"27\/02\/2024 @ 06:17PM","team_member":"Platform Owner"},{"id":"01hqns54gxkp1nqyxqzjy87fxz","user_id":"01hq3781r6qm4ney4aaxtfk065","event_type":"Activated Business","description":"Activated business with name - Habeeb13","business_id":"","date_created":"27\/02\/2024 @ 06:17PM","team_member":"Platform Owner"},{"id":"01hqns4pc0qjxw2nza06xztkky","user_id":"01hq3781r6qm4ney4aaxtfk065","event_type":"Updated team member status","description":"Updated team member status with email - sultan+981@assurdly.com","business_id":"","date_created":"27\/02\/2024 @ 06:17PM","team_member":"Platform Owner"},{"id":"01hqns4mf553dyzejfvj3nyw71","user_id":"01hq3781r6qm4ney4aaxtfk065","event_type":"Updated team member status","description":"Updated team member status with email - sultan+981@assurdly.com","business_id":"","date_created":"27\/02\/2024 @ 06:17PM","team_member":"Platform Owner"},{"id":"01hqns43xh7mr39jbqnsthzbvd","user_id":"01hq3781r6qm4ney4aaxtfk065","event_type":"Invited team member","description":"Resent Invite team member email - sultan+981@assurdly.com","business_id":"","date_created":"27\/02\/2024 @ 06:17PM","team_member":"Platform Owner"}],"pagination":{"current_page":1,"per_page":10,"total":858,"next_page_url":"http:\/\/salary.dev.onepipe.io\/api\/audit?page=2","prev_page_url":null},"message":"Audit trails retrieved successfully"}