{"success":true,"data":[{"id":"01hqqtgw1ryf6mdm6hcw31pjfh","user_id":"01hq3781r6qm4ney4aaxtfk065","event_type":"Updated kyb-setting","description":"updated document with name - Certificate of Incorporation","business_id":"","date_created":"28\/02\/2024 @ 01:20PM","team_member":"Platform Owner"},{"id":"01hqqtgjpcb2njp2rm6k13ravp","user_id":"01hq3781r6qm4ney4aaxtfk065","event_type":"Created a kyb-setting","description":"created kyb setting with document-name - Certificate of Incorporation","business_id":"","date_created":"28\/02\/2024 @ 01:20PM","team_member":"Platform Owner"},{"id":"01hqqtff8ct8ye2fnr85vymse3","user_id":"01hq3781r6qm4ney4aaxtfk065","event_type":"Blacklisted Business","description":"Blacklisted business with name - Habeeb13","business_id":"","date_created":"28\/02\/2024 @ 01:19PM","team_member":"Platform Owner"},{"id":"01hqqtfd2m45zdyam2bb3hz428","user_id":"01hq3781r6qm4ney4aaxtfk065","event_type":"Deactivated Business","description":"Deactivated business with name - Habeeb13","business_id":"","date_created":"28\/02\/2024 @ 01:19PM","team_member":"Platform Owner"},{"id":"01hqqtfax5q920qdzntq1m1cet","user_id":"01hq3781r6qm4ney4aaxtfk065","event_type":"Deactivated Business","description":"Deactivated business with name - Habeeb13","business_id":"","date_created":"28\/02\/2024 @ 01:19PM","team_member":"Platform Owner"},{"id":"01hqqtf8qr0npr8d2vc77s9192","user_id":"01hq3781r6qm4ney4aaxtfk065","event_type":"Activated Business","description":"Activated business with name - Habeeb13","business_id":"","date_created":"28\/02\/2024 @ 01:19PM","team_member":"Platform Owner"},{"id":"01hqqtf5xjwbdfjbzd1423rswj","user_id":"01hq3781r6qm4ney4aaxtfk065","event_type":"Activated Business","description":"Activated business with name - Habeeb13","business_id":"","date_created":"28\/02\/2024 @ 01:19PM","team_member":"Platform Owner"},{"id":"01hqqteqzm01kh3asaxr5dg68d","user_id":"01hq3781r6qm4ney4aaxtfk065","event_type":"Updated team member status","description":"Updated team member status with email - sultan+314@assurdly.com","business_id":"","date_created":"28\/02\/2024 @ 01:19PM","team_member":"Platform Owner"},{"id":"01hqqtenw0fn8kgs60nn69f20f","user_id":"01hq3781r6qm4ney4aaxtfk065","event_type":"Updated team member status","description":"Updated team member status with email - sultan+314@assurdly.com","business_id":"","date_created":"28\/02\/2024 @ 01:18PM","team_member":"Platform Owner"},{"id":"01hqqtekvwv9t97hzkxm7jzpnx","user_id":"01hq3781r6qm4ney4aaxtfk065","event_type":"Updated team member","description":"updated team with email - ","business_id":"","date_created":"28\/02\/2024 @ 01:18PM","team_member":"Platform Owner"}],"pagination":{"current_page":1,"per_page":10,"total":931,"next_page_url":"http:\/\/salary.dev.onepipe.io\/api\/audit?page=2","prev_page_url":null},"message":"Audit trails retrieved successfully"}