{"success":true,"data":[{"id":"01hsvabcgt229jy4pqqgg4g7cd","user_id":"01hshhrgmbdtfbnf7vg8tfq95d","event_type":"Deleted KYB setting","description":"Deleted KYB setting with document name - Certificate of Incorporation","business_id":null,"date_created":"25\/03\/2024 @ 06:25PM","team_member":"Platform Owner"},{"id":"01hsvababhf8eyxfct4gbt110q","user_id":"01hshhrgmbdtfbnf7vg8tfq95d","event_type":"Updated KYB setting","description":"Updated document with name - Certificate of Incorporation","business_id":null,"date_created":"25\/03\/2024 @ 06:25PM","team_member":"Platform Owner"},{"id":"01hsvab1amppp3z8azzpfkdgs2","user_id":"01hshhrgmbdtfbnf7vg8tfq95d","event_type":"Created a KYB setting","description":"Created KYB setting with document name - Certificate of Incorporation","business_id":null,"date_created":"25\/03\/2024 @ 06:25PM","team_member":"Platform Owner"},{"id":"01hsva8r194s5edwy1bf0ca9bn","user_id":"01hshhrgmbdtfbnf7vg8tfq95d","event_type":"Activated business","description":"Activated business with name - Mohammed HQ","business_id":null,"date_created":"25\/03\/2024 @ 06:24PM","team_member":"Platform Owner"},{"id":"01hsva8j3zz8ngqxbyc5bdj9es","user_id":"01hshhrgmbdtfbnf7vg8tfq95d","event_type":"Deactivated business","description":"Deactivated business with name - Mohammed HQ","business_id":null,"date_created":"25\/03\/2024 @ 06:24PM","team_member":"Platform Owner"},{"id":"01hsva8b3xhestf0jnt97v99k8","user_id":"01hshhrgmbdtfbnf7vg8tfq95d","event_type":"Activated business","description":"Activated business with name - Mohammed HQ","business_id":null,"date_created":"25\/03\/2024 @ 06:24PM","team_member":"Platform Owner"},{"id":"01hsva86axbbxa18qpn4staq12","user_id":"01hshhrgmbdtfbnf7vg8tfq95d","event_type":"Deactivated business","description":"Deactivated business with name - Mohammed HQ","business_id":null,"date_created":"25\/03\/2024 @ 06:24PM","team_member":"Platform Owner"},{"id":"01hsva7k9tpjh3tgt8pg7dh8fr","user_id":"01hshhrgmbdtfbnf7vg8tfq95d","event_type":"Updated team member status","description":"Updated team member status with email - sultan+941@assurdly.com","business_id":null,"date_created":"25\/03\/2024 @ 06:23PM","team_member":"Platform Owner"},{"id":"01hsva7h7z80brj4w38dzg05p3","user_id":"01hshhrgmbdtfbnf7vg8tfq95d","event_type":"Updated team member status","description":"Updated team member status with email - sultan+941@assurdly.com","business_id":null,"date_created":"25\/03\/2024 @ 06:23PM","team_member":"Platform Owner"},{"id":"01hsva7f2fc0wx8e0g9rjj847v","user_id":"01hshhrgmbdtfbnf7vg8tfq95d","event_type":"Updated team member","description":"Updated team with email - ","business_id":null,"date_created":"25\/03\/2024 @ 06:23PM","team_member":"Platform Owner"}],"pagination":{"current_page":1,"per_page":10,"total":126,"next_page_url":"http:\/\/salary.dev.onepipe.io\/api\/audit?page=2","prev_page_url":null},"message":"Audit trails retrieved successfully"}