{"success":true,"data":[{"id":"01hqncgq4xmz67fdt9xp0tvpds","user_id":"01hq3781r6qm4ney4aaxtfk065","event_type":"Updated kyb-setting","description":"updated document with name - Certificate of Incorporation","business_id":"","date_created":"27\/02\/2024 @ 02:36PM","team_member":"Platform Owner"},{"id":"01hqncgf9cchsyg2prj1sq0e8q","user_id":"01hq3781r6qm4ney4aaxtfk065","event_type":"Created a kyb-setting","description":"created kyb setting with document-name - Certificate of Incorporation","business_id":"","date_created":"27\/02\/2024 @ 02:36PM","team_member":"Platform Owner"},{"id":"01hqncffnyqspqsy00xczg9dwb","user_id":"01hq3781r6qm4ney4aaxtfk065","event_type":"Deactivated Business","description":"Deactivated business with name - Habeeb13","business_id":"","date_created":"27\/02\/2024 @ 02:36PM","team_member":"Platform Owner"},{"id":"01hqncfdpfga488q51p0t7ghj5","user_id":"01hq3781r6qm4ney4aaxtfk065","event_type":"Deactivated Business","description":"Deactivated business with name - Habeeb13","business_id":"","date_created":"27\/02\/2024 @ 02:36PM","team_member":"Platform Owner"},{"id":"01hqncfbpccczbeqgnzxqmyxgw","user_id":"01hq3781r6qm4ney4aaxtfk065","event_type":"Activated Business","description":"Activated business with name - Habeeb13","business_id":"","date_created":"27\/02\/2024 @ 02:36PM","team_member":"Platform Owner"},{"id":"01hqncf961gpaths9pd6282rdg","user_id":"01hq3781r6qm4ney4aaxtfk065","event_type":"Activated Business","description":"Activated business with name - Habeeb13","business_id":"","date_created":"27\/02\/2024 @ 02:36PM","team_member":"Platform Owner"},{"id":"01hqncet7c2tc748q3vy0h4rp0","user_id":"01hq3781r6qm4ney4aaxtfk065","event_type":"Updated team member status","description":"Updated team member status with email - sultan+658@assurdly.com","business_id":"","date_created":"27\/02\/2024 @ 02:35PM","team_member":"Platform Owner"},{"id":"01hqncercm4mc35rqga6324gwj","user_id":"01hq3781r6qm4ney4aaxtfk065","event_type":"Updated team member status","description":"Updated team member status with email - sultan+658@assurdly.com","business_id":"","date_created":"27\/02\/2024 @ 02:35PM","team_member":"Platform Owner"},{"id":"01hqncebk0cnsdxph0bv6j3gqp","user_id":"01hq3781r6qm4ney4aaxtfk065","event_type":"Invited team member","description":"Resent Invite team member email - sultan+658@assurdly.com","business_id":"","date_created":"27\/02\/2024 @ 02:35PM","team_member":"Platform Owner"},{"id":"01hqnce62w0vtgqwdtx1fwdqvv","user_id":"01hq3781r6qm4ney4aaxtfk065","event_type":"Invited team member","description":"Invited team member email - sultan+658@assurdly.com","business_id":"","date_created":"27\/02\/2024 @ 02:35PM","team_member":"Platform Owner"}],"pagination":{"current_page":1,"per_page":10,"total":763,"next_page_url":"http:\/\/salary.dev.onepipe.io\/api\/audit?page=2","prev_page_url":null},"message":"Audit trails retrieved successfully"}