{"success":true,"data":[{"id":"01hqnfyz4nywfrv8ea9285s8ys","user_id":"01hq3781r6qm4ney4aaxtfk065","event_type":"Updated kyb-setting","description":"updated document with name - Certificate of Incorporation","business_id":"","date_created":"27\/02\/2024 @ 03:37PM","team_member":"Platform Owner"},{"id":"01hqnfyqa1gsazw2a426ebzwnt","user_id":"01hq3781r6qm4ney4aaxtfk065","event_type":"Created a kyb-setting","description":"created kyb setting with document-name - Certificate of Incorporation","business_id":"","date_created":"27\/02\/2024 @ 03:37PM","team_member":"Platform Owner"},{"id":"01hqnfxr4df9dcts1efe5qbcqz","user_id":"01hq3781r6qm4ney4aaxtfk065","event_type":"Deactivated Business","description":"Deactivated business with name - Habeeb13","business_id":"","date_created":"27\/02\/2024 @ 03:36PM","team_member":"Platform Owner"},{"id":"01hqnfxp4rd6n7qzn97xqcrsa9","user_id":"01hq3781r6qm4ney4aaxtfk065","event_type":"Deactivated Business","description":"Deactivated business with name - Habeeb13","business_id":"","date_created":"27\/02\/2024 @ 03:36PM","team_member":"Platform Owner"},{"id":"01hqnfxm44ktmyfh61cvpc0g62","user_id":"01hq3781r6qm4ney4aaxtfk065","event_type":"Activated Business","description":"Activated business with name - Habeeb13","business_id":"","date_created":"27\/02\/2024 @ 03:36PM","team_member":"Platform Owner"},{"id":"01hqnfxhkc3yj2abvqmy59zh6g","user_id":"01hq3781r6qm4ney4aaxtfk065","event_type":"Activated Business","description":"Activated business with name - Habeeb13","business_id":"","date_created":"27\/02\/2024 @ 03:36PM","team_member":"Platform Owner"},{"id":"01hqnfx4b893m35q0xazz1swp6","user_id":"01hq3781r6qm4ney4aaxtfk065","event_type":"Updated team member status","description":"Updated team member status with email - sultan+813@assurdly.com","business_id":"","date_created":"27\/02\/2024 @ 03:36PM","team_member":"Platform Owner"},{"id":"01hqnfx2ewjqz8eb9sfkkwzf21","user_id":"01hq3781r6qm4ney4aaxtfk065","event_type":"Updated team member status","description":"Updated team member status with email - sultan+813@assurdly.com","business_id":"","date_created":"27\/02\/2024 @ 03:36PM","team_member":"Platform Owner"},{"id":"01hqnfwk81ntmkg7a50jdney1s","user_id":"01hq3781r6qm4ney4aaxtfk065","event_type":"Invited team member","description":"Resent Invite team member email - sultan+813@assurdly.com","business_id":"","date_created":"27\/02\/2024 @ 03:35PM","team_member":"Platform Owner"},{"id":"01hqnfwdsst2gt038tyqvt1r0e","user_id":"01hq3781r6qm4ney4aaxtfk065","event_type":"Invited team member","description":"Invited team member email - sultan+813@assurdly.com","business_id":"","date_created":"27\/02\/2024 @ 03:35PM","team_member":"Platform Owner"}],"pagination":{"current_page":1,"per_page":10,"total":807,"next_page_url":"http:\/\/salary.dev.onepipe.io\/api\/audit?page=2","prev_page_url":null},"message":"Audit trails retrieved successfully"}