{"success":true,"data":[{"id":"01hr4m94e8wa8g72e763yqah13","user_id":"01hqy04dm1szf2kpnz1tfz4hvr","event_type":"Updated KYB setting","description":"Updated document with name - Certificate of Incorporation","business_id":"","date_created":"04\/03\/2024 @ 12:41PM","team_member":"Platform Owner"},{"id":"01hr4m8vjk2wnq8f5zb0grmqpp","user_id":"01hqy04dm1szf2kpnz1tfz4hvr","event_type":"Created a KYB setting","description":"Created KYB setting with document name - Certificate of Incorporation","business_id":"","date_created":"04\/03\/2024 @ 12:41PM","team_member":"Platform Owner"},{"id":"01hr4m7jz0mykcwhwve1qa118y","user_id":"01hqy04dm1szf2kpnz1tfz4hvr","event_type":"Blacklisted business","description":"Blacklisted business with name - Habeeb12","business_id":"","date_created":"04\/03\/2024 @ 12:40PM","team_member":"Platform Owner"},{"id":"01hr4m7gsm6nynwv2ygh3t6gtc","user_id":"01hqy04dm1szf2kpnz1tfz4hvr","event_type":"Activated business","description":"Activated business with name - Habeeb12","business_id":"","date_created":"04\/03\/2024 @ 12:40PM","team_member":"Platform Owner"},{"id":"01hr4m7e4yn41ffcv7j7z49z6f","user_id":"01hqy04dm1szf2kpnz1tfz4hvr","event_type":"Deactivated business","description":"Deactivated business with name - Habeeb12","business_id":"","date_created":"04\/03\/2024 @ 12:40PM","team_member":"Platform Owner"},{"id":"01hr4m7bycmyt7qhf4ksh5c0vt","user_id":"01hqy04dm1szf2kpnz1tfz4hvr","event_type":"Activated business","description":"Activated business with name - Habeeb12","business_id":"","date_created":"04\/03\/2024 @ 12:40PM","team_member":"Platform Owner"},{"id":"01hr4m798dcmczp3x6hbxswa2c","user_id":"01hqy04dm1szf2kpnz1tfz4hvr","event_type":"Deactivated business","description":"Deactivated business with name - Habeeb12","business_id":"","date_created":"04\/03\/2024 @ 12:40PM","team_member":"Platform Owner"},{"id":"01hr4m6yk0a3jdxyxyscg40594","user_id":"01hqy04dm1szf2kpnz1tfz4hvr","event_type":"Updated team member status","description":"Updated team member status with email - sultan+255@assurdly.com","business_id":"","date_created":"04\/03\/2024 @ 12:40PM","team_member":"Platform Owner"},{"id":"01hr4m6wdg5c419q9kak42jpt5","user_id":"01hqy04dm1szf2kpnz1tfz4hvr","event_type":"Updated team member status","description":"Updated team member status with email - sultan+255@assurdly.com","business_id":"","date_created":"04\/03\/2024 @ 12:39PM","team_member":"Platform Owner"},{"id":"01hr4m6t9gd5q6ex43tysybn5e","user_id":"01hqy04dm1szf2kpnz1tfz4hvr","event_type":"Updated team member","description":"Updated team with email - ","business_id":"","date_created":"04\/03\/2024 @ 12:39PM","team_member":"Platform Owner"}],"pagination":{"current_page":1,"per_page":10,"total":56,"next_page_url":"http:\/\/salary.dev.onepipe.io\/api\/audit?page=2","prev_page_url":null},"message":"Audit trails retrieved successfully"}