{"success":true,"data":[{"id":"01hqx5ay6fxxbwmz5er15vqehy","user_id":"01hqwd9q9qggp73rbdyznhfjkh","event_type":"Updated KYB setting","description":"updated document with name - Certificate of Incorporation","business_id":"","date_created":"01\/03\/2024 @ 03:05PM","team_member":"Platform Owner"},{"id":"01hqx5an8z4jzehgecs6bzx9ke","user_id":"01hqwd9q9qggp73rbdyznhfjkh","event_type":"Created a KYB setting","description":"created KYB setting with document name - Certificate of Incorporation","business_id":"","date_created":"01\/03\/2024 @ 03:05PM","team_member":"Platform Owner"},{"id":"01hqx59f8pa1x58ztd62ra0gzh","user_id":"01hqwd9q9qggp73rbdyznhfjkh","event_type":"Blacklisted Business","description":"Blacklisted business with name - Test Team","business_id":"","date_created":"01\/03\/2024 @ 03:04PM","team_member":"Platform Owner"},{"id":"01hqx59d1525d5g7rwskpaw3zs","user_id":"01hqwd9q9qggp73rbdyznhfjkh","event_type":"Activated Business","description":"Activated business with name - Test Team","business_id":"","date_created":"01\/03\/2024 @ 03:04PM","team_member":"Platform Owner"},{"id":"01hqx59a903tg48fnespt1ywrb","user_id":"01hqwd9q9qggp73rbdyznhfjkh","event_type":"Deactivated Business","description":"Deactivated business with name - Test Team","business_id":"","date_created":"01\/03\/2024 @ 03:04PM","team_member":"Platform Owner"},{"id":"01hqx5982fp8b711dzpkspp405","user_id":"01hqwd9q9qggp73rbdyznhfjkh","event_type":"Activated Business","description":"Activated business with name - Test Team","business_id":"","date_created":"01\/03\/2024 @ 03:04PM","team_member":"Platform Owner"},{"id":"01hqx595c4e4p753zt9xfyv97w","user_id":"01hqwd9q9qggp73rbdyznhfjkh","event_type":"Deactivated Business","description":"Deactivated business with name - Test Team","business_id":"","date_created":"01\/03\/2024 @ 03:04PM","team_member":"Platform Owner"},{"id":"01hqx58tpd8kd6qemgpe8bn6br","user_id":"01hqwd9q9qggp73rbdyznhfjkh","event_type":"Updated team member status","description":"Updated team member status with email - sultan+525@assurdly.com","business_id":"","date_created":"01\/03\/2024 @ 03:04PM","team_member":"Platform Owner"},{"id":"01hqx58rmz4v1zhsv4hefz669e","user_id":"01hqwd9q9qggp73rbdyznhfjkh","event_type":"Updated team member status","description":"Updated team member status with email - sultan+525@assurdly.com","business_id":"","date_created":"01\/03\/2024 @ 03:04PM","team_member":"Platform Owner"},{"id":"01hqx58p5dmvdk0nrzk5wjxdb4","user_id":"01hqwd9q9qggp73rbdyznhfjkh","event_type":"Updated team member","description":"updated team with email - ","business_id":"","date_created":"01\/03\/2024 @ 03:04PM","team_member":"Platform Owner"}],"pagination":{"current_page":1,"per_page":10,"total":57,"next_page_url":"http:\/\/salary.dev.onepipe.io\/api\/audit?page=2","prev_page_url":null},"message":"Audit trails retrieved successfully"}