{"success":true,"data":[{"id":"01hs962petc2ypbw5b4xzacz5g","user_id":"01hrnzwq8cjyvjpvxrhbw8tktc","event_type":"Deleted KYB setting","description":"Deleted KYB setting with document name - Certificate of Incorporation","business_id":null,"date_created":"18\/03\/2024 @ 05:24PM","team_member":"Platform Owner"},{"id":"01hs962mdfax211nkg9054jgfz","user_id":"01hrnzwq8cjyvjpvxrhbw8tktc","event_type":"Updated KYB setting","description":"Updated document with name - Certificate of Incorporation","business_id":null,"date_created":"18\/03\/2024 @ 05:24PM","team_member":"Platform Owner"},{"id":"01hs962bwt11sse58jv5fhxdqt","user_id":"01hrnzwq8cjyvjpvxrhbw8tktc","event_type":"Created a KYB setting","description":"Created KYB setting with document name - Certificate of Incorporation","business_id":null,"date_created":"18\/03\/2024 @ 05:24PM","team_member":"Platform Owner"},{"id":"01hs9611f847101w9vvtb6wdxe","user_id":"01hrnzwq8cjyvjpvxrhbw8tktc","event_type":"Activated business","description":"Activated business with name - Habeeb12","business_id":null,"date_created":"18\/03\/2024 @ 05:24PM","team_member":"Platform Owner"},{"id":"01hs960waxm3vha94s7k1g20gd","user_id":"01hrnzwq8cjyvjpvxrhbw8tktc","event_type":"Blacklisted business","description":"Blacklisted business with name - Habeeb12","business_id":null,"date_created":"18\/03\/2024 @ 05:23PM","team_member":"Platform Owner"},{"id":"01hs960nvqnx72dyjt3j8csvzq","user_id":"01hrnzwq8cjyvjpvxrhbw8tktc","event_type":"Blacklisted business","description":"Blacklisted business with name - Habeeb12","business_id":null,"date_created":"18\/03\/2024 @ 05:23PM","team_member":"Platform Owner"},{"id":"01hs960fr8syvydxhzbe89pt73","user_id":"01hrnzwq8cjyvjpvxrhbw8tktc","event_type":"Activated business","description":"Activated business with name - Habeeb12","business_id":null,"date_created":"18\/03\/2024 @ 05:23PM","team_member":"Platform Owner"},{"id":"01hs960attx7zww4bv1cvqcmd5","user_id":"01hrnzwq8cjyvjpvxrhbw8tktc","event_type":"Deactivated business","description":"Deactivated business with name - Habeeb12","business_id":null,"date_created":"18\/03\/2024 @ 05:23PM","team_member":"Platform Owner"},{"id":"01hs9604eykq6k67nxh6whgqv5","user_id":"01hrnzwq8cjyvjpvxrhbw8tktc","event_type":"Activated business","description":"Activated business with name - Habeeb12","business_id":null,"date_created":"18\/03\/2024 @ 05:23PM","team_member":"Platform Owner"},{"id":"01hs95zyc9svc95j7pyxsm1qjm","user_id":"01hrnzwq8cjyvjpvxrhbw8tktc","event_type":"Deactivated business","description":"Deactivated business with name - Habeeb12","business_id":null,"date_created":"18\/03\/2024 @ 05:23PM","team_member":"Platform Owner"}],"pagination":{"current_page":1,"per_page":10,"total":255,"next_page_url":"http:\/\/salary.dev.onepipe.io\/api\/audit?page=2","prev_page_url":null},"message":"Audit trails retrieved successfully"}