{"success":true,"data":[{"id":"01hrq5xq5f18hvfg6pjhvndyka","user_id":"01hrnzwq8cjyvjpvxrhbw8tktc","event_type":"Deleted KYB setting","description":"Deleted KYB setting with document name - Certificate of Incorporation","business_id":null,"date_created":"11\/03\/2024 @ 05:35PM","team_member":"Platform Owner"},{"id":"01hrq5xn3cqjrp1ngjgyeaamjs","user_id":"01hrnzwq8cjyvjpvxrhbw8tktc","event_type":"Updated KYB setting","description":"Updated document with name - Certificate of Incorporation","business_id":null,"date_created":"11\/03\/2024 @ 05:35PM","team_member":"Platform Owner"},{"id":"01hrq5xcfdhgbf709pf9csqves","user_id":"01hrnzwq8cjyvjpvxrhbw8tktc","event_type":"Created a KYB setting","description":"Created KYB setting with document name - Certificate of Incorporation","business_id":null,"date_created":"11\/03\/2024 @ 05:35PM","team_member":"Platform Owner"},{"id":"01hrq5w3gjcrcafqeat3c6d2y9","user_id":"01hrnzwq8cjyvjpvxrhbw8tktc","event_type":"Activated business","description":"Activated business with name - Testar Company","business_id":null,"date_created":"11\/03\/2024 @ 05:34PM","team_member":"Platform Owner"},{"id":"01hrq5vvz1geqvnnmh1hq0dypf","user_id":"01hrnzwq8cjyvjpvxrhbw8tktc","event_type":"Activated business","description":"Activated business with name - Testar Company","business_id":null,"date_created":"11\/03\/2024 @ 05:34PM","team_member":"Platform Owner"},{"id":"01hrq5vb8b7mwk8mtt00jm3xaf","user_id":"01hrnzwq8cjyvjpvxrhbw8tktc","event_type":"Updated team member status","description":"Updated team member status with email - sultan+634@assurdly.com","business_id":null,"date_created":"11\/03\/2024 @ 05:34PM","team_member":"Platform Owner"},{"id":"01hrq5v98fnfhexb8j8308259k","user_id":"01hrnzwq8cjyvjpvxrhbw8tktc","event_type":"Updated team member status","description":"Updated team member status with email - sultan+634@assurdly.com","business_id":null,"date_created":"11\/03\/2024 @ 05:34PM","team_member":"Platform Owner"},{"id":"01hrq5ty7rqe2cpvrhvqhd9b6v","user_id":"01hrnzwq8cjyvjpvxrhbw8tktc","event_type":"Invited team member","description":"Resent invite team member email - sultan+634@assurdly.com","business_id":null,"date_created":"11\/03\/2024 @ 05:34PM","team_member":"Platform Owner"},{"id":"01hrq5ts861r98rfjh28zdvbpx","user_id":"01hrnzwq8cjyvjpvxrhbw8tktc","event_type":"Invited team member","description":"Invited team member email - sultan+634@assurdly.com","business_id":null,"date_created":"11\/03\/2024 @ 05:34PM","team_member":"Platform Owner"},{"id":"01hrq5tfrmax1rev6z7tce05r5","user_id":"01hrnzwq8cjyvjpvxrhbw8tktc","event_type":"Updated role status","description":"Updated role status with name - Investor","business_id":null,"date_created":"11\/03\/2024 @ 05:34PM","team_member":"Platform Owner"}],"pagination":{"current_page":1,"per_page":10,"total":18,"next_page_url":"http:\/\/salary.dev.onepipe.io\/api\/audit?page=2","prev_page_url":null},"message":"Audit trails retrieved successfully"}