{"success":true,"data":[{"id":"01hrqag3hffjcrwhp79kq7cp3g","user_id":"01hrnzwq8cjyvjpvxrhbw8tktc","event_type":"Deleted KYB setting","description":"Deleted KYB setting with document name - Certificate of Incorporation","business_id":null,"date_created":"11\/03\/2024 @ 06:55PM","team_member":"Platform Owner"},{"id":"01hrqag1acfe93kasc9wa40hk6","user_id":"01hrnzwq8cjyvjpvxrhbw8tktc","event_type":"Updated KYB setting","description":"Updated document with name - Certificate of Incorporation","business_id":null,"date_created":"11\/03\/2024 @ 06:55PM","team_member":"Platform Owner"},{"id":"01hrqafr4qe6a80h5epzpsjh7h","user_id":"01hrnzwq8cjyvjpvxrhbw8tktc","event_type":"Created a KYB setting","description":"Created KYB setting with document name - Certificate of Incorporation","business_id":null,"date_created":"11\/03\/2024 @ 06:55PM","team_member":"Platform Owner"},{"id":"01hrqaee6tfh2qm25713e3t8gr","user_id":"01hrnzwq8cjyvjpvxrhbw8tktc","event_type":"Activated business","description":"Activated business with name - Assurdly Verse","business_id":null,"date_created":"11\/03\/2024 @ 06:54PM","team_member":"Platform Owner"},{"id":"01hrqae7pcv1q0ebva1xtej8rh","user_id":"01hrnzwq8cjyvjpvxrhbw8tktc","event_type":"Blacklisted business","description":"Blacklisted business with name - Assurdly Verse","business_id":null,"date_created":"11\/03\/2024 @ 06:54PM","team_member":"Platform Owner"},{"id":"01hrqae2cgpmdqdv6k6crdfjpv","user_id":"01hrnzwq8cjyvjpvxrhbw8tktc","event_type":"Blacklisted business","description":"Blacklisted business with name - Assurdly Verse","business_id":null,"date_created":"11\/03\/2024 @ 06:54PM","team_member":"Platform Owner"},{"id":"01hrqadvcyptny6gpf61psn1qm","user_id":"01hrnzwq8cjyvjpvxrhbw8tktc","event_type":"Activated business","description":"Activated business with name - Assurdly Verse","business_id":null,"date_created":"11\/03\/2024 @ 06:54PM","team_member":"Platform Owner"},{"id":"01hrqadmp6g07eyttzhdqpncn1","user_id":"01hrnzwq8cjyvjpvxrhbw8tktc","event_type":"Deactivated business","description":"Deactivated business with name - Assurdly Verse","business_id":null,"date_created":"11\/03\/2024 @ 06:54PM","team_member":"Platform Owner"},{"id":"01hrqade3bp2gp568j3c18cqn8","user_id":"01hrnzwq8cjyvjpvxrhbw8tktc","event_type":"Activated business","description":"Activated business with name - Assurdly Verse","business_id":null,"date_created":"11\/03\/2024 @ 06:54PM","team_member":"Platform Owner"},{"id":"01hrqad8qx788gr8yedyrjj9vy","user_id":"01hrnzwq8cjyvjpvxrhbw8tktc","event_type":"Deactivated business","description":"Deactivated business with name - Assurdly Verse","business_id":null,"date_created":"11\/03\/2024 @ 06:54PM","team_member":"Platform Owner"}],"pagination":{"current_page":1,"per_page":10,"total":178,"next_page_url":"http:\/\/salary.dev.onepipe.io\/api\/audit?page=2","prev_page_url":null},"message":"Audit trails retrieved successfully"}