{"success":true,"data":[{"id":"01hqn8ea3yamcepq8mmjyfqfpw","user_id":"01hq3781r6qm4ney4aaxtfk065","event_type":"Updated kyb-setting","description":"updated document with name - Certificate of Incorporation","business_id":"","date_created":"27\/02\/2024 @ 01:25PM","team_member":"Platform Owner"},{"id":"01hqn8e1w0pagk12t1w3x0n9yp","user_id":"01hq3781r6qm4ney4aaxtfk065","event_type":"Created a kyb-setting","description":"created kyb setting with document-name - Certificate of Incorporation","business_id":"","date_created":"27\/02\/2024 @ 01:25PM","team_member":"Platform Owner"},{"id":"01hqn8ddfw8js8t4wa8h1jezk6","user_id":"01hq3781r6qm4ney4aaxtfk065","event_type":"Deactivated Business","description":"Deactivated business with name - Habeeb13","business_id":"","date_created":"27\/02\/2024 @ 01:25PM","team_member":"Platform Owner"},{"id":"01hqn8dbdd9q3rgfan3azn1ra4","user_id":"01hq3781r6qm4ney4aaxtfk065","event_type":"Deactivated Business","description":"Deactivated business with name - Habeeb13","business_id":"","date_created":"27\/02\/2024 @ 01:25PM","team_member":"Platform Owner"},{"id":"01hqn8d9bbf61r0bad9nr17zk7","user_id":"01hq3781r6qm4ney4aaxtfk065","event_type":"Activated Business","description":"Activated business with name - Habeeb13","business_id":"","date_created":"27\/02\/2024 @ 01:25PM","team_member":"Platform Owner"},{"id":"01hqn8d6sgkztk68kmcbnjn1gy","user_id":"01hq3781r6qm4ney4aaxtfk065","event_type":"Activated Business","description":"Activated business with name - Habeeb13","business_id":"","date_created":"27\/02\/2024 @ 01:25PM","team_member":"Platform Owner"},{"id":"01hqn8cs3jn8pfzxa7amyz2sny","user_id":"01hq3781r6qm4ney4aaxtfk065","event_type":"Updated team member status","description":"Updated team member status with email - sultan+484@assurdly.com","business_id":"","date_created":"27\/02\/2024 @ 01:24PM","team_member":"Platform Owner"},{"id":"01hqn8cq7cdb0g9wpptj5dc149","user_id":"01hq3781r6qm4ney4aaxtfk065","event_type":"Updated team member status","description":"Updated team member status with email - sultan+484@assurdly.com","business_id":"","date_created":"27\/02\/2024 @ 01:24PM","team_member":"Platform Owner"},{"id":"01hqn8c90cyf8kds13aq4z3hb9","user_id":"01hq3781r6qm4ney4aaxtfk065","event_type":"Invited team member","description":"Resent Invite team member email - sultan+484@assurdly.com","business_id":"","date_created":"27\/02\/2024 @ 01:24PM","team_member":"Platform Owner"},{"id":"01hqn8c4kmbw2hk7p8pv7nz939","user_id":"01hq3781r6qm4ney4aaxtfk065","event_type":"Invited team member","description":"Invited team member email - sultan+484@assurdly.com","business_id":"","date_created":"27\/02\/2024 @ 01:24PM","team_member":"Platform Owner"}],"pagination":{"current_page":1,"per_page":10,"total":685,"next_page_url":"http:\/\/salary.dev.onepipe.io\/api\/audit?page=2","prev_page_url":null},"message":"Audit trails retrieved successfully"}