{"success":true,"data":[{"id":"01hqmv96kbxp78em8xde6qc4k2","user_id":"01hq3781r6qm4ney4aaxtfk065","event_type":"Updated kyb-setting","description":"updated document with name - Certificate of Incorporation","business_id":"","date_created":"27\/02\/2024 @ 09:35AM","team_member":"Platform Owner"},{"id":"01hqmv8yp092bq1qdtg6s9ztpe","user_id":"01hq3781r6qm4ney4aaxtfk065","event_type":"Created a kyb-setting","description":"created kyb setting with document-name - Certificate of Incorporation","business_id":"","date_created":"27\/02\/2024 @ 09:35AM","team_member":"Platform Owner"},{"id":"01hqmv8ktmcpqew97j69x86ghv","user_id":"01hq3781r6qm4ney4aaxtfk065","event_type":"Deactivated Business","description":"Deactivated business with name - Habeeb13","business_id":"","date_created":"27\/02\/2024 @ 09:35AM","team_member":"Platform Owner"},{"id":"01hqmv8hv4tpnmme9exft18k53","user_id":"01hq3781r6qm4ney4aaxtfk065","event_type":"Deactivated Business","description":"Deactivated business with name - Habeeb13","business_id":"","date_created":"27\/02\/2024 @ 09:35AM","team_member":"Platform Owner"},{"id":"01hqmv8fv1m1bvfdttevdsx0fm","user_id":"01hq3781r6qm4ney4aaxtfk065","event_type":"Activated Business","description":"Activated business with name - Habeeb13","business_id":"","date_created":"27\/02\/2024 @ 09:35AM","team_member":"Platform Owner"},{"id":"01hqmv8dapva9d6h9ntxv7qpf1","user_id":"01hq3781r6qm4ney4aaxtfk065","event_type":"Activated Business","description":"Activated business with name - Habeeb13","business_id":"","date_created":"27\/02\/2024 @ 09:35AM","team_member":"Platform Owner"},{"id":"01hqmv7ya30bnma0880nw59dkp","user_id":"01hq3781r6qm4ney4aaxtfk065","event_type":"Updated team member status","description":"Updated team member status with email - sultan+440@assurdly.com","business_id":"","date_created":"27\/02\/2024 @ 09:35AM","team_member":"Platform Owner"},{"id":"01hqmv7w3szqa1t121217bq87y","user_id":"01hq3781r6qm4ney4aaxtfk065","event_type":"Updated team member status","description":"Updated team member status with email - sultan+440@assurdly.com","business_id":"","date_created":"27\/02\/2024 @ 09:35AM","team_member":"Platform Owner"},{"id":"01hqmv7dnffgy7k3yxyngzz0g1","user_id":"01hq3781r6qm4ney4aaxtfk065","event_type":"Invited team member","description":"Resent Invite team member email - sultan+440@assurdly.com","business_id":"","date_created":"27\/02\/2024 @ 09:34AM","team_member":"Platform Owner"},{"id":"01hqmv7815c4mk78ss3vkz4eq9","user_id":"01hq3781r6qm4ney4aaxtfk065","event_type":"Invited team member","description":"Invited team member email - sultan+440@assurdly.com","business_id":"","date_created":"27\/02\/2024 @ 09:34AM","team_member":"Platform Owner"}],"pagination":{"current_page":1,"per_page":10,"total":567,"next_page_url":"http:\/\/salary.dev.onepipe.io\/api\/audit?page=2","prev_page_url":null},"message":"Audit trails retrieved successfully"}