{"success":true,"data":[{"id":"01hqn6jffccp9hwmr3qgf4zav4","user_id":"01hq3781r6qm4ney4aaxtfk065","event_type":"Updated kyb-setting","description":"updated document with name - Certificate of Incorporation","business_id":"","date_created":"27\/02\/2024 @ 12:53PM","team_member":"Platform Owner"},{"id":"01hqn6j7m8srwqkr8tt7terjgb","user_id":"01hq3781r6qm4ney4aaxtfk065","event_type":"Created a kyb-setting","description":"created kyb setting with document-name - Certificate of Incorporation","business_id":"","date_created":"27\/02\/2024 @ 12:52PM","team_member":"Platform Owner"},{"id":"01hqn6hw2vg7nke2cjmbkvfks9","user_id":"01hq3781r6qm4ney4aaxtfk065","event_type":"Deactivated Business","description":"Deactivated business with name - Habeeb13","business_id":"","date_created":"27\/02\/2024 @ 12:52PM","team_member":"Platform Owner"},{"id":"01hqn6ht2d9wmhpxfr3dr7wtdr","user_id":"01hq3781r6qm4ney4aaxtfk065","event_type":"Deactivated Business","description":"Deactivated business with name - Habeeb13","business_id":"","date_created":"27\/02\/2024 @ 12:52PM","team_member":"Platform Owner"},{"id":"01hqn6hr0p7n89x3dhq9h80e5d","user_id":"01hq3781r6qm4ney4aaxtfk065","event_type":"Activated Business","description":"Activated business with name - Habeeb13","business_id":"","date_created":"27\/02\/2024 @ 12:52PM","team_member":"Platform Owner"},{"id":"01hqn6hnh6456wjek072z9v8fv","user_id":"01hq3781r6qm4ney4aaxtfk065","event_type":"Activated Business","description":"Activated business with name - Habeeb13","business_id":"","date_created":"27\/02\/2024 @ 12:52PM","team_member":"Platform Owner"},{"id":"01hqn6h8f46ydd4fekth2v18yy","user_id":"01hq3781r6qm4ney4aaxtfk065","event_type":"Updated team member status","description":"Updated team member status with email - sultan+142@assurdly.com","business_id":"","date_created":"27\/02\/2024 @ 12:52PM","team_member":"Platform Owner"},{"id":"01hqn6h6nd9g70qb8a7xv6zshg","user_id":"01hq3781r6qm4ney4aaxtfk065","event_type":"Updated team member status","description":"Updated team member status with email - sultan+142@assurdly.com","business_id":"","date_created":"27\/02\/2024 @ 12:52PM","team_member":"Platform Owner"},{"id":"01hqn6gredwrxmd9vnd8x349y0","user_id":"01hq3781r6qm4ney4aaxtfk065","event_type":"Invited team member","description":"Resent Invite team member email - sultan+142@assurdly.com","business_id":"","date_created":"27\/02\/2024 @ 12:52PM","team_member":"Platform Owner"},{"id":"01hqn6gjhjsres40nzfc4ph1nb","user_id":"01hq3781r6qm4ney4aaxtfk065","event_type":"Invited team member","description":"Invited team member email - sultan+142@assurdly.com","business_id":"","date_created":"27\/02\/2024 @ 12:51PM","team_member":"Platform Owner"}],"pagination":{"current_page":1,"per_page":10,"total":612,"next_page_url":"http:\/\/salary.dev.onepipe.io\/api\/audit?page=2","prev_page_url":null},"message":"Audit trails retrieved successfully"}