{"success":true,"data":[{"id":"01hrq9xcpyampx8b6ne8xt3yzj","user_id":"01hrnzwq8cjyvjpvxrhbw8tktc","event_type":"Deleted KYB setting","description":"Deleted KYB setting with document name - Certificate of Incorporation","business_id":null,"date_created":"11\/03\/2024 @ 06:45PM","team_member":"Platform Owner"},{"id":"01hrq9xafh4fpk8w6hkp2mrc4q","user_id":"01hrnzwq8cjyvjpvxrhbw8tktc","event_type":"Updated KYB setting","description":"Updated document with name - Certificate of Incorporation","business_id":null,"date_created":"11\/03\/2024 @ 06:45PM","team_member":"Platform Owner"},{"id":"01hrq9x13x48t0h5ch93wtx9zg","user_id":"01hrnzwq8cjyvjpvxrhbw8tktc","event_type":"Created a KYB setting","description":"Created KYB setting with document name - Certificate of Incorporation","business_id":null,"date_created":"11\/03\/2024 @ 06:45PM","team_member":"Platform Owner"},{"id":"01hrq9vpdj1tc9y3hky0d8w7v4","user_id":"01hrnzwq8cjyvjpvxrhbw8tktc","event_type":"Activated business","description":"Activated business with name - Assurdly Verse","business_id":null,"date_created":"11\/03\/2024 @ 06:44PM","team_member":"Platform Owner"},{"id":"01hrq9vfea3z90p45ye3vhddb0","user_id":"01hrnzwq8cjyvjpvxrhbw8tktc","event_type":"Blacklisted business","description":"Blacklisted business with name - Assurdly Verse","business_id":null,"date_created":"11\/03\/2024 @ 06:44PM","team_member":"Platform Owner"},{"id":"01hrq9vaggj6671xcwnywbavk3","user_id":"01hrnzwq8cjyvjpvxrhbw8tktc","event_type":"Blacklisted business","description":"Blacklisted business with name - Assurdly Verse","business_id":null,"date_created":"11\/03\/2024 @ 06:44PM","team_member":"Platform Owner"},{"id":"01hrq9v3djqfwk7wnb940k48tv","user_id":"01hrnzwq8cjyvjpvxrhbw8tktc","event_type":"Activated business","description":"Activated business with name - Assurdly Verse","business_id":null,"date_created":"11\/03\/2024 @ 06:44PM","team_member":"Platform Owner"},{"id":"01hrq9twqwz5a6wdfhvvv7zggr","user_id":"01hrnzwq8cjyvjpvxrhbw8tktc","event_type":"Deactivated business","description":"Deactivated business with name - Assurdly Verse","business_id":null,"date_created":"11\/03\/2024 @ 06:44PM","team_member":"Platform Owner"},{"id":"01hrq9tnyptvq9fr2rxhz3cfem","user_id":"01hrnzwq8cjyvjpvxrhbw8tktc","event_type":"Activated business","description":"Activated business with name - Assurdly Verse","business_id":null,"date_created":"11\/03\/2024 @ 06:44PM","team_member":"Platform Owner"},{"id":"01hrq9tfcqnndkf8k1dt5bgme6","user_id":"01hrnzwq8cjyvjpvxrhbw8tktc","event_type":"Deactivated business","description":"Deactivated business with name - Assurdly Verse","business_id":null,"date_created":"11\/03\/2024 @ 06:44PM","team_member":"Platform Owner"}],"pagination":{"current_page":1,"per_page":10,"total":159,"next_page_url":"http:\/\/salary.dev.onepipe.io\/api\/audit?page=2","prev_page_url":null},"message":"Audit trails retrieved successfully"}