{"success":true,"data":[{"id":"01hqmxsbsg6875wp737kded098","user_id":"01hq3781r6qm4ney4aaxtfk065","event_type":"Updated kyb-setting","description":"updated document with name - Certificate of Incorporation","business_id":"","date_created":"27\/02\/2024 @ 10:19AM","team_member":"Platform Owner"},{"id":"01hqmxs3xc9r0jbqpmwercadqd","user_id":"01hq3781r6qm4ney4aaxtfk065","event_type":"Created a kyb-setting","description":"created kyb setting with document-name - Certificate of Incorporation","business_id":"","date_created":"27\/02\/2024 @ 10:19AM","team_member":"Platform Owner"},{"id":"01hqmxrspqtkv9hbwycfe24k6m","user_id":"01hq3781r6qm4ney4aaxtfk065","event_type":"Deactivated Business","description":"Deactivated business with name - Habeeb13","business_id":"","date_created":"27\/02\/2024 @ 10:19AM","team_member":"Platform Owner"},{"id":"01hqmxrqpq1s8x4rna3zkn46se","user_id":"01hq3781r6qm4ney4aaxtfk065","event_type":"Deactivated Business","description":"Deactivated business with name - Habeeb13","business_id":"","date_created":"27\/02\/2024 @ 10:19AM","team_member":"Platform Owner"},{"id":"01hqmxrnngxy36hrqnfsp0nt7w","user_id":"01hq3781r6qm4ney4aaxtfk065","event_type":"Activated Business","description":"Activated business with name - Habeeb13","business_id":"","date_created":"27\/02\/2024 @ 10:19AM","team_member":"Platform Owner"},{"id":"01hqmxrk4gr0awd7kc76tb6h5b","user_id":"01hq3781r6qm4ney4aaxtfk065","event_type":"Activated Business","description":"Activated business with name - Habeeb13","business_id":"","date_created":"27\/02\/2024 @ 10:19AM","team_member":"Platform Owner"},{"id":"01hqmxr58y6xqvgjhd49jrepqk","user_id":"01hq3781r6qm4ney4aaxtfk065","event_type":"Updated team member status","description":"Updated team member status with email - sultan+298@assurdly.com","business_id":"","date_created":"27\/02\/2024 @ 10:18AM","team_member":"Platform Owner"},{"id":"01hqmxr3eg9cqh8nw56jf64zq3","user_id":"01hq3781r6qm4ney4aaxtfk065","event_type":"Updated team member status","description":"Updated team member status with email - sultan+298@assurdly.com","business_id":"","date_created":"27\/02\/2024 @ 10:18AM","team_member":"Platform Owner"},{"id":"01hqmxqmbsv0akz5p65zkkedxx","user_id":"01hq3781r6qm4ney4aaxtfk065","event_type":"Invited team member","description":"Resent Invite team member email - sultan+298@assurdly.com","business_id":"","date_created":"27\/02\/2024 @ 10:18AM","team_member":"Platform Owner"},{"id":"01hqmxqg33prp072cvytq077v5","user_id":"01hq3781r6qm4ney4aaxtfk065","event_type":"Invited team member","description":"Invited team member email - sultan+298@assurdly.com","business_id":"","date_created":"27\/02\/2024 @ 10:18AM","team_member":"Platform Owner"}],"pagination":{"current_page":1,"per_page":10,"total":597,"next_page_url":"http:\/\/salary.dev.onepipe.io\/api\/audit?page=2","prev_page_url":null},"message":"Audit trails retrieved successfully"}