{"success":true,"data":[{"id":"01hqre4b1c9h0e54fnyws61mxy","user_id":"01hq3781r6qm4ney4aaxtfk065","event_type":"Updated kyb-setting","description":"updated document with name - Certificate of Incorporation","business_id":"","date_created":"28\/02\/2024 @ 07:02PM","team_member":"Platform Owner"},{"id":"01hqre42gc0rrxz2w3et7ss7y2","user_id":"01hq3781r6qm4ney4aaxtfk065","event_type":"Created a kyb-setting","description":"created kyb setting with document-name - Certificate of Incorporation","business_id":"","date_created":"28\/02\/2024 @ 07:02PM","team_member":"Platform Owner"},{"id":"01hqre300ph9g4mfa17hwhjp7d","user_id":"01hq3781r6qm4ney4aaxtfk065","event_type":"Blacklisted Business","description":"Blacklisted business with name - Habeeb13","business_id":"","date_created":"28\/02\/2024 @ 07:02PM","team_member":"Platform Owner"},{"id":"01hqre2xwh0kfmfct7p5yq912v","user_id":"01hq3781r6qm4ney4aaxtfk065","event_type":"Deactivated Business","description":"Deactivated business with name - Habeeb13","business_id":"","date_created":"28\/02\/2024 @ 07:02PM","team_member":"Platform Owner"},{"id":"01hqre2vrtc21w1rxmm57q0n77","user_id":"01hq3781r6qm4ney4aaxtfk065","event_type":"Deactivated Business","description":"Deactivated business with name - Habeeb13","business_id":"","date_created":"28\/02\/2024 @ 07:02PM","team_member":"Platform Owner"},{"id":"01hqre2sjn8tw51dfk1ph4ddt1","user_id":"01hq3781r6qm4ney4aaxtfk065","event_type":"Activated Business","description":"Activated business with name - Habeeb13","business_id":"","date_created":"28\/02\/2024 @ 07:02PM","team_member":"Platform Owner"},{"id":"01hqre2pv41svcs55eh3b794c2","user_id":"01hq3781r6qm4ney4aaxtfk065","event_type":"Activated Business","description":"Activated business with name - Habeeb13","business_id":"","date_created":"28\/02\/2024 @ 07:01PM","team_member":"Platform Owner"},{"id":"01hqre29k8jmv56eaqfw8k74n3","user_id":"01hq3781r6qm4ney4aaxtfk065","event_type":"Updated team member status","description":"Updated team member status with email - sultan+840@assurdly.com","business_id":"","date_created":"28\/02\/2024 @ 07:01PM","team_member":"Platform Owner"},{"id":"01hqre27k9jh0acv3gxj1d7mz4","user_id":"01hq3781r6qm4ney4aaxtfk065","event_type":"Updated team member status","description":"Updated team member status with email - sultan+840@assurdly.com","business_id":"","date_created":"28\/02\/2024 @ 07:01PM","team_member":"Platform Owner"},{"id":"01hqre25kamykg6z5a0ty0tjck","user_id":"01hq3781r6qm4ney4aaxtfk065","event_type":"Updated team member","description":"updated team with email - ","business_id":"","date_created":"28\/02\/2024 @ 07:01PM","team_member":"Platform Owner"}],"pagination":{"current_page":1,"per_page":10,"total":1020,"next_page_url":"http:\/\/salary.dev.onepipe.io\/api\/audit?page=2","prev_page_url":null},"message":"Audit trails retrieved successfully"}