{"success":true,"data":[{"id":"01hr586bdhb7a0xn9bf1vp3y9k","user_id":"01hr4nmzv80v0pz35cwm3ynzyn","event_type":"Updated KYB setting","description":"Updated document with name - Certificate of Incorporation","business_id":"","date_created":"04\/03\/2024 @ 06:29PM","team_member":"Platform Owner"},{"id":"01hr586277bg244pzq84gkpsmb","user_id":"01hr4nmzv80v0pz35cwm3ynzyn","event_type":"Created a KYB setting","description":"Created KYB setting with document name - Certificate of Incorporation","business_id":"","date_created":"04\/03\/2024 @ 06:29PM","team_member":"Platform Owner"},{"id":"01hr584rbv4d2yftcvrgbt357k","user_id":"01hr4nmzv80v0pz35cwm3ynzyn","event_type":"Blacklisted business","description":"Blacklisted business with name - Assurdly Business 6","business_id":"","date_created":"04\/03\/2024 @ 06:28PM","team_member":"Platform Owner"},{"id":"01hr584f1qn71mw0ex9ekq1pem","user_id":"01hr4nmzv80v0pz35cwm3ynzyn","event_type":"Deactivated business","description":"Deactivated business with name - Assurdly Business 6","business_id":"","date_created":"04\/03\/2024 @ 06:28PM","team_member":"Platform Owner"},{"id":"01hr5843h3vdyswe13t7k6ggy3","user_id":"01hr4nmzv80v0pz35cwm3ynzyn","event_type":"Deactivated business","description":"Deactivated business with name - Assurdly Business 6","business_id":"","date_created":"04\/03\/2024 @ 06:27PM","team_member":"Platform Owner"},{"id":"01hr583qw2h9grjkkzgrg820be","user_id":"01hr4nmzv80v0pz35cwm3ynzyn","event_type":"Updated team member status","description":"Updated team member status with email - sultan+446@assurdly.com","business_id":"","date_created":"04\/03\/2024 @ 06:27PM","team_member":"Platform Owner"},{"id":"01hr583nq512z00px433ng8mjc","user_id":"01hr4nmzv80v0pz35cwm3ynzyn","event_type":"Updated team member status","description":"Updated team member status with email - sultan+446@assurdly.com","business_id":"","date_created":"04\/03\/2024 @ 06:27PM","team_member":"Platform Owner"},{"id":"01hr583kgc809debx0ab43cpq6","user_id":"01hr4nmzv80v0pz35cwm3ynzyn","event_type":"Updated team member","description":"Updated team with email - ","business_id":"","date_created":"04\/03\/2024 @ 06:27PM","team_member":"Platform Owner"},{"id":"01hr5835b5ep2jasj92t1a5vhg","user_id":"01hr4nmzv80v0pz35cwm3ynzyn","event_type":"Invited team member","description":"Resent invite team member email - sultan+446@assurdly.com","business_id":"","date_created":"04\/03\/2024 @ 06:27PM","team_member":"Platform Owner"},{"id":"01hr582zfgz01vnq5dv669zdst","user_id":"01hr4nmzv80v0pz35cwm3ynzyn","event_type":"Invited team member","description":"Invited team member email - sultan+446@assurdly.com","business_id":"","date_created":"04\/03\/2024 @ 06:27PM","team_member":"Platform Owner"}],"pagination":{"current_page":1,"per_page":10,"total":125,"next_page_url":"http:\/\/salary.dev.onepipe.io\/api\/audit?page=2","prev_page_url":null},"message":"Audit trails retrieved successfully"}