{"success":true,"data":[{"id":"01hqraffnjmkpp6scm21447qjb","user_id":"01hq3781r6qm4ney4aaxtfk065","event_type":"Updated kyb-setting","description":"updated document with name - Certificate of Incorporation","business_id":"","date_created":"28\/02\/2024 @ 05:59PM","team_member":"Platform Owner"},{"id":"01hqraf6phhmwdh48ngwy8j68e","user_id":"01hq3781r6qm4ney4aaxtfk065","event_type":"Created a kyb-setting","description":"created kyb setting with document-name - Certificate of Incorporation","business_id":"","date_created":"28\/02\/2024 @ 05:58PM","team_member":"Platform Owner"},{"id":"01hqrae2vsj8pd7a2150fnp86f","user_id":"01hq3781r6qm4ney4aaxtfk065","event_type":"Blacklisted Business","description":"Blacklisted business with name - Habeeb13","business_id":"","date_created":"28\/02\/2024 @ 05:58PM","team_member":"Platform Owner"},{"id":"01hqrae0pbt3r5yrpsmn0xw5qq","user_id":"01hq3781r6qm4ney4aaxtfk065","event_type":"Deactivated Business","description":"Deactivated business with name - Habeeb13","business_id":"","date_created":"28\/02\/2024 @ 05:58PM","team_member":"Platform Owner"},{"id":"01hqradyf6xyt9wdwkxeca2vp5","user_id":"01hq3781r6qm4ney4aaxtfk065","event_type":"Deactivated Business","description":"Deactivated business with name - Habeeb13","business_id":"","date_created":"28\/02\/2024 @ 05:58PM","team_member":"Platform Owner"},{"id":"01hqradw8vxcvaerz6cnf760pw","user_id":"01hq3781r6qm4ney4aaxtfk065","event_type":"Activated Business","description":"Activated business with name - Habeeb13","business_id":"","date_created":"28\/02\/2024 @ 05:58PM","team_member":"Platform Owner"},{"id":"01hqradsk8713b9gn34gf2n0rw","user_id":"01hq3781r6qm4ney4aaxtfk065","event_type":"Activated Business","description":"Activated business with name - Habeeb13","business_id":"","date_created":"28\/02\/2024 @ 05:58PM","team_member":"Platform Owner"},{"id":"01hqradbvjhaamvrwaxnqt58va","user_id":"01hq3781r6qm4ney4aaxtfk065","event_type":"Updated team member status","description":"Updated team member status with email - sultan+590@assurdly.com","business_id":"","date_created":"28\/02\/2024 @ 05:57PM","team_member":"Platform Owner"},{"id":"01hqrad9tvt6zj51xf3n662562","user_id":"01hq3781r6qm4ney4aaxtfk065","event_type":"Updated team member status","description":"Updated team member status with email - sultan+590@assurdly.com","business_id":"","date_created":"28\/02\/2024 @ 05:57PM","team_member":"Platform Owner"},{"id":"01hqrad7td72d2mm39n82g6aky","user_id":"01hq3781r6qm4ney4aaxtfk065","event_type":"Updated team member","description":"updated team with email - ","business_id":"","date_created":"28\/02\/2024 @ 05:57PM","team_member":"Platform Owner"}],"pagination":{"current_page":1,"per_page":10,"total":981,"next_page_url":"http:\/\/salary.dev.onepipe.io\/api\/audit?page=2","prev_page_url":null},"message":"Audit trails retrieved successfully"}