{"success":true,"data":[{"id":"01hqn87fqgm0d68md6444r04g4","user_id":"01hq3781r6qm4ney4aaxtfk065","event_type":"Updated kyb-setting","description":"updated document with name - Certificate of Incorporation","business_id":"","date_created":"27\/02\/2024 @ 01:21PM","team_member":"Platform Owner"},{"id":"01hqn877fana8js0r8ctrpehth","user_id":"01hq3781r6qm4ney4aaxtfk065","event_type":"Created a kyb-setting","description":"created kyb setting with document-name - Certificate of Incorporation","business_id":"","date_created":"27\/02\/2024 @ 01:21PM","team_member":"Platform Owner"},{"id":"01hqn86nxsstwg1vey7s6wr5r4","user_id":"01hq3781r6qm4ney4aaxtfk065","event_type":"Deactivated Business","description":"Deactivated business with name - Habeeb13","business_id":"","date_created":"27\/02\/2024 @ 01:21PM","team_member":"Platform Owner"},{"id":"01hqn86ks85h05378e16ct4h1g","user_id":"01hq3781r6qm4ney4aaxtfk065","event_type":"Deactivated Business","description":"Deactivated business with name - Habeeb13","business_id":"","date_created":"27\/02\/2024 @ 01:21PM","team_member":"Platform Owner"},{"id":"01hqn86hq8r9xw42a7x6r1cptz","user_id":"01hq3781r6qm4ney4aaxtfk065","event_type":"Activated Business","description":"Activated business with name - Habeeb13","business_id":"","date_created":"27\/02\/2024 @ 01:21PM","team_member":"Platform Owner"},{"id":"01hqn86f5cdmhjcrhxyjk2smvm","user_id":"01hq3781r6qm4ney4aaxtfk065","event_type":"Activated Business","description":"Activated business with name - Habeeb13","business_id":"","date_created":"27\/02\/2024 @ 01:21PM","team_member":"Platform Owner"},{"id":"01hqn861b6md5863t7g1t4sn0e","user_id":"01hq3781r6qm4ney4aaxtfk065","event_type":"Updated team member status","description":"Updated team member status with email - sultan+832@assurdly.com","business_id":"","date_created":"27\/02\/2024 @ 01:21PM","team_member":"Platform Owner"},{"id":"01hqn85zf52f00hq102y12759c","user_id":"01hq3781r6qm4ney4aaxtfk065","event_type":"Updated team member status","description":"Updated team member status with email - sultan+832@assurdly.com","business_id":"","date_created":"27\/02\/2024 @ 01:21PM","team_member":"Platform Owner"},{"id":"01hqn85fn7vqf2vjrc4p5b02sw","user_id":"01hq3781r6qm4ney4aaxtfk065","event_type":"Invited team member","description":"Resent Invite team member email - sultan+832@assurdly.com","business_id":"","date_created":"27\/02\/2024 @ 01:20PM","team_member":"Platform Owner"},{"id":"01hqn859q9nbkgbpbtkdpw5mq5","user_id":"01hq3781r6qm4ney4aaxtfk065","event_type":"Invited team member","description":"Invited team member email - sultan+832@assurdly.com","business_id":"","date_created":"27\/02\/2024 @ 01:20PM","team_member":"Platform Owner"}],"pagination":{"current_page":1,"per_page":10,"total":671,"next_page_url":"http:\/\/salary.dev.onepipe.io\/api\/audit?page=2","prev_page_url":null},"message":"Audit trails retrieved successfully"}