{"success":true,"data":[{"id":"01hqqrn0tpwe86fjx6bchbsg04","user_id":"01hq3781r6qm4ney4aaxtfk065","event_type":"Updated kyb-setting","description":"updated document with name - Certificate of Incorporation","business_id":"","date_created":"28\/02\/2024 @ 12:47PM","team_member":"Platform Owner"},{"id":"01hqqrmr33rxwaef56wxjq8c96","user_id":"01hq3781r6qm4ney4aaxtfk065","event_type":"Created a kyb-setting","description":"created kyb setting with document-name - Certificate of Incorporation","business_id":"","date_created":"28\/02\/2024 @ 12:47PM","team_member":"Platform Owner"},{"id":"01hqqrkmrm0c5gaqm7sz1an7s1","user_id":"01hq3781r6qm4ney4aaxtfk065","event_type":"Blacklisted Business","description":"Blacklisted business with name - Habeeb13","business_id":"","date_created":"28\/02\/2024 @ 12:46PM","team_member":"Platform Owner"},{"id":"01hqqrkjhryp5k2ts3w0613nmb","user_id":"01hq3781r6qm4ney4aaxtfk065","event_type":"Deactivated Business","description":"Deactivated business with name - Habeeb13","business_id":"","date_created":"28\/02\/2024 @ 12:46PM","team_member":"Platform Owner"},{"id":"01hqqrkgar2y1r99r2gfp39bes","user_id":"01hq3781r6qm4ney4aaxtfk065","event_type":"Deactivated Business","description":"Deactivated business with name - Habeeb13","business_id":"","date_created":"28\/02\/2024 @ 12:46PM","team_member":"Platform Owner"},{"id":"01hqqrke64wt6dmynmzwbtvbjd","user_id":"01hq3781r6qm4ney4aaxtfk065","event_type":"Activated Business","description":"Activated business with name - Habeeb13","business_id":"","date_created":"28\/02\/2024 @ 12:46PM","team_member":"Platform Owner"},{"id":"01hqqrkbg6w1phkrf7ttg6cbcr","user_id":"01hq3781r6qm4ney4aaxtfk065","event_type":"Activated Business","description":"Activated business with name - Habeeb13","business_id":"","date_created":"28\/02\/2024 @ 12:46PM","team_member":"Platform Owner"},{"id":"01hqqrjxh8kgvt4sb6tggt6gw0","user_id":"01hq3781r6qm4ney4aaxtfk065","event_type":"Updated team member status","description":"Updated team member status with email - sultan+976@assurdly.com","business_id":"","date_created":"28\/02\/2024 @ 12:46PM","team_member":"Platform Owner"},{"id":"01hqqrjvh9hkz25ga3s1gtwa35","user_id":"01hq3781r6qm4ney4aaxtfk065","event_type":"Updated team member status","description":"Updated team member status with email - sultan+976@assurdly.com","business_id":"","date_created":"28\/02\/2024 @ 12:46PM","team_member":"Platform Owner"},{"id":"01hqqrjsgwdy12awrcp66hdm8r","user_id":"01hq3781r6qm4ney4aaxtfk065","event_type":"Updated team member","description":"updated team with email - ","business_id":"","date_created":"28\/02\/2024 @ 12:46PM","team_member":"Platform Owner"}],"pagination":{"current_page":1,"per_page":10,"total":915,"next_page_url":"http:\/\/salary.dev.onepipe.io\/api\/audit?page=2","prev_page_url":null},"message":"Audit trails retrieved successfully"}