{"success":true,"data":[{"id":"01hqm106me0rxrvhq0gwmsx85v","business_name":"Habeeb13","email":"esseshewen@gmail.com","phone_number":"2347012311678","owner_name":"Stacie Stacie","date_created":"27\/02\/2024 @ 01:56AM","rc_number":"123112","business_type":"Telecommunications","status":"active","enable_email":0,"enable_sms":0,"has_completed_kyb":1,"owner_id":"01hqm107a8r7q43eva9k9e647j","state_id":null,"address":null,"virtualAccount":{"id":"01hqmv8cm49qccnz8wqgv2h4w1","account_name":"Habeeb13","account_number":"1027189831","bank_name":"SUPPORT MICROFINANCE BANK"}},{"id":"01hqjt76g4r8pesa5hftj3g0f3","business_name":"Testar Company and Sons","email":"sultan+200@assurdly.com","phone_number":"2348173106732","owner_name":"Sultan Testrar","date_created":"26\/02\/2024 @ 02:38PM","rc_number":"10000933","business_type":"Manufacturer","status":"inactive","enable_email":0,"enable_sms":0,"has_completed_kyb":1,"owner_id":"01hqjt775k9spfgkyce2yjy0tr","state_id":null,"address":null,"virtualAccount":{"id":"01hqjtpxj7b5dcsp00bm1445c6","account_name":"Testar Company and Sons","account_number":"328184705","bank_name":"SUPPORT MICROFINANCE BANK"}},{"id":"01hqjt1dxf7v6nh06jyr7yan1j","business_name":"Testar Company","email":"sultan@assurdly.com","phone_number":"2348173106732","owner_name":"Sultan Ajayi","date_created":"26\/02\/2024 @ 02:35PM","rc_number":"100009","business_type":"Manufacturer","status":"inactive","enable_email":0,"enable_sms":0,"has_completed_kyb":1,"owner_id":"01hqjt1ejzenx63edpwpx7armr","state_id":null,"address":null,"virtualAccount":{"id":"01hqjtp37hgecp43vvnsb3kv68","account_name":"Testar Company","account_number":"1872050224","bank_name":"SUPPORT MICROFINANCE BANK"}},{"id":"01hqb8ckb823pn71vw8bs53bjn","business_name":"Assurdly Business 4","email":"moses23@assurdly.com","phone_number":"2348173854809","owner_name":"Moses George","date_created":"23\/02\/2024 @ 04:12PM","rc_number":"21244543","business_type":"Marketing","status":"active","enable_email":0,"enable_sms":0,"has_completed_kyb":1,"owner_id":"01hqb8cm1qxj44ztakzznhjj7m","state_id":null,"address":null,"virtualAccount":{"id":"01hqjecqgt9dmsahfm5stzgtfw","account_name":"Assurdly Business 4","account_number":"1687052463","bank_name":"SUPPORT MICROFINANCE BANK"}},{"id":"01hqadv56f0m5r7rk3bmjf1zcb","business_name":"Assurdly Business 1","email":"mosesgeorge2605@gmail.com","phone_number":"2348173854807","owner_name":"Moses George","date_created":"23\/02\/2024 @ 08:28AM","rc_number":"2134456","business_type":"Marketing","status":"inactive","enable_email":0,"enable_sms":0,"has_completed_kyb":1,"owner_id":"01hqadv5wy2fs3t3ryy5ge77qd","state_id":"01hq1khn0zhdfddzyw4p550","address":"No 3 Eromosel Avenue, Lagos","virtualAccount":{"id":"01hqae1tjqeys8tfvchvbpjcga","account_name":"Assurdly Business 1","account_number":"1638522640","bank_name":"SUPPORT MICROFINANCE BANK"}},{"id":"01hq85nnxtravnepjs290a1n8z","business_name":"gabriella.inc","email":"gabriella@assurdly.com","phone_number":"2349017432574","owner_name":"Gabriella Ola-Thomas","date_created":"22\/02\/2024 @ 11:27AM","rc_number":"12345","business_type":"Healthcare","status":"inactive","enable_email":0,"enable_sms":0,"has_completed_kyb":1,"owner_id":"01hq85npkv4nfdckr7a4bcm8g3","state_id":"01hq37akx9b9b2xgv20sb78rrh","address":"12, Bayo Street, Ikosi, Lagos,","virtualAccount":{"id":"01hq89yq5wsnmby0qf4gc1dshr","account_name":"gabriella.inc","account_number":"1592550363","bank_name":"SUPPORT MICROFINANCE BANK"}},{"id":"01hq63e1ppyz6y0be6rk9yqpbj","business_name":"Assurdly Business","email":"moses@assurdly.com","phone_number":"2348173854807","owner_name":"Moses George","date_created":"21\/02\/2024 @ 04:09PM","rc_number":"2124456","business_type":"Marketing","status":"active","enable_email":0,"enable_sms":0,"has_completed_kyb":1,"owner_id":"01hq63e2cvgc90ash5r5pdhn2j","state_id":null,"address":null,"virtualAccount":{"id":"01hq6d299z17v4wxdwyb2eknx3","account_name":"Assurdly Business","account_number":"1224413546","bank_name":"SUPPORT MICROFINANCE BANK"}},{"id":"01hq63bc3y4mjxp4dn0k0nmsdf","business_name":"Assurdly Testers","email":"noses@assurdly.com","phone_number":"2348173854807","owner_name":"Moses George","date_created":"21\/02\/2024 @ 04:08PM","rc_number":"2123456","business_type":"Marketing","status":"active","enable_email":0,"enable_sms":0,"has_completed_kyb":1,"owner_id":"01hq63bct0d9zbtfjndvpjy6kp","state_id":null,"address":null,"virtualAccount":{"id":"01hq801veqpsnk1s75shqwhgj4","account_name":"Assurdly Testers","account_number":"1336701692","bank_name":"SUPPORT MICROFINANCE BANK"}},{"id":"01hq61qcrgyq89ged3dzsv0371","business_name":"test business","email":"test@gmail.com","phone_number":"2347032123456","owner_name":"test1 test2","date_created":"21\/02\/2024 @ 03:39PM","rc_number":"212344","business_type":"Marketing","status":"active","enable_email":0,"enable_sms":0,"has_completed_kyb":1,"owner_id":"01hq61qdefzxjm9t945hvkpdbv","state_id":null,"address":null,"virtualAccount":{"id":"01hqjpcvxp4kpjb6k2vqv4gfvk","account_name":"test business","account_number":"223223630","bank_name":"SUPPORT MICROFINANCE BANK"}},{"id":"01hq5pbxgx4x1sjzst3d9yv2ds","business_name":"Assurdly Tester","email":"noses@assurdly.com","phone_number":"2348173854807","owner_name":"Moses George","date_created":"21\/02\/2024 @ 12:21PM","rc_number":"212345","business_type":"Marketing","status":"active","enable_email":0,"enable_sms":0,"has_completed_kyb":1,"owner_id":"01hq5pby6h2csh1j13yxk5de62","state_id":null,"address":null,"virtualAccount":{"id":"01hqjpfcav6ax6cghpyy7r799j","account_name":"Assurdly Tester","account_number":"593392248","bank_name":"SUPPORT MICROFINANCE BANK"}}],"pagination":{"current_page":1,"per_page":10,"total":11,"next_page_url":"http:\/\/salary.dev.onepipe.io\/api\/businesses?page=2","prev_page_url":null},"message":"Businesses retrieved successfully"}