{"success":true,"data":[{"id":"01hrq67psmbc7knj5n4hmqhady","user_id":"01hrnzwq8cjyvjpvxrhbw8tktc","event_type":"Deleted KYB setting","description":"Deleted KYB setting with document name - Certificate of Incorporation","business_id":null,"date_created":"11\/03\/2024 @ 05:41PM","team_member":"Platform Owner"},{"id":"01hrq67mp3h8418s198xdtk1vs","user_id":"01hrnzwq8cjyvjpvxrhbw8tktc","event_type":"Updated KYB setting","description":"Updated document with name - Certificate of Incorporation","business_id":null,"date_created":"11\/03\/2024 @ 05:41PM","team_member":"Platform Owner"},{"id":"01hrq67bsc7r3nye5hrneag6xp","user_id":"01hrnzwq8cjyvjpvxrhbw8tktc","event_type":"Created a KYB setting","description":"Created KYB setting with document name - Certificate of Incorporation","business_id":null,"date_created":"11\/03\/2024 @ 05:41PM","team_member":"Platform Owner"},{"id":"01hrq6626pdg4cbm0k362e4fnq","user_id":"01hrnzwq8cjyvjpvxrhbw8tktc","event_type":"Activated business","description":"Activated business with name - Assurdly Verse","business_id":null,"date_created":"11\/03\/2024 @ 05:40PM","team_member":"Platform Owner"},{"id":"01hrq65v54z79cwr6yep3h8ahf","user_id":"01hrnzwq8cjyvjpvxrhbw8tktc","event_type":"Activated business","description":"Activated business with name - Assurdly Verse","business_id":null,"date_created":"11\/03\/2024 @ 05:40PM","team_member":"Platform Owner"},{"id":"01hrq65pas1yt5ddhfq3hedz1f","user_id":"01hrnzwq8cjyvjpvxrhbw8tktc","event_type":"Deactivated business","description":"Deactivated business with name - Assurdly Verse","business_id":null,"date_created":"11\/03\/2024 @ 05:40PM","team_member":"Platform Owner"},{"id":"01hrq6562an7w135bhwq4k6p2m","user_id":"01hrnzwq8cjyvjpvxrhbw8tktc","event_type":"Updated team member status","description":"Updated team member status with email - sultan+499@assurdly.com","business_id":null,"date_created":"11\/03\/2024 @ 05:39PM","team_member":"Platform Owner"},{"id":"01hrq6541sdr4jyzxdqg3p9zh9","user_id":"01hrnzwq8cjyvjpvxrhbw8tktc","event_type":"Updated team member status","description":"Updated team member status with email - sultan+499@assurdly.com","business_id":null,"date_created":"11\/03\/2024 @ 05:39PM","team_member":"Platform Owner"},{"id":"01hrq6520tp1thhtmp2pda463g","user_id":"01hrnzwq8cjyvjpvxrhbw8tktc","event_type":"Updated team member","description":"Updated team with email - ","business_id":null,"date_created":"11\/03\/2024 @ 05:39PM","team_member":"Platform Owner"},{"id":"01hrq64qpnr3fjcwrr4sb206mg","user_id":"01hrnzwq8cjyvjpvxrhbw8tktc","event_type":"Invited team member","description":"Resent invite team member email - sultan+499@assurdly.com","business_id":null,"date_created":"11\/03\/2024 @ 05:39PM","team_member":"Platform Owner"}],"pagination":{"current_page":1,"per_page":10,"total":33,"next_page_url":"http:\/\/salary.dev.onepipe.io\/api\/audit?page=2","prev_page_url":null},"message":"Audit trails retrieved successfully"}