{"success":true,"data":[{"id":"01hqtv66c09p2bdmtnh8nnpb1e","user_id":"01hqs2xz09zwykvx6v0f6v4e5x","event_type":"Updated kyb-setting","description":"updated document with name - Certificate of Incorporation","business_id":"","date_created":"29\/02\/2024 @ 05:29PM","team_member":"Platform Owner"},{"id":"01hqtv5xm5n0cded9qvj4pmzh4","user_id":"01hqs2xz09zwykvx6v0f6v4e5x","event_type":"Created a kyb-setting","description":"created kyb setting with document-name - Certificate of Incorporation","business_id":"","date_created":"29\/02\/2024 @ 05:29PM","team_member":"Platform Owner"},{"id":"01hqtv4s88eh00jeqznwdy7er3","user_id":"01hqs2xz09zwykvx6v0f6v4e5x","event_type":"Blacklisted Business","description":"Blacklisted business with name - Habeeb12","business_id":"","date_created":"29\/02\/2024 @ 05:28PM","team_member":"Platform Owner"},{"id":"01hqtv4q30ddw2yp7nnr7tjbt0","user_id":"01hqs2xz09zwykvx6v0f6v4e5x","event_type":"Activated Business","description":"Activated business with name - Habeeb12","business_id":"","date_created":"29\/02\/2024 @ 05:28PM","team_member":"Platform Owner"},{"id":"01hqtv4mdjhqztzg21we9b3pa2","user_id":"01hqs2xz09zwykvx6v0f6v4e5x","event_type":"Deactivated Business","description":"Deactivated business with name - Habeeb12","business_id":"","date_created":"29\/02\/2024 @ 05:28PM","team_member":"Platform Owner"},{"id":"01hqtv4j8h5jp6wmjrz7y0hpdh","user_id":"01hqs2xz09zwykvx6v0f6v4e5x","event_type":"Activated Business","description":"Activated business with name - Habeeb12","business_id":"","date_created":"29\/02\/2024 @ 05:28PM","team_member":"Platform Owner"},{"id":"01hqtv4fhx2c735r7y62mrv92x","user_id":"01hqs2xz09zwykvx6v0f6v4e5x","event_type":"Deactivated Business","description":"Deactivated business with name - Habeeb12","business_id":"","date_created":"29\/02\/2024 @ 05:28PM","team_member":"Platform Owner"},{"id":"01hqtv45bp8024jq69800vdkg9","user_id":"01hqs2xz09zwykvx6v0f6v4e5x","event_type":"Updated team member status","description":"Updated team member status with email - sultan+115@assurdly.com","business_id":"","date_created":"29\/02\/2024 @ 05:28PM","team_member":"Platform Owner"},{"id":"01hqtv43byyy612096tfnhfhg0","user_id":"01hqs2xz09zwykvx6v0f6v4e5x","event_type":"Updated team member status","description":"Updated team member status with email - sultan+115@assurdly.com","business_id":"","date_created":"29\/02\/2024 @ 05:28PM","team_member":"Platform Owner"},{"id":"01hqtv41c77fd7vkn5ggc8a8cp","user_id":"01hqs2xz09zwykvx6v0f6v4e5x","event_type":"Updated team member","description":"updated team with email - ","business_id":"","date_created":"29\/02\/2024 @ 05:28PM","team_member":"Platform Owner"}],"pagination":{"current_page":1,"per_page":10,"total":73,"next_page_url":"http:\/\/salary.dev.onepipe.io\/api\/audit?page=2","prev_page_url":null},"message":"Audit trails retrieved successfully"}