{"success":true,"data":[{"id":"01hrq83behq3ag4nxh8dsh2119","user_id":"01hrnzwq8cjyvjpvxrhbw8tktc","event_type":"Deleted KYB setting","description":"Deleted KYB setting with document name - Certificate of Incorporation","business_id":null,"date_created":"11\/03\/2024 @ 06:13PM","team_member":"Platform Owner"},{"id":"01hrq839b15x640s0hmr9qrw8t","user_id":"01hrnzwq8cjyvjpvxrhbw8tktc","event_type":"Updated KYB setting","description":"Updated document with name - Certificate of Incorporation","business_id":null,"date_created":"11\/03\/2024 @ 06:13PM","team_member":"Platform Owner"},{"id":"01hrq830abs1304pz2r6v8vxb1","user_id":"01hrnzwq8cjyvjpvxrhbw8tktc","event_type":"Created a KYB setting","description":"Created KYB setting with document name - Certificate of Incorporation","business_id":null,"date_created":"11\/03\/2024 @ 06:13PM","team_member":"Platform Owner"},{"id":"01hrq81qs7xkvr00njmfgb6b13","user_id":"01hrnzwq8cjyvjpvxrhbw8tktc","event_type":"Activated business","description":"Activated business with name - Assurdly Verse","business_id":null,"date_created":"11\/03\/2024 @ 06:13PM","team_member":"Platform Owner"},{"id":"01hrq81bzgtdb15edrk5b5vydv","user_id":"01hrnzwq8cjyvjpvxrhbw8tktc","event_type":"Activated business","description":"Activated business with name - Assurdly Verse","business_id":null,"date_created":"11\/03\/2024 @ 06:12PM","team_member":"Platform Owner"},{"id":"01hrq8167cc6wt42yt9xtjwxt4","user_id":"01hrnzwq8cjyvjpvxrhbw8tktc","event_type":"Deactivated business","description":"Deactivated business with name - Assurdly Verse","business_id":null,"date_created":"11\/03\/2024 @ 06:12PM","team_member":"Platform Owner"},{"id":"01hrq80tyvsrmwpm3k6188jp1h","user_id":"01hrnzwq8cjyvjpvxrhbw8tktc","event_type":"Activated business","description":"Activated business with name - Assurdly Verse","business_id":null,"date_created":"11\/03\/2024 @ 06:12PM","team_member":"Platform Owner"},{"id":"01hrq80n59m45fpfah5hyknmp3","user_id":"01hrnzwq8cjyvjpvxrhbw8tktc","event_type":"Deactivated business","description":"Deactivated business with name - Assurdly Verse","business_id":null,"date_created":"11\/03\/2024 @ 06:12PM","team_member":"Platform Owner"},{"id":"01hrq8022ha484m29djep1ggzs","user_id":"01hrnzwq8cjyvjpvxrhbw8tktc","event_type":"Updated team member status","description":"Updated team member status with email - sultan+507@assurdly.com","business_id":null,"date_created":"11\/03\/2024 @ 06:12PM","team_member":"Platform Owner"},{"id":"01hrq8000naehmcz37vytmesj3","user_id":"01hrnzwq8cjyvjpvxrhbw8tktc","event_type":"Updated team member status","description":"Updated team member status with email - sultan+507@assurdly.com","business_id":null,"date_created":"11\/03\/2024 @ 06:12PM","team_member":"Platform Owner"}],"pagination":{"current_page":1,"per_page":10,"total":109,"next_page_url":"http:\/\/salary.dev.onepipe.io\/api\/audit?page=2","prev_page_url":null},"message":"Audit trails retrieved successfully"}