{"success":true,"data":[{"id":"01hr54vhr5mnh2n8hp3njrehec","user_id":"01hr4nmzv80v0pz35cwm3ynzyn","event_type":"Updated KYB setting","description":"Updated document with name - Certificate of Incorporation","business_id":"","date_created":"04\/03\/2024 @ 05:30PM","team_member":"Platform Owner"},{"id":"01hr54v997sp739d1vjjb861f4","user_id":"01hr4nmzv80v0pz35cwm3ynzyn","event_type":"Created a KYB setting","description":"Created KYB setting with document name - Certificate of Incorporation","business_id":"","date_created":"04\/03\/2024 @ 05:30PM","team_member":"Platform Owner"},{"id":"01hr54t2xjbecnssjd8vv5qgjk","user_id":"01hr4nmzv80v0pz35cwm3ynzyn","event_type":"Blacklisted business","description":"Blacklisted business with name - Ben.co","business_id":"","date_created":"04\/03\/2024 @ 05:30PM","team_member":"Platform Owner"},{"id":"01hr54t0sn8swxhdgx6qjyx227","user_id":"01hr4nmzv80v0pz35cwm3ynzyn","event_type":"Activated business","description":"Activated business with name - Ben.co","business_id":"","date_created":"04\/03\/2024 @ 05:30PM","team_member":"Platform Owner"},{"id":"01hr54sy2brxv7bz69kt0bpbb3","user_id":"01hr4nmzv80v0pz35cwm3ynzyn","event_type":"Deactivated business","description":"Deactivated business with name - Ben.co","business_id":"","date_created":"04\/03\/2024 @ 05:30PM","team_member":"Platform Owner"},{"id":"01hr54svr4yj9ajg6h6dx8a4pc","user_id":"01hr4nmzv80v0pz35cwm3ynzyn","event_type":"Activated business","description":"Activated business with name - Ben.co","business_id":"","date_created":"04\/03\/2024 @ 05:29PM","team_member":"Platform Owner"},{"id":"01hr54ss4f9mnwnczs816vr4fe","user_id":"01hr4nmzv80v0pz35cwm3ynzyn","event_type":"Deactivated business","description":"Deactivated business with name - Ben.co","business_id":"","date_created":"04\/03\/2024 @ 05:29PM","team_member":"Platform Owner"},{"id":"01hr54se3hj7vcbgrehqeggdgq","user_id":"01hr4nmzv80v0pz35cwm3ynzyn","event_type":"Updated team member status","description":"Updated team member status with email - sultan+408@assurdly.com","business_id":"","date_created":"04\/03\/2024 @ 05:29PM","team_member":"Platform Owner"},{"id":"01hr54sc4z84rmy655q4301a6v","user_id":"01hr4nmzv80v0pz35cwm3ynzyn","event_type":"Updated team member status","description":"Updated team member status with email - sultan+408@assurdly.com","business_id":"","date_created":"04\/03\/2024 @ 05:29PM","team_member":"Platform Owner"},{"id":"01hr54sa6vcsgz8ff79mq70jv4","user_id":"01hr4nmzv80v0pz35cwm3ynzyn","event_type":"Updated team member","description":"Updated team with email - ","business_id":"","date_created":"04\/03\/2024 @ 05:29PM","team_member":"Platform Owner"}],"pagination":{"current_page":1,"per_page":10,"total":109,"next_page_url":"http:\/\/salary.dev.onepipe.io\/api\/audit?page=2","prev_page_url":null},"message":"Audit trails retrieved successfully"}