{"success":true,"data":[{"id":"01hqt8nyf6f6jkg88db3javdna","user_id":"01hqs2xz09zwykvx6v0f6v4e5x","event_type":"Updated kyb-setting","description":"updated document with name - Certificate of Incorporation","business_id":"","date_created":"29\/02\/2024 @ 12:06PM","team_member":"Platform Owner"},{"id":"01hqt8nnszgtj5jp81nxv034b4","user_id":"01hqs2xz09zwykvx6v0f6v4e5x","event_type":"Created a kyb-setting","description":"created kyb setting with document-name - Certificate of Incorporation","business_id":"","date_created":"29\/02\/2024 @ 12:05PM","team_member":"Platform Owner"},{"id":"01hqt8mj2xcwhsr13fvxxcnv3a","user_id":"01hqs2xz09zwykvx6v0f6v4e5x","event_type":"Blacklisted Business","description":"Blacklisted business with name - Habeeb12","business_id":"","date_created":"29\/02\/2024 @ 12:05PM","team_member":"Platform Owner"},{"id":"01hqt8mfyme7s03gjkbgfewttx","user_id":"01hqs2xz09zwykvx6v0f6v4e5x","event_type":"Activated Business","description":"Activated business with name - Habeeb12","business_id":"","date_created":"29\/02\/2024 @ 12:05PM","team_member":"Platform Owner"},{"id":"01hqt8mdbbne4m4m4gc6kft6vr","user_id":"01hqs2xz09zwykvx6v0f6v4e5x","event_type":"Deactivated Business","description":"Deactivated business with name - Habeeb12","business_id":"","date_created":"29\/02\/2024 @ 12:05PM","team_member":"Platform Owner"},{"id":"01hqt8mb7dq6k3nn42zg64wkxp","user_id":"01hqs2xz09zwykvx6v0f6v4e5x","event_type":"Activated Business","description":"Activated business with name - Habeeb12","business_id":"","date_created":"29\/02\/2024 @ 12:05PM","team_member":"Platform Owner"},{"id":"01hqt8m8k4mhjxehq9869p3jh7","user_id":"01hqs2xz09zwykvx6v0f6v4e5x","event_type":"Deactivated Business","description":"Deactivated business with name - Habeeb12","business_id":"","date_created":"29\/02\/2024 @ 12:05PM","team_member":"Platform Owner"},{"id":"01hqt8kyhvnrrw6v4kvgf634kw","user_id":"01hqs2xz09zwykvx6v0f6v4e5x","event_type":"Updated team member status","description":"Updated team member status with email - sultan+967@assurdly.com","business_id":"","date_created":"29\/02\/2024 @ 12:04PM","team_member":"Platform Owner"},{"id":"01hqt8kwhy3w79e2b1068phsf6","user_id":"01hqs2xz09zwykvx6v0f6v4e5x","event_type":"Updated team member status","description":"Updated team member status with email - sultan+967@assurdly.com","business_id":"","date_created":"29\/02\/2024 @ 12:04PM","team_member":"Platform Owner"},{"id":"01hqt8ktk5qpdsm5x32jay40er","user_id":"01hqs2xz09zwykvx6v0f6v4e5x","event_type":"Updated team member","description":"updated team with email - ","business_id":"","date_created":"29\/02\/2024 @ 12:04PM","team_member":"Platform Owner"}],"pagination":{"current_page":1,"per_page":10,"total":41,"next_page_url":"http:\/\/salary.dev.onepipe.io\/api\/audit?page=2","prev_page_url":null},"message":"Audit trails retrieved successfully"}