{"success":true,"data":[{"id":"01hqn7tmbgzgtm9bat4dm528rj","user_id":"01hq3781r6qm4ney4aaxtfk065","event_type":"Updated kyb-setting","description":"updated document with name - Certificate of Incorporation","business_id":"","date_created":"27\/02\/2024 @ 01:14PM","team_member":"Platform Owner"},{"id":"01hqn7tceg4wgmagpvgh7qxsnw","user_id":"01hq3781r6qm4ney4aaxtfk065","event_type":"Created a kyb-setting","description":"created kyb setting with document-name - Certificate of Incorporation","business_id":"","date_created":"27\/02\/2024 @ 01:14PM","team_member":"Platform Owner"},{"id":"01hqn7sx0218jmp80ftf33w3xc","user_id":"01hq3781r6qm4ney4aaxtfk065","event_type":"Deactivated Business","description":"Deactivated business with name - Habeeb13","business_id":"","date_created":"27\/02\/2024 @ 01:14PM","team_member":"Platform Owner"},{"id":"01hqn7stzcdwkhbxxpqpr44eby","user_id":"01hq3781r6qm4ney4aaxtfk065","event_type":"Deactivated Business","description":"Deactivated business with name - Habeeb13","business_id":"","date_created":"27\/02\/2024 @ 01:14PM","team_member":"Platform Owner"},{"id":"01hqn7ss0671d3mew9abrk7e1q","user_id":"01hq3781r6qm4ney4aaxtfk065","event_type":"Activated Business","description":"Activated business with name - Habeeb13","business_id":"","date_created":"27\/02\/2024 @ 01:14PM","team_member":"Platform Owner"},{"id":"01hqn7spfgjp1b2x9hghnqwk9w","user_id":"01hq3781r6qm4ney4aaxtfk065","event_type":"Activated Business","description":"Activated business with name - Habeeb13","business_id":"","date_created":"27\/02\/2024 @ 01:14PM","team_member":"Platform Owner"},{"id":"01hqn7s92cdwc0bkxh7k58haw6","user_id":"01hq3781r6qm4ney4aaxtfk065","event_type":"Updated team member status","description":"Updated team member status with email - sultan+311@assurdly.com","business_id":"","date_created":"27\/02\/2024 @ 01:14PM","team_member":"Platform Owner"},{"id":"01hqn7s77y49cy2rh1wx2tfx32","user_id":"01hq3781r6qm4ney4aaxtfk065","event_type":"Updated team member status","description":"Updated team member status with email - sultan+311@assurdly.com","business_id":"","date_created":"27\/02\/2024 @ 01:14PM","team_member":"Platform Owner"},{"id":"01hqn7rrkx4rx1nr9sff5xphgv","user_id":"01hq3781r6qm4ney4aaxtfk065","event_type":"Invited team member","description":"Resent Invite team member email - sultan+311@assurdly.com","business_id":"","date_created":"27\/02\/2024 @ 01:13PM","team_member":"Platform Owner"},{"id":"01hqn7rmc7j0ht3xqsf6wmn551","user_id":"01hq3781r6qm4ney4aaxtfk065","event_type":"Invited team member","description":"Invited team member email - sultan+311@assurdly.com","business_id":"","date_created":"27\/02\/2024 @ 01:13PM","team_member":"Platform Owner"}],"pagination":{"current_page":1,"per_page":10,"total":657,"next_page_url":"http:\/\/salary.dev.onepipe.io\/api\/audit?page=2","prev_page_url":null},"message":"Audit trails retrieved successfully"}