{"success":true,"data":[{"id":"01hr7f3gb7z1r5kz4t98vkzwz5","user_id":"01hr61cgjc5s8srsj9cvkt2szw","event_type":"Updated KYB setting","description":"Updated document with name - Certificate of Incorporation","business_id":"","date_created":"05\/03\/2024 @ 03:08PM","team_member":"Platform Owner"},{"id":"01hr7f37e2n9x066t8769hcb7t","user_id":"01hr61cgjc5s8srsj9cvkt2szw","event_type":"Created a KYB setting","description":"Created KYB setting with document name - Certificate of Incorporation","business_id":"","date_created":"05\/03\/2024 @ 03:08PM","team_member":"Platform Owner"},{"id":"01hr7f1yhmf5fs2gt9rtcd88ky","user_id":"01hr61cgjc5s8srsj9cvkt2szw","event_type":"Blacklisted business","description":"Blacklisted business with name - Ben.co","business_id":"","date_created":"05\/03\/2024 @ 03:07PM","team_member":"Platform Owner"},{"id":"01hr7f1w8xj2pvdqz1ww1adf4j","user_id":"01hr61cgjc5s8srsj9cvkt2szw","event_type":"Activated business","description":"Activated business with name - Ben.co","business_id":"","date_created":"05\/03\/2024 @ 03:07PM","team_member":"Platform Owner"},{"id":"01hr7f1shqkh95cqk3fn8z26t5","user_id":"01hr61cgjc5s8srsj9cvkt2szw","event_type":"Deactivated business","description":"Deactivated business with name - Ben.co","business_id":"","date_created":"05\/03\/2024 @ 03:07PM","team_member":"Platform Owner"},{"id":"01hr7f1q9nsc13wp3hh74dmwdj","user_id":"01hr61cgjc5s8srsj9cvkt2szw","event_type":"Activated business","description":"Activated business with name - Ben.co","business_id":"","date_created":"05\/03\/2024 @ 03:07PM","team_member":"Platform Owner"},{"id":"01hr7f1mhetejs4413wg30hnt4","user_id":"01hr61cgjc5s8srsj9cvkt2szw","event_type":"Deactivated business","description":"Deactivated business with name - Ben.co","business_id":"","date_created":"05\/03\/2024 @ 03:07PM","team_member":"Platform Owner"},{"id":"01hr7f1a76b28df0pbckt22zn5","user_id":"01hr61cgjc5s8srsj9cvkt2szw","event_type":"Updated team member status","description":"Updated team member status with email - sultan+144@assurdly.com","business_id":"","date_created":"05\/03\/2024 @ 03:07PM","team_member":"Platform Owner"},{"id":"01hr7f183fdqd4nc7k9vg83bnx","user_id":"01hr61cgjc5s8srsj9cvkt2szw","event_type":"Updated team member status","description":"Updated team member status with email - sultan+144@assurdly.com","business_id":"","date_created":"05\/03\/2024 @ 03:07PM","team_member":"Platform Owner"},{"id":"01hr7f1627fmccz5jf5d8x3sjy","user_id":"01hr61cgjc5s8srsj9cvkt2szw","event_type":"Updated team member","description":"Updated team with email - ","business_id":"","date_created":"05\/03\/2024 @ 03:07PM","team_member":"Platform Owner"}],"pagination":{"current_page":1,"per_page":10,"total":67,"next_page_url":"http:\/\/salary.dev.onepipe.io\/api\/audit?page=2","prev_page_url":null},"message":"Audit trails retrieved successfully"}