{"success":true,"data":[{"id":"01hs8nn7dzrfs18920yhgmyyec","user_id":"01hrnzwq8cjyvjpvxrhbw8tktc","event_type":"Deleted KYB setting","description":"Deleted KYB setting with document name - Certificate of Incorporation","business_id":null,"date_created":"18\/03\/2024 @ 12:37PM","team_member":"Platform Owner"},{"id":"01hs8nn5bg68zycbdce84ry7nk","user_id":"01hrnzwq8cjyvjpvxrhbw8tktc","event_type":"Updated KYB setting","description":"Updated document with name - Certificate of Incorporation","business_id":null,"date_created":"18\/03\/2024 @ 12:37PM","team_member":"Platform Owner"},{"id":"01hs8nmwjresz1w9qnfgrjtryc","user_id":"01hrnzwq8cjyvjpvxrhbw8tktc","event_type":"Created a KYB setting","description":"Created KYB setting with document name - Certificate of Incorporation","business_id":null,"date_created":"18\/03\/2024 @ 12:37PM","team_member":"Platform Owner"},{"id":"01hs8nkgh7eazkvawv3dxnwvst","user_id":"01hrnzwq8cjyvjpvxrhbw8tktc","event_type":"Activated business","description":"Activated business with name - Habeeb12","business_id":null,"date_created":"18\/03\/2024 @ 12:37PM","team_member":"Platform Owner"},{"id":"01hs8nkbh13g93jzxfpet04h2y","user_id":"01hrnzwq8cjyvjpvxrhbw8tktc","event_type":"Blacklisted business","description":"Blacklisted business with name - Habeeb12","business_id":null,"date_created":"18\/03\/2024 @ 12:36PM","team_member":"Platform Owner"},{"id":"01hs8nk71enas70aqb6fz27819","user_id":"01hrnzwq8cjyvjpvxrhbw8tktc","event_type":"Blacklisted business","description":"Blacklisted business with name - Habeeb12","business_id":null,"date_created":"18\/03\/2024 @ 12:36PM","team_member":"Platform Owner"},{"id":"01hs8nk0b31vjf4nq2rtfb4cm2","user_id":"01hrnzwq8cjyvjpvxrhbw8tktc","event_type":"Activated business","description":"Activated business with name - Habeeb12","business_id":null,"date_created":"18\/03\/2024 @ 12:36PM","team_member":"Platform Owner"},{"id":"01hs8njt1v8tgjb94k6x72pez2","user_id":"01hrnzwq8cjyvjpvxrhbw8tktc","event_type":"Deactivated business","description":"Deactivated business with name - Habeeb12","business_id":null,"date_created":"18\/03\/2024 @ 12:36PM","team_member":"Platform Owner"},{"id":"01hs8njjpg4yjet2tftyhe1sb6","user_id":"01hrnzwq8cjyvjpvxrhbw8tktc","event_type":"Activated business","description":"Activated business with name - Habeeb12","business_id":null,"date_created":"18\/03\/2024 @ 12:36PM","team_member":"Platform Owner"},{"id":"01hs8njc8wva05013t7n6bxaae","user_id":"01hrnzwq8cjyvjpvxrhbw8tktc","event_type":"Deactivated business","description":"Deactivated business with name - Habeeb12","business_id":null,"date_created":"18\/03\/2024 @ 12:36PM","team_member":"Platform Owner"}],"pagination":{"current_page":1,"per_page":10,"total":216,"next_page_url":"http:\/\/salary.dev.onepipe.io\/api\/audit?page=2","prev_page_url":null},"message":"Audit trails retrieved successfully"}