{"success":true,"data":[{"id":"01hr593bqfecptnheqhwxd67px","user_id":"01hr4nmzv80v0pz35cwm3ynzyn","event_type":"Updated KYB setting","description":"Updated document with name - Certificate of Incorporation","business_id":"","date_created":"04\/03\/2024 @ 06:45PM","team_member":"Platform Owner"},{"id":"01hr5932t2jd4avztknwyexx4k","user_id":"01hr4nmzv80v0pz35cwm3ynzyn","event_type":"Created a KYB setting","description":"Created KYB setting with document name - Certificate of Incorporation","business_id":"","date_created":"04\/03\/2024 @ 06:44PM","team_member":"Platform Owner"},{"id":"01hr591s8z9ab01m2pc911ssy2","user_id":"01hr4nmzv80v0pz35cwm3ynzyn","event_type":"Blacklisted business","description":"Blacklisted business with name - Assurdly Business 6","business_id":"","date_created":"04\/03\/2024 @ 06:44PM","team_member":"Platform Owner"},{"id":"01hr591fqbdbkbxye4c8yv8at8","user_id":"01hr4nmzv80v0pz35cwm3ynzyn","event_type":"Deactivated business","description":"Deactivated business with name - Assurdly Business 6","business_id":"","date_created":"04\/03\/2024 @ 06:44PM","team_member":"Platform Owner"},{"id":"01hr5916sh0dpv4d7b7zyjb20r","user_id":"01hr4nmzv80v0pz35cwm3ynzyn","event_type":"Deactivated business","description":"Deactivated business with name - Assurdly Business 6","business_id":"","date_created":"04\/03\/2024 @ 06:43PM","team_member":"Platform Owner"},{"id":"01hr590vawg5crzv1gzsfz82jh","user_id":"01hr4nmzv80v0pz35cwm3ynzyn","event_type":"Updated team member status","description":"Updated team member status with email - sultan+910@assurdly.com","business_id":"","date_created":"04\/03\/2024 @ 06:43PM","team_member":"Platform Owner"},{"id":"01hr590s9gk8ytmf6ny4ypgd0b","user_id":"01hr4nmzv80v0pz35cwm3ynzyn","event_type":"Updated team member status","description":"Updated team member status with email - sultan+910@assurdly.com","business_id":"","date_created":"04\/03\/2024 @ 06:43PM","team_member":"Platform Owner"},{"id":"01hr590q7w9rhbnmztvm6j295r","user_id":"01hr4nmzv80v0pz35cwm3ynzyn","event_type":"Updated team member","description":"Updated team with email - ","business_id":"","date_created":"04\/03\/2024 @ 06:43PM","team_member":"Platform Owner"},{"id":"01hr59071d3er7rfm8sg2b7w4p","user_id":"01hr4nmzv80v0pz35cwm3ynzyn","event_type":"Invited team member","description":"Resent invite team member email - sultan+910@assurdly.com","business_id":"","date_created":"04\/03\/2024 @ 06:43PM","team_member":"Platform Owner"},{"id":"01hr5902f83vrd3m2f5bh3gx0d","user_id":"01hr4nmzv80v0pz35cwm3ynzyn","event_type":"Invited team member","description":"Invited team member email - sultan+910@assurdly.com","business_id":"","date_created":"04\/03\/2024 @ 06:43PM","team_member":"Platform Owner"}],"pagination":{"current_page":1,"per_page":10,"total":138,"next_page_url":"http:\/\/salary.dev.onepipe.io\/api\/audit?page=2","prev_page_url":null},"message":"Audit trails retrieved successfully"}