{"success":true,"data":[{"id":"01hsdn4z3kzk5xkanxrk7t5n3p","user_id":"01hrnzwq8cjyvjpvxrhbw8tktc","event_type":"Deleted KYB setting","description":"Deleted KYB setting with document name - Certificate of Incorporation","business_id":null,"date_created":"20\/03\/2024 @ 11:05AM","team_member":"Platform Owner"},{"id":"01hsdn4wrg6a7y0htz97cxgyg1","user_id":"01hrnzwq8cjyvjpvxrhbw8tktc","event_type":"Updated KYB setting","description":"Updated document with name - Certificate of Incorporation","business_id":null,"date_created":"20\/03\/2024 @ 11:05AM","team_member":"Platform Owner"},{"id":"01hsdn4jvf1q6kv375v45bbjey","user_id":"01hrnzwq8cjyvjpvxrhbw8tktc","event_type":"Created a KYB setting","description":"Created KYB setting with document name - Certificate of Incorporation","business_id":null,"date_created":"20\/03\/2024 @ 11:05AM","team_member":"Platform Owner"},{"id":"01hsdn2tftqxw0v35p19696f02","user_id":"01hrnzwq8cjyvjpvxrhbw8tktc","event_type":"Activated business","description":"Activated business with name - Kaysal","business_id":null,"date_created":"20\/03\/2024 @ 11:04AM","team_member":"Platform Owner"},{"id":"01hsdn2kytnn04v6defsm3hk7q","user_id":"01hrnzwq8cjyvjpvxrhbw8tktc","event_type":"Deactivated business","description":"Deactivated business with name - Kaysal","business_id":null,"date_created":"20\/03\/2024 @ 11:03AM","team_member":"Platform Owner"},{"id":"01hsdn2crn9g0j7zd2sp3q65rz","user_id":"01hrnzwq8cjyvjpvxrhbw8tktc","event_type":"Activated business","description":"Activated business with name - Kaysal","business_id":null,"date_created":"20\/03\/2024 @ 11:03AM","team_member":"Platform Owner"},{"id":"01hsdn26aza3na1bt25zswym83","user_id":"01hrnzwq8cjyvjpvxrhbw8tktc","event_type":"Deactivated business","description":"Deactivated business with name - Kaysal","business_id":null,"date_created":"20\/03\/2024 @ 11:03AM","team_member":"Platform Owner"},{"id":"01hsdn1am55j8xdqngqaad4mjs","user_id":"01hrnzwq8cjyvjpvxrhbw8tktc","event_type":"Updated team member status","description":"Updated team member status with email - sultan+799@assurdly.com","business_id":null,"date_created":"20\/03\/2024 @ 11:03AM","team_member":"Platform Owner"},{"id":"01hsdn18c6tkxw7qrcmd2wz3e7","user_id":"01hrnzwq8cjyvjpvxrhbw8tktc","event_type":"Updated team member status","description":"Updated team member status with email - sultan+799@assurdly.com","business_id":null,"date_created":"20\/03\/2024 @ 11:03AM","team_member":"Platform Owner"},{"id":"01hsdn163j081tc5prq5pj4ybd","user_id":"01hrnzwq8cjyvjpvxrhbw8tktc","event_type":"Updated team member","description":"Updated team with email - ","business_id":null,"date_created":"20\/03\/2024 @ 11:03AM","team_member":"Platform Owner"}],"pagination":{"current_page":1,"per_page":10,"total":357,"next_page_url":"http:\/\/salary.dev.onepipe.io\/api\/audit?page=2","prev_page_url":null},"message":"Audit trails retrieved successfully"}