{"success":true,"data":[{"id":"01hsb976hxphnr1vzkqznrgb9k","name":"Tola Dele","first_name":"Tola","last_name":"Dele","email_address":"adelebukky150@gmail.com","phone_number":"2340815751058","employement_date":"Jan 01, 2023","job_title":"Head of Finance","annual_net_salary":"1000000.00","annual_gross_salary":"12000000.00","bank_details_id":"01hsb976q9x52jx8p5xbcmg1mt","virtual_account_details_id":"01hsb977252h9kq6gjyjf26jxk","business_name":"Tinubu Rentals","status":"active","created_at":"19\/03\/2024 @ 12:58PM","bankDetails":{"id":"01hsb976q9x52jx8p5xbcmg1mt","account_name":"OMOTOLA  NAFISAT OLADELE","account_number":"1660001358","bank_name":"Access Bank"},"virtualAccountDetails":{"id":"01hsb977252h9kq6gjyjf26jxk","account_name":"Tola Dele","account_number":"867664389","bank_name":"SUPPORT MICROFINANCE BANK"}},{"id":"01hsb7s4rvgxr9awg02qwz8wtg","name":"Enoch Sam","first_name":"Enoch","last_name":"Sam","email_address":"sam@gmail.com","phone_number":"2349023284899","employement_date":"Mar 11, 2024","job_title":"Organizer","annual_net_salary":"500000.00","annual_gross_salary":"5000.00","bank_details_id":"01hsb7s4yanrysw15hdfsyy1ph","virtual_account_details_id":"01hsb7s590jpy2zkneqcra68tv","business_name":"Insight","status":"active","created_at":"19\/03\/2024 @ 12:33PM","bankDetails":{"id":"01hsb7s4yanrysw15hdfsyy1ph","account_name":"UDOYE  TOBECHUKWU DAVID","account_number":"2112385417","bank_name":"UBA"},"virtualAccountDetails":{"id":"01hsb7s590jpy2zkneqcra68tv","account_name":"Enoch Sam","account_number":"1453022564","bank_name":"SUPPORT MICROFINANCE BANK"}},{"id":"01hsb7qpcgajd0m4b53c38gevw","name":"tobechukwu Udoye","first_name":"tobechukwu","last_name":"Udoye","email_address":"tobechukwu+2@assurdly.com","phone_number":"2349017432574","employement_date":"Mar 12, 2024","job_title":"chefs","annual_net_salary":"1200000.00","annual_gross_salary":"1100000.00","bank_details_id":"01hsb7qphvczbnqzd6fhf547xz","virtual_account_details_id":"01hsb7qpwkyyd8wgf5ywacjzan","business_name":"gabriella.inc","status":"active","created_at":"19\/03\/2024 @ 12:32PM","bankDetails":{"id":"01hsb7qphvczbnqzd6fhf547xz","account_name":"GABRIELLA BUKOLA OLA-THOMAS","account_number":"2004240279","bank_name":"Globus Bank"},"virtualAccountDetails":{"id":"01hsb7qpwkyyd8wgf5ywacjzan","account_name":"tobechukwu Udoye","account_number":"1558920793","bank_name":"SUPPORT MICROFINANCE BANK"}},{"id":"01hsb77km6r206ststb37yys4x","name":"Precious Testing","first_name":"Precious","last_name":"Testing","email_address":"precious.goziemba+1@assurdly.com","phone_number":"2349096543598","employement_date":"Mar 29, 2024","job_title":"Office Assistant","annual_net_salary":"2400000.00","annual_gross_salary":"2400000.00","bank_details_id":"01hsb77ksgmhfpe0q4jjbeedta","virtual_account_details_id":"01hsb77m45zvhx80vskn1wqbpp","business_name":"Precious Testing","status":"active","created_at":"19\/03\/2024 @ 12:23PM","bankDetails":{"id":"01hsb77ksgmhfpe0q4jjbeedta","account_name":"GOZIEMBA  PRECIOUS CHIDIMMA","account_number":"2113537426","bank_name":"UBA"},"virtualAccountDetails":{"id":"01hsb77m45zvhx80vskn1wqbpp","account_name":"Precious Testing","account_number":"2144724606","bank_name":"SUPPORT MICROFINANCE BANK"}},{"id":"01hsb6zqsdm98rdw78v3dzpx70","name":"Jona Wills","first_name":"Jona","last_name":"Wills","email_address":"otenita80@gmail.com","phone_number":"2349137949213","employement_date":"Feb 01, 2024","job_title":"Admin","annual_net_salary":"80000.00","annual_gross_salary":"960000.00","bank_details_id":"01hsb6zqypa768w72889mvcp5y","virtual_account_details_id":"01hsb6zr9aqspgwxsd0wbm0nry","business_name":"Bloom Station","status":"active","created_at":"19\/03\/2024 @ 12:19PM","bankDetails":{"id":"01hsb6zqypa768w72889mvcp5y","account_name":"ita, eyo oten","account_number":"2051790772","bank_name":"KUDA MFB"},"virtualAccountDetails":{"id":"01hsb6zr9aqspgwxsd0wbm0nry","account_name":"Jona Wills","account_number":"1355113972","bank_name":"SUPPORT MICROFINANCE BANK"}},{"id":"01hsb6n8z2a0kzf7p81khcfq9r","name":"Janre jung","first_name":"Janre","last_name":"jung","email_address":"jane@assurdly.com","phone_number":"2340807799008","employement_date":"Mar 01, 2024","job_title":"QA","annual_net_salary":"45656.00","annual_gross_salary":"6000000.00","bank_details_id":"01hsb6n94fs2t48e28w2qnad1v","virtual_account_details_id":"01hsb6n9fhctxjg1kh1jc9c9hn","business_name":"Grow Ltd","status":"active","created_at":"19\/03\/2024 @ 12:13PM","bankDetails":{"id":"01hsb6n94fs2t48e28w2qnad1v","account_name":"PRISCALINE  CHIGOZIRIM UZOR","account_number":"0824612081","bank_name":"Access Bank"},"virtualAccountDetails":{"id":"01hsb6n9fhctxjg1kh1jc9c9hn","account_name":"Janre jung","account_number":"126117199","bank_name":"SUPPORT MICROFINANCE BANK"}},{"id":"01hsb6gf3gcxm08fm556whdfnj","name":"Moses lojhnb","first_name":"Moses","last_name":"lojhnb","email_address":"moses@assurdly.com","phone_number":"2349089009900","employement_date":"Feb 25, 2024","job_title":"QA","annual_net_salary":"590000.00","annual_gross_salary":"5678880.00","bank_details_id":"01hsb6gf8vr2tc5vt66nsp2sha","virtual_account_details_id":"01hsb6gfkk2vx94d4y27q0vm5h","business_name":"Grow Ltd","status":"active","created_at":"19\/03\/2024 @ 12:10PM","bankDetails":{"id":"01hsb6gf8vr2tc5vt66nsp2sha","account_name":"PRISCALINE  CHIGOZIRIM UZOR","account_number":"0773355268","bank_name":"Access Bank"},"virtualAccountDetails":{"id":"01hsb6gfkk2vx94d4y27q0vm5h","account_name":"Moses lojhnb","account_number":"141734460","bank_name":"SUPPORT MICROFINANCE BANK"}},{"id":"01hsb6bx73ytw92vxwvwdjmpev","name":"Jane Doe","first_name":"Jane","last_name":"Doe","email_address":"ioten@yahoo.com","phone_number":"2348160353712","employement_date":"Mar 01, 2024","job_title":"Inventory Officer","annual_net_salary":"100000.00","annual_gross_salary":"1200000.00","bank_details_id":"01hsb6bxcekn2taymwz4x0y3pq","virtual_account_details_id":"01hsb6bxq6ae29wysgyrww677f","business_name":"Bloom Station","status":"active","created_at":"19\/03\/2024 @ 12:08PM","bankDetails":{"id":"01hsb6bxcekn2taymwz4x0y3pq","account_name":"OTEN  EYO ITA","account_number":"0710056562","bank_name":"Access Bank"},"virtualAccountDetails":{"id":"01hsb6bxq6ae29wysgyrww677f","account_name":"Jane Doe","account_number":"2030576006","bank_name":"SUPPORT MICROFINANCE BANK"}},{"id":"01hsb62pzmrpfzncvdg5jbgg45","name":"Moses Sultan","first_name":"Moses","last_name":"Sultan","email_address":"sultan@yopmail.com","phone_number":"2348122390324","employement_date":"Jan 19, 2024","job_title":"fran","annual_net_salary":"2000000.00","annual_gross_salary":"2500000.00","bank_details_id":"01hsb62q4z0z8ww7wt2nqsjcd9","virtual_account_details_id":"01hsb62qfmc33q9htq4k56p10r","business_name":"Frank","status":"active","created_at":"19\/03\/2024 @ 12:03PM","bankDetails":{"id":"01hsb62q4z0z8ww7wt2nqsjcd9","account_name":"ISINKAIYE  ADETUTU OMOYEMI","account_number":"0477948071","bank_name":"GTBank"},"virtualAccountDetails":{"id":"01hsb62qfmc33q9htq4k56p10r","account_name":"Moses Sultan","account_number":"692993451","bank_name":"SUPPORT MICROFINANCE BANK"}},{"id":"01hsb60n51dyjmarpx5fvzv9s3","name":"Moses Mo","first_name":"Moses","last_name":"Mo","email_address":"moses+1QA@assurdly.com","phone_number":"2348173854807","employement_date":"Mar 19, 2024","job_title":"QA Engineer","annual_net_salary":"50000000.00","annual_gross_salary":"50000000.00","bank_details_id":"01hsb60nak6tsmtnygk6f6d34v","virtual_account_details_id":"01hsb60nnf9t8bkysv2k7vpcfy","business_name":"Gee Inc","status":"active","created_at":"19\/03\/2024 @ 12:02PM","bankDetails":{"id":"01hsb60nak6tsmtnygk6f6d34v","account_name":"GWENDOLINE EMIYE UFOT","account_number":"2282191571","bank_name":"Zenith Bank"},"virtualAccountDetails":{"id":"01hsb60nnf9t8bkysv2k7vpcfy","account_name":"Moses Mo","account_number":"1625834813","bank_name":"SUPPORT MICROFINANCE BANK"}}],"pagination":{"current_page":1,"per_page":10,"total":17,"next_page_url":"http:\/\/salary.dev.onepipe.io\/api\/employee?page=2","prev_page_url":null},"message":"List of employees fetched successfully"}