{"success":true,"data":[{"id":"01hsjwvjaydvzjf4syxw3qtew4","user_id":"01hshhrgmbdtfbnf7vg8tfq95d","event_type":"Deleted KYB setting","description":"Deleted KYB setting with document name - Certificate of Incorporation","business_id":null,"date_created":"22\/03\/2024 @ 11:56AM","team_member":"Platform Owner"},{"id":"01hsjwver3w5whbk4zm5ggcf2j","user_id":"01hshhrgmbdtfbnf7vg8tfq95d","event_type":"Updated KYB setting","description":"Updated document with name - Certificate of Incorporation","business_id":null,"date_created":"22\/03\/2024 @ 11:56AM","team_member":"Platform Owner"},{"id":"01hsjwv4ax7ef3rbzwynrxc4rx","user_id":"01hshhrgmbdtfbnf7vg8tfq95d","event_type":"Created a KYB setting","description":"Created KYB setting with document name - Certificate of Incorporation","business_id":null,"date_created":"22\/03\/2024 @ 11:55AM","team_member":"Platform Owner"},{"id":"01hsjws47g05d50n8bz92qqz20","user_id":"01hshhrgmbdtfbnf7vg8tfq95d","event_type":"Activated business","description":"Activated business with name - Assurdly Bus","business_id":null,"date_created":"22\/03\/2024 @ 11:54AM","team_member":"Platform Owner"},{"id":"01hsjwrwwe136nww3916953nye","user_id":"01hshhrgmbdtfbnf7vg8tfq95d","event_type":"Deactivated business","description":"Deactivated business with name - Assurdly Bus","business_id":null,"date_created":"22\/03\/2024 @ 11:54AM","team_member":"Platform Owner"},{"id":"01hsjwrnqycxc1z766gbz5ckz9","user_id":"01hshhrgmbdtfbnf7vg8tfq95d","event_type":"Activated business","description":"Activated business with name - Assurdly Bus","business_id":null,"date_created":"22\/03\/2024 @ 11:54AM","team_member":"Platform Owner"},{"id":"01hsjwreht675nsxrjjr92azf9","user_id":"01hshhrgmbdtfbnf7vg8tfq95d","event_type":"Deactivated business","description":"Deactivated business with name - Assurdly Bus","business_id":null,"date_created":"22\/03\/2024 @ 11:54AM","team_member":"Platform Owner"},{"id":"01hsjwqvdm2kapwdazs5sdrp61","user_id":"01hshhrgmbdtfbnf7vg8tfq95d","event_type":"Updated team member status","description":"Updated team member status with email - sultan+636@assurdly.com","business_id":null,"date_created":"22\/03\/2024 @ 11:54AM","team_member":"Platform Owner"},{"id":"01hsjwqs0r60xccfnaw5zrep40","user_id":"01hshhrgmbdtfbnf7vg8tfq95d","event_type":"Updated team member status","description":"Updated team member status with email - sultan+636@assurdly.com","business_id":null,"date_created":"22\/03\/2024 @ 11:54AM","team_member":"Platform Owner"},{"id":"01hsjwqphge5wascdz5cs3kgbc","user_id":"01hshhrgmbdtfbnf7vg8tfq95d","event_type":"Updated team member","description":"Updated team with email - ","business_id":null,"date_created":"22\/03\/2024 @ 11:54AM","team_member":"Platform Owner"}],"pagination":{"current_page":1,"per_page":10,"total":19,"next_page_url":"http:\/\/salary.dev.onepipe.io\/api\/audit?page=2","prev_page_url":null},"message":"Audit trails retrieved successfully"}