{"success":true,"data":[{"id":"01hr3vyx6e0s7wxewh1aq9vjvj","user_id":"01hqy04dm1szf2kpnz1tfz4hvr","event_type":"Updated KYB setting","description":"updated document with name - Certificate of Incorporation","business_id":"","date_created":"04\/03\/2024 @ 05:36AM","team_member":"Platform Owner"},{"id":"01hr3vyjjwx0n6pwwvmhgea400","user_id":"01hqy04dm1szf2kpnz1tfz4hvr","event_type":"Created a KYB setting","description":"created KYB setting with document name - Certificate of Incorporation","business_id":"","date_created":"04\/03\/2024 @ 05:36AM","team_member":"Platform Owner"},{"id":"01hr3vx9gfe54ckc3zq0y2vx6a","user_id":"01hqy04dm1szf2kpnz1tfz4hvr","event_type":"Blacklisted Business","description":"Blacklisted business with name - Assurdly Business 4","business_id":"","date_created":"04\/03\/2024 @ 05:35AM","team_member":"Platform Owner"},{"id":"01hr3vx7a43k36s9wtcfyrdr37","user_id":"01hqy04dm1szf2kpnz1tfz4hvr","event_type":"Activated Business","description":"Activated business with name - Assurdly Business 4","business_id":"","date_created":"04\/03\/2024 @ 05:35AM","team_member":"Platform Owner"},{"id":"01hr3vx4j7q1kh6vqnqq2fgkjw","user_id":"01hqy04dm1szf2kpnz1tfz4hvr","event_type":"Deactivated Business","description":"Deactivated business with name - Assurdly Business 4","business_id":"","date_created":"04\/03\/2024 @ 05:35AM","team_member":"Platform Owner"},{"id":"01hr3vx2bty4xsa3dbaspg828p","user_id":"01hqy04dm1szf2kpnz1tfz4hvr","event_type":"Activated Business","description":"Activated business with name - Assurdly Business 4","business_id":"","date_created":"04\/03\/2024 @ 05:35AM","team_member":"Platform Owner"},{"id":"01hr3vwzgqy97q2kjxhnfydgbz","user_id":"01hqy04dm1szf2kpnz1tfz4hvr","event_type":"Deactivated Business","description":"Deactivated business with name - Assurdly Business 4","business_id":"","date_created":"04\/03\/2024 @ 05:35AM","team_member":"Platform Owner"},{"id":"01hr3vwkx0adj5n115g5zagg97","user_id":"01hqy04dm1szf2kpnz1tfz4hvr","event_type":"Updated team member status","description":"Updated team member status with email - sultan+327@assurdly.com","business_id":"","date_created":"04\/03\/2024 @ 05:34AM","team_member":"Platform Owner"},{"id":"01hr3vwhxac0g7k9jvmge1n79d","user_id":"01hqy04dm1szf2kpnz1tfz4hvr","event_type":"Updated team member status","description":"Updated team member status with email - sultan+327@assurdly.com","business_id":"","date_created":"04\/03\/2024 @ 05:34AM","team_member":"Platform Owner"},{"id":"01hr3vwfwb1yf2y4wh45bjg737","user_id":"01hqy04dm1szf2kpnz1tfz4hvr","event_type":"Updated team member","description":"updated team with email - ","business_id":"","date_created":"04\/03\/2024 @ 05:34AM","team_member":"Platform Owner"}],"pagination":{"current_page":1,"per_page":10,"total":20,"next_page_url":"http:\/\/salary.dev.onepipe.io\/api\/audit?page=2","prev_page_url":null},"message":"Audit trails retrieved successfully"}