{"success":true,"data":[{"id":"01hqnfmcg2gh4apzjkg0cqhnxn","user_id":"01hq3781r6qm4ney4aaxtfk065","event_type":"Updated kyb-setting","description":"updated document with name - Certificate of Incorporation","business_id":"","date_created":"27\/02\/2024 @ 03:31PM","team_member":"Platform Owner"},{"id":"01hqnfm4nckq179xf6fgrwst6f","user_id":"01hq3781r6qm4ney4aaxtfk065","event_type":"Created a kyb-setting","description":"created kyb setting with document-name - Certificate of Incorporation","business_id":"","date_created":"27\/02\/2024 @ 03:31PM","team_member":"Platform Owner"},{"id":"01hqnfk5pwfvjkrxr24a0rx4vs","user_id":"01hq3781r6qm4ney4aaxtfk065","event_type":"Deactivated Business","description":"Deactivated business with name - Habeeb13","business_id":"","date_created":"27\/02\/2024 @ 03:30PM","team_member":"Platform Owner"},{"id":"01hqnfk3pr585453n0xr3xr04b","user_id":"01hq3781r6qm4ney4aaxtfk065","event_type":"Deactivated Business","description":"Deactivated business with name - Habeeb13","business_id":"","date_created":"27\/02\/2024 @ 03:30PM","team_member":"Platform Owner"},{"id":"01hqnfk1ncytmrpe4vn14rt1jw","user_id":"01hq3781r6qm4ney4aaxtfk065","event_type":"Activated Business","description":"Activated business with name - Habeeb13","business_id":"","date_created":"27\/02\/2024 @ 03:30PM","team_member":"Platform Owner"},{"id":"01hqnfjz5gb22swf2m5hbqvfc7","user_id":"01hq3781r6qm4ney4aaxtfk065","event_type":"Activated Business","description":"Activated business with name - Habeeb13","business_id":"","date_created":"27\/02\/2024 @ 03:30PM","team_member":"Platform Owner"},{"id":"01hqnfjj4vx259qdrp7tem2xx0","user_id":"01hq3781r6qm4ney4aaxtfk065","event_type":"Updated team member status","description":"Updated team member status with email - sultan+678@assurdly.com","business_id":"","date_created":"27\/02\/2024 @ 03:30PM","team_member":"Platform Owner"},{"id":"01hqnfjgbs8n82g1hs892adfan","user_id":"01hq3781r6qm4ney4aaxtfk065","event_type":"Updated team member status","description":"Updated team member status with email - sultan+678@assurdly.com","business_id":"","date_created":"27\/02\/2024 @ 03:30PM","team_member":"Platform Owner"},{"id":"01hqnfj1nfxdrjrda1vf2vgmtw","user_id":"01hq3781r6qm4ney4aaxtfk065","event_type":"Invited team member","description":"Resent Invite team member email - sultan+678@assurdly.com","business_id":"","date_created":"27\/02\/2024 @ 03:30PM","team_member":"Platform Owner"},{"id":"01hqnfhvxqeh9p3qs9wmnb3rvy","user_id":"01hq3781r6qm4ney4aaxtfk065","event_type":"Invited team member","description":"Invited team member email - sultan+678@assurdly.com","business_id":"","date_created":"27\/02\/2024 @ 03:29PM","team_member":"Platform Owner"}],"pagination":{"current_page":1,"per_page":10,"total":793,"next_page_url":"http:\/\/salary.dev.onepipe.io\/api\/audit?page=2","prev_page_url":null},"message":"Audit trails retrieved successfully"}