{"success":true,"data":[{"id":"01hr4rwfja8qj4k9qr5btk1hty","user_id":"01hr4nmzv80v0pz35cwm3ynzyn","event_type":"Updated KYB setting","description":"Updated document with name - Certificate of Incorporation","business_id":"","date_created":"04\/03\/2024 @ 02:01PM","team_member":"Platform Owner"},{"id":"01hr4rw702hbddxh3mynh2rk01","user_id":"01hr4nmzv80v0pz35cwm3ynzyn","event_type":"Created a KYB setting","description":"Created KYB setting with document name - Certificate of Incorporation","business_id":"","date_created":"04\/03\/2024 @ 02:01PM","team_member":"Platform Owner"},{"id":"01hr4rtyx45xdn28rqq9kykn0n","user_id":"01hr4nmzv80v0pz35cwm3ynzyn","event_type":"Blacklisted business","description":"Blacklisted business with name - Testar Company and Sons","business_id":"","date_created":"04\/03\/2024 @ 02:00PM","team_member":"Platform Owner"},{"id":"01hr4rtwr7yckdbwqzn8e9nh8n","user_id":"01hr4nmzv80v0pz35cwm3ynzyn","event_type":"Activated business","description":"Activated business with name - Testar Company and Sons","business_id":"","date_created":"04\/03\/2024 @ 02:00PM","team_member":"Platform Owner"},{"id":"01hr4rtt344bjnxcb2fqnppcac","user_id":"01hr4nmzv80v0pz35cwm3ynzyn","event_type":"Deactivated business","description":"Deactivated business with name - Testar Company and Sons","business_id":"","date_created":"04\/03\/2024 @ 02:00PM","team_member":"Platform Owner"},{"id":"01hr4rtqy3h8mfk4gkanx92391","user_id":"01hr4nmzv80v0pz35cwm3ynzyn","event_type":"Activated business","description":"Activated business with name - Testar Company and Sons","business_id":"","date_created":"04\/03\/2024 @ 02:00PM","team_member":"Platform Owner"},{"id":"01hr4rtn8nw43nfb60cw4ww0ms","user_id":"01hr4nmzv80v0pz35cwm3ynzyn","event_type":"Deactivated business","description":"Deactivated business with name - Testar Company and Sons","business_id":"","date_created":"04\/03\/2024 @ 02:00PM","team_member":"Platform Owner"},{"id":"01hr4rtaft3n20h6546kzp8hjt","user_id":"01hr4nmzv80v0pz35cwm3ynzyn","event_type":"Updated team member status","description":"Updated team member status with email - sultan+260@assurdly.com","business_id":"","date_created":"04\/03\/2024 @ 02:00PM","team_member":"Platform Owner"},{"id":"01hr4rt8emhmd4p12x8ajwyhg8","user_id":"01hr4nmzv80v0pz35cwm3ynzyn","event_type":"Updated team member status","description":"Updated team member status with email - sultan+260@assurdly.com","business_id":"","date_created":"04\/03\/2024 @ 02:00PM","team_member":"Platform Owner"},{"id":"01hr4rt6gfq8jcmcckc24mg56j","user_id":"01hr4nmzv80v0pz35cwm3ynzyn","event_type":"Updated team member","description":"Updated team with email - ","business_id":"","date_created":"04\/03\/2024 @ 02:00PM","team_member":"Platform Owner"}],"pagination":{"current_page":1,"per_page":10,"total":22,"next_page_url":"http:\/\/salary.dev.onepipe.io\/api\/audit?page=2","prev_page_url":null},"message":"Audit trails retrieved successfully"}