{"success":true,"data":[{"id":"01hqnder4d7sswq9nnrykgkwmq","user_id":"01hq3781r6qm4ney4aaxtfk065","event_type":"Updated kyb-setting","description":"updated document with name - Certificate of Incorporation","business_id":"","date_created":"27\/02\/2024 @ 02:53PM","team_member":"Platform Owner"},{"id":"01hqndeg34b7wrsexbst04s8sr","user_id":"01hq3781r6qm4ney4aaxtfk065","event_type":"Created a kyb-setting","description":"created kyb setting with document-name - Certificate of Incorporation","business_id":"","date_created":"27\/02\/2024 @ 02:53PM","team_member":"Platform Owner"},{"id":"01hqnddf68884z5vsqzfh5gn72","user_id":"01hq3781r6qm4ney4aaxtfk065","event_type":"Deactivated Business","description":"Deactivated business with name - Habeeb13","business_id":"","date_created":"27\/02\/2024 @ 02:52PM","team_member":"Platform Owner"},{"id":"01hqnddd3rpybh907z6ggfm3mm","user_id":"01hq3781r6qm4ney4aaxtfk065","event_type":"Deactivated Business","description":"Deactivated business with name - Habeeb13","business_id":"","date_created":"27\/02\/2024 @ 02:52PM","team_member":"Platform Owner"},{"id":"01hqnddb225ck9gta94bnnsfce","user_id":"01hq3781r6qm4ney4aaxtfk065","event_type":"Activated Business","description":"Activated business with name - Habeeb13","business_id":"","date_created":"27\/02\/2024 @ 02:52PM","team_member":"Platform Owner"},{"id":"01hqndd8g0107dn8mch54hmt6f","user_id":"01hq3781r6qm4ney4aaxtfk065","event_type":"Activated Business","description":"Activated business with name - Habeeb13","business_id":"","date_created":"27\/02\/2024 @ 02:52PM","team_member":"Platform Owner"},{"id":"01hqndct7vqkjgwas5837jmvzw","user_id":"01hq3781r6qm4ney4aaxtfk065","event_type":"Updated team member status","description":"Updated team member status with email - sultan+352@assurdly.com","business_id":"","date_created":"27\/02\/2024 @ 02:52PM","team_member":"Platform Owner"},{"id":"01hqndcraprr11qxa74kq8w1tn","user_id":"01hq3781r6qm4ney4aaxtfk065","event_type":"Updated team member status","description":"Updated team member status with email - sultan+352@assurdly.com","business_id":"","date_created":"27\/02\/2024 @ 02:52PM","team_member":"Platform Owner"},{"id":"01hqndcax4eczwrcsppnae63ms","user_id":"01hq3781r6qm4ney4aaxtfk065","event_type":"Invited team member","description":"Resent Invite team member email - sultan+352@assurdly.com","business_id":"","date_created":"27\/02\/2024 @ 02:52PM","team_member":"Platform Owner"},{"id":"01hqndc6m52gdqbgk2bar9bqf7","user_id":"01hq3781r6qm4ney4aaxtfk065","event_type":"Invited team member","description":"Invited team member email - sultan+352@assurdly.com","business_id":"","date_created":"27\/02\/2024 @ 02:51PM","team_member":"Platform Owner"}],"pagination":{"current_page":1,"per_page":10,"total":778,"next_page_url":"http:\/\/salary.dev.onepipe.io\/api\/audit?page=2","prev_page_url":null},"message":"Audit trails retrieved successfully"}