{"success":true,"data":[{"id":"01hqttjfdrmq33rzmrksxk9yec","user_id":"01hqs2xz09zwykvx6v0f6v4e5x","event_type":"Updated kyb-setting","description":"updated document with name - Certificate of Incorporation","business_id":"","date_created":"29\/02\/2024 @ 05:18PM","team_member":"Platform Owner"},{"id":"01hqttj6t334mpcs889njzgrmj","user_id":"01hqs2xz09zwykvx6v0f6v4e5x","event_type":"Created a kyb-setting","description":"created kyb setting with document-name - Certificate of Incorporation","business_id":"","date_created":"29\/02\/2024 @ 05:18PM","team_member":"Platform Owner"},{"id":"01hqtth20j4y40agch48886am3","user_id":"01hqs2xz09zwykvx6v0f6v4e5x","event_type":"Blacklisted Business","description":"Blacklisted business with name - Habeeb12","business_id":"","date_created":"29\/02\/2024 @ 05:17PM","team_member":"Platform Owner"},{"id":"01hqttgzvzc1g6kanfg1k6qd12","user_id":"01hqs2xz09zwykvx6v0f6v4e5x","event_type":"Activated Business","description":"Activated business with name - Habeeb12","business_id":"","date_created":"29\/02\/2024 @ 05:17PM","team_member":"Platform Owner"},{"id":"01hqttgx76j9nymw0snjqgdmqq","user_id":"01hqs2xz09zwykvx6v0f6v4e5x","event_type":"Deactivated Business","description":"Deactivated business with name - Habeeb12","business_id":"","date_created":"29\/02\/2024 @ 05:17PM","team_member":"Platform Owner"},{"id":"01hqttgv24rpk2qvg2b2kskn7r","user_id":"01hqs2xz09zwykvx6v0f6v4e5x","event_type":"Activated Business","description":"Activated business with name - Habeeb12","business_id":"","date_created":"29\/02\/2024 @ 05:17PM","team_member":"Platform Owner"},{"id":"01hqttgrdhaxrgjjyms2wezwg6","user_id":"01hqs2xz09zwykvx6v0f6v4e5x","event_type":"Deactivated Business","description":"Deactivated business with name - Habeeb12","business_id":"","date_created":"29\/02\/2024 @ 05:17PM","team_member":"Platform Owner"},{"id":"01hqttgebgzt0g2d6gzqd98q9g","user_id":"01hqs2xz09zwykvx6v0f6v4e5x","event_type":"Updated team member status","description":"Updated team member status with email - sultan+249@assurdly.com","business_id":"","date_created":"29\/02\/2024 @ 05:17PM","team_member":"Platform Owner"},{"id":"01hqttgcc2pjd02913bmy233d6","user_id":"01hqs2xz09zwykvx6v0f6v4e5x","event_type":"Updated team member status","description":"Updated team member status with email - sultan+249@assurdly.com","business_id":"","date_created":"29\/02\/2024 @ 05:17PM","team_member":"Platform Owner"},{"id":"01hqttgads8eh1yw5fc6kvz2d3","user_id":"01hqs2xz09zwykvx6v0f6v4e5x","event_type":"Updated team member","description":"updated team with email - ","business_id":"","date_created":"29\/02\/2024 @ 05:17PM","team_member":"Platform Owner"}],"pagination":{"current_page":1,"per_page":10,"total":58,"next_page_url":"http:\/\/salary.dev.onepipe.io\/api\/audit?page=2","prev_page_url":null},"message":"Audit trails retrieved successfully"}