{"success":true,"data":[{"id":"01hqjxcz3aj7ye8s1wamf6geym","user_id":"01hq3781r6qm4ney4aaxtfk065","event_type":"Created role","description":"created role with name - Regional","business_id":null,"date_created":"26\/02\/2024 @ 03:34PM","team_member":"Platform Owner"},{"id":"01hqjez88k52jvgmeftkxr5hh2","user_id":"01hq3781r6qm4ney4aaxtfk065","event_type":"Created role","description":"created role with name - National","business_id":null,"date_created":"26\/02\/2024 @ 11:22AM","team_member":"Platform Owner"},{"id":"01hqjenfje08pmbax37baehexx","user_id":"01hq3781r6qm4ney4aaxtfk065","event_type":"Created role","description":"created role with name - Central","business_id":null,"date_created":"26\/02\/2024 @ 11:16AM","team_member":"Platform Owner"},{"id":"01hqjeat0ft72bzdew4hgsxcka","user_id":"01hq3781r6qm4ney4aaxtfk065","event_type":"Created role","description":"created role with name - Global","business_id":null,"date_created":"26\/02\/2024 @ 11:10AM","team_member":"Platform Owner"},{"id":"01hqapg9bbw7qb70fjamhjwg5q","user_id":"01hq3781r6qm4ney4aaxtfk065","event_type":"Created role","description":"created role with name - Dynamic","business_id":null,"date_created":"23\/02\/2024 @ 10:59AM","team_member":"Platform Owner"},{"id":"01hqap5w32vj3bw5ne6x3h12s6","user_id":"01hq3781r6qm4ney4aaxtfk065","event_type":"Created role","description":"created role with name - Principal","business_id":null,"date_created":"23\/02\/2024 @ 10:54AM","team_member":"Platform Owner"},{"id":"01hqanhwmzne6v7amx3hm4yn8w","user_id":"01hq3781r6qm4ney4aaxtfk065","event_type":"Created role","description":"created role with name - Future","business_id":null,"date_created":"23\/02\/2024 @ 10:43AM","team_member":"Platform Owner"},{"id":"01hqan8cx21j01pxnd902arcg6","user_id":"01hq3781r6qm4ney4aaxtfk065","event_type":"Created role","description":"created role with name - National","business_id":null,"date_created":"23\/02\/2024 @ 10:38AM","team_member":"Platform Owner"},{"id":"01hqamy4jfrqfe6y56btjq6pvn","user_id":"01hq3781r6qm4ney4aaxtfk065","event_type":"Created role","description":"created role with name - Principal","business_id":null,"date_created":"23\/02\/2024 @ 10:32AM","team_member":"Platform Owner"},{"id":"01hqammbkbmm3bp87scja79c8p","user_id":"01hq3781r6qm4ney4aaxtfk065","event_type":"Created role","description":"created role with name - Investor","business_id":null,"date_created":"23\/02\/2024 @ 10:27AM","team_member":"Platform Owner"}],"pagination":{"current_page":1,"per_page":10,"total":32,"next_page_url":"http:\/\/salary.dev.onepipe.io\/api\/audit?page=2","prev_page_url":null},"message":"Audit trails retrieved successfully"}