{"success":true,"data":[{"id":"01hqra6b3jcwxjr3wa7t6cp323","user_id":"01hq3781r6qm4ney4aaxtfk065","event_type":"Updated kyb-setting","description":"updated document with name - Certificate of Incorporation","business_id":"","date_created":"28\/02\/2024 @ 05:54PM","team_member":"Platform Owner"},{"id":"01hqra61zx5cq2b6snf7k96c47","user_id":"01hq3781r6qm4ney4aaxtfk065","event_type":"Created a kyb-setting","description":"created kyb setting with document-name - Certificate of Incorporation","business_id":"","date_created":"28\/02\/2024 @ 05:53PM","team_member":"Platform Owner"},{"id":"01hqra4xgs2z28db0ca18cwj6b","user_id":"01hq3781r6qm4ney4aaxtfk065","event_type":"Blacklisted Business","description":"Blacklisted business with name - Habeeb13","business_id":"","date_created":"28\/02\/2024 @ 05:53PM","team_member":"Platform Owner"},{"id":"01hqra4v9s1f18v1kdttq017b2","user_id":"01hq3781r6qm4ney4aaxtfk065","event_type":"Deactivated Business","description":"Deactivated business with name - Habeeb13","business_id":"","date_created":"28\/02\/2024 @ 05:53PM","team_member":"Platform Owner"},{"id":"01hqra4s3aga1qpzznmy3f2amy","user_id":"01hq3781r6qm4ney4aaxtfk065","event_type":"Deactivated Business","description":"Deactivated business with name - Habeeb13","business_id":"","date_created":"28\/02\/2024 @ 05:53PM","team_member":"Platform Owner"},{"id":"01hqra4pwqv33ws7k74wp30avr","user_id":"01hq3781r6qm4ney4aaxtfk065","event_type":"Activated Business","description":"Activated business with name - Habeeb13","business_id":"","date_created":"28\/02\/2024 @ 05:53PM","team_member":"Platform Owner"},{"id":"01hqra4m5jkmsq5free72f0z4n","user_id":"01hq3781r6qm4ney4aaxtfk065","event_type":"Activated Business","description":"Activated business with name - Habeeb13","business_id":"","date_created":"28\/02\/2024 @ 05:53PM","team_member":"Platform Owner"},{"id":"01hqra46ct7x2f1d2ker4qjpjx","user_id":"01hq3781r6qm4ney4aaxtfk065","event_type":"Updated team member status","description":"Updated team member status with email - sultan+661@assurdly.com","business_id":"","date_created":"28\/02\/2024 @ 05:52PM","team_member":"Platform Owner"},{"id":"01hqra44a9apcza9b3d0s2q7qp","user_id":"01hq3781r6qm4ney4aaxtfk065","event_type":"Updated team member status","description":"Updated team member status with email - sultan+661@assurdly.com","business_id":"","date_created":"28\/02\/2024 @ 05:52PM","team_member":"Platform Owner"},{"id":"01hqra428yvck8wxsz4yhacx84","user_id":"01hq3781r6qm4ney4aaxtfk065","event_type":"Updated team member","description":"updated team with email - ","business_id":"","date_created":"28\/02\/2024 @ 05:52PM","team_member":"Platform Owner"}],"pagination":{"current_page":1,"per_page":10,"total":966,"next_page_url":"http:\/\/salary.dev.onepipe.io\/api\/audit?page=2","prev_page_url":null},"message":"Audit trails retrieved successfully"}