{"success":true,"data":[{"id":"01hsvanqj4dbd6cxmz120ns9zh","user_id":"01hshhrgmbdtfbnf7vg8tfq95d","event_type":"Deleted KYB setting","description":"Deleted KYB setting with document name - Certificate of Incorporation","business_id":null,"date_created":"25\/03\/2024 @ 06:31PM","team_member":"Platform Owner"},{"id":"01hsvannc7azw71zzatb60s01x","user_id":"01hshhrgmbdtfbnf7vg8tfq95d","event_type":"Updated KYB setting","description":"Updated document with name - Certificate of Incorporation","business_id":null,"date_created":"25\/03\/2024 @ 06:31PM","team_member":"Platform Owner"},{"id":"01hsvanc1qsbwy7rkgq1txkvf1","user_id":"01hshhrgmbdtfbnf7vg8tfq95d","event_type":"Created a KYB setting","description":"Created KYB setting with document name - Certificate of Incorporation","business_id":null,"date_created":"25\/03\/2024 @ 06:31PM","team_member":"Platform Owner"},{"id":"01hsvakab5b5wss26zznekc7q5","user_id":"01hshhrgmbdtfbnf7vg8tfq95d","event_type":"Activated business","description":"Activated business with name - Mohammed HQ","business_id":null,"date_created":"25\/03\/2024 @ 06:30PM","team_member":"Platform Owner"},{"id":"01hsvak4jbf7bwwaw2jg3rz8mp","user_id":"01hshhrgmbdtfbnf7vg8tfq95d","event_type":"Deactivated business","description":"Deactivated business with name - Mohammed HQ","business_id":null,"date_created":"25\/03\/2024 @ 06:30PM","team_member":"Platform Owner"},{"id":"01hsvajxnehqknd1eqehhzctp2","user_id":"01hshhrgmbdtfbnf7vg8tfq95d","event_type":"Activated business","description":"Activated business with name - Mohammed HQ","business_id":null,"date_created":"25\/03\/2024 @ 06:30PM","team_member":"Platform Owner"},{"id":"01hsvajrxz031v0db4mtksrkwy","user_id":"01hshhrgmbdtfbnf7vg8tfq95d","event_type":"Deactivated business","description":"Deactivated business with name - Mohammed HQ","business_id":null,"date_created":"25\/03\/2024 @ 06:29PM","team_member":"Platform Owner"},{"id":"01hsvaj5vpy77trs9xpq5wv2zn","user_id":"01hshhrgmbdtfbnf7vg8tfq95d","event_type":"Updated team member status","description":"Updated team member status with email - sultan+108@assurdly.com","business_id":null,"date_created":"25\/03\/2024 @ 06:29PM","team_member":"Platform Owner"},{"id":"01hsvaj3sv61p9zt0fbsc3cvsm","user_id":"01hshhrgmbdtfbnf7vg8tfq95d","event_type":"Updated team member status","description":"Updated team member status with email - sultan+108@assurdly.com","business_id":null,"date_created":"25\/03\/2024 @ 06:29PM","team_member":"Platform Owner"},{"id":"01hsvaj1m7bzpaxzqdtp1jc1tj","user_id":"01hshhrgmbdtfbnf7vg8tfq95d","event_type":"Updated team member","description":"Updated team with email - ","business_id":null,"date_created":"25\/03\/2024 @ 06:29PM","team_member":"Platform Owner"}],"pagination":{"current_page":1,"per_page":10,"total":142,"next_page_url":"http:\/\/salary.dev.onepipe.io\/api\/audit?page=2","prev_page_url":null},"message":"Audit trails retrieved successfully"}