{"success":true,"data":[{"id":"01hr3w86jkbthd4yae87mct8b0","user_id":"01hqy04dm1szf2kpnz1tfz4hvr","event_type":"Updated KYB setting","description":"updated document with name - Certificate of Incorporation","business_id":"","date_created":"04\/03\/2024 @ 05:41AM","team_member":"Platform Owner"},{"id":"01hr3w7xjvs4aeczrhdje78414","user_id":"01hqy04dm1szf2kpnz1tfz4hvr","event_type":"Created a KYB setting","description":"created KYB setting with document name - Certificate of Incorporation","business_id":"","date_created":"04\/03\/2024 @ 05:41AM","team_member":"Platform Owner"},{"id":"01hr3w6phpb9c7rm363mjs12gw","user_id":"01hqy04dm1szf2kpnz1tfz4hvr","event_type":"Blacklisted Business","description":"Blacklisted business with name - Assurdly Business 4","business_id":"","date_created":"04\/03\/2024 @ 05:40AM","team_member":"Platform Owner"},{"id":"01hr3w6mcj3cm479xxvxmnt74d","user_id":"01hqy04dm1szf2kpnz1tfz4hvr","event_type":"Activated Business","description":"Activated business with name - Assurdly Business 4","business_id":"","date_created":"04\/03\/2024 @ 05:40AM","team_member":"Platform Owner"},{"id":"01hr3w6hqjmrh19wnmf72mjwph","user_id":"01hqy04dm1szf2kpnz1tfz4hvr","event_type":"Deactivated Business","description":"Deactivated business with name - Assurdly Business 4","business_id":"","date_created":"04\/03\/2024 @ 05:40AM","team_member":"Platform Owner"},{"id":"01hr3w6fk3xctb91pter0snq6f","user_id":"01hqy04dm1szf2kpnz1tfz4hvr","event_type":"Activated Business","description":"Activated business with name - Assurdly Business 4","business_id":"","date_created":"04\/03\/2024 @ 05:40AM","team_member":"Platform Owner"},{"id":"01hr3w6cyh5hgxzm250ejv3br3","user_id":"01hqy04dm1szf2kpnz1tfz4hvr","event_type":"Deactivated Business","description":"Deactivated business with name - Assurdly Business 4","business_id":"","date_created":"04\/03\/2024 @ 05:40AM","team_member":"Platform Owner"},{"id":"01hr3w62qtxhjq98kt89vdzwwp","user_id":"01hqy04dm1szf2kpnz1tfz4hvr","event_type":"Updated team member status","description":"Updated team member status with email - sultan+987@assurdly.com","business_id":"","date_created":"04\/03\/2024 @ 05:40AM","team_member":"Platform Owner"},{"id":"01hr3w609ax307temqvyagr0vx","user_id":"01hqy04dm1szf2kpnz1tfz4hvr","event_type":"Updated team member status","description":"Updated team member status with email - sultan+987@assurdly.com","business_id":"","date_created":"04\/03\/2024 @ 05:40AM","team_member":"Platform Owner"},{"id":"01hr3w5xa8vf0msreyv123beqk","user_id":"01hqy04dm1szf2kpnz1tfz4hvr","event_type":"Updated team member","description":"updated team with email - ","business_id":"","date_created":"04\/03\/2024 @ 05:40AM","team_member":"Platform Owner"}],"pagination":{"current_page":1,"per_page":10,"total":38,"next_page_url":"http:\/\/salary.dev.onepipe.io\/api\/audit?page=2","prev_page_url":null},"message":"Audit trails retrieved successfully"}