{"success":true,"data":[{"id":"01hsv5xp8y25370r1yh2xw9wze","user_id":"01hshhrgmbdtfbnf7vg8tfq95d","event_type":"Deleted KYB setting","description":"Deleted KYB setting with document name - Certificate of Incorporation","business_id":null,"date_created":"25\/03\/2024 @ 05:08PM","team_member":"Platform Owner"},{"id":"01hsv5xkxbxep5aadbfvp961dw","user_id":"01hshhrgmbdtfbnf7vg8tfq95d","event_type":"Updated KYB setting","description":"Updated document with name - Certificate of Incorporation","business_id":null,"date_created":"25\/03\/2024 @ 05:08PM","team_member":"Platform Owner"},{"id":"01hsv5xapdpvk39awvqf602605","user_id":"01hshhrgmbdtfbnf7vg8tfq95d","event_type":"Created a KYB setting","description":"Created KYB setting with document name - Certificate of Incorporation","business_id":null,"date_created":"25\/03\/2024 @ 05:08PM","team_member":"Platform Owner"},{"id":"01hsv5vh4kn1v8a9epz1f3t78c","user_id":"01hshhrgmbdtfbnf7vg8tfq95d","event_type":"Activated business","description":"Activated business with name - Assurdly QAs","business_id":null,"date_created":"25\/03\/2024 @ 05:07PM","team_member":"Platform Owner"},{"id":"01hsv5vbcq0a2cj1yz2qpvk063","user_id":"01hshhrgmbdtfbnf7vg8tfq95d","event_type":"Deactivated business","description":"Deactivated business with name - Assurdly QAs","business_id":null,"date_created":"25\/03\/2024 @ 05:07PM","team_member":"Platform Owner"},{"id":"01hsv5v57b0z4t64tv22h3r4y0","user_id":"01hshhrgmbdtfbnf7vg8tfq95d","event_type":"Activated business","description":"Activated business with name - Assurdly QAs","business_id":null,"date_created":"25\/03\/2024 @ 05:07PM","team_member":"Platform Owner"},{"id":"01hsv5v0fqy88tg7kz3834zav8","user_id":"01hshhrgmbdtfbnf7vg8tfq95d","event_type":"Deactivated business","description":"Deactivated business with name - Assurdly QAs","business_id":null,"date_created":"25\/03\/2024 @ 05:07PM","team_member":"Platform Owner"},{"id":"01hsv5tdqdr9xbmnpw292zgtj2","user_id":"01hshhrgmbdtfbnf7vg8tfq95d","event_type":"Updated team member status","description":"Updated team member status with email - sultan+182@assurdly.com","business_id":null,"date_created":"25\/03\/2024 @ 05:06PM","team_member":"Platform Owner"},{"id":"01hsv5tbnekqdm1r2j7g4svszw","user_id":"01hshhrgmbdtfbnf7vg8tfq95d","event_type":"Updated team member status","description":"Updated team member status with email - sultan+182@assurdly.com","business_id":null,"date_created":"25\/03\/2024 @ 05:06PM","team_member":"Platform Owner"},{"id":"01hsv5t9dm5br4vgekb82e7qmz","user_id":"01hshhrgmbdtfbnf7vg8tfq95d","event_type":"Updated team member","description":"Updated team with email - ","business_id":null,"date_created":"25\/03\/2024 @ 05:06PM","team_member":"Platform Owner"}],"pagination":{"current_page":1,"per_page":10,"total":107,"next_page_url":"http:\/\/salary.dev.onepipe.io\/api\/audit?page=2","prev_page_url":null},"message":"Audit trails retrieved successfully"}