{"success":true,"data":[{"id":"01hqred8ca1cb9f19c6pav5evy","user_id":"01hq3781r6qm4ney4aaxtfk065","event_type":"Updated kyb-setting","description":"updated document with name - Certificate of Incorporation","business_id":"","date_created":"28\/02\/2024 @ 07:07PM","team_member":"Platform Owner"},{"id":"01hqreczvqbv73wd5nt74t2eb2","user_id":"01hq3781r6qm4ney4aaxtfk065","event_type":"Created a kyb-setting","description":"created kyb setting with document-name - Certificate of Incorporation","business_id":"","date_created":"28\/02\/2024 @ 07:07PM","team_member":"Platform Owner"},{"id":"01hqrebx5p999mpbrhaf2tc13m","user_id":"01hq3781r6qm4ney4aaxtfk065","event_type":"Blacklisted Business","description":"Blacklisted business with name - Habeeb13","business_id":"","date_created":"28\/02\/2024 @ 07:06PM","team_member":"Platform Owner"},{"id":"01hqrebv1apa13qj5cp75v1cft","user_id":"01hq3781r6qm4ney4aaxtfk065","event_type":"Deactivated Business","description":"Deactivated business with name - Habeeb13","business_id":"","date_created":"28\/02\/2024 @ 07:06PM","team_member":"Platform Owner"},{"id":"01hqrebrwha4avg9y05mxjctvw","user_id":"01hq3781r6qm4ney4aaxtfk065","event_type":"Deactivated Business","description":"Deactivated business with name - Habeeb13","business_id":"","date_created":"28\/02\/2024 @ 07:06PM","team_member":"Platform Owner"},{"id":"01hqrebpr9rfbsa924aw00wt2g","user_id":"01hq3781r6qm4ney4aaxtfk065","event_type":"Activated Business","description":"Activated business with name - Habeeb13","business_id":"","date_created":"28\/02\/2024 @ 07:06PM","team_member":"Platform Owner"},{"id":"01hqrebm4a21s80369ypj3z0fq","user_id":"01hq3781r6qm4ney4aaxtfk065","event_type":"Activated Business","description":"Activated business with name - Habeeb13","business_id":"","date_created":"28\/02\/2024 @ 07:06PM","team_member":"Platform Owner"},{"id":"01hqreb6vbtwr8vqzhkcbx8p20","user_id":"01hq3781r6qm4ney4aaxtfk065","event_type":"Updated team member status","description":"Updated team member status with email - sultan+343@assurdly.com","business_id":"","date_created":"28\/02\/2024 @ 07:06PM","team_member":"Platform Owner"},{"id":"01hqreb4w2re9kde8shmgye4j2","user_id":"01hq3781r6qm4ney4aaxtfk065","event_type":"Updated team member status","description":"Updated team member status with email - sultan+343@assurdly.com","business_id":"","date_created":"28\/02\/2024 @ 07:06PM","team_member":"Platform Owner"},{"id":"01hqreb2w88twkj3a620ekj0ht","user_id":"01hq3781r6qm4ney4aaxtfk065","event_type":"Updated team member","description":"updated team with email - ","business_id":"","date_created":"28\/02\/2024 @ 07:06PM","team_member":"Platform Owner"}],"pagination":{"current_page":1,"per_page":10,"total":1037,"next_page_url":"http:\/\/salary.dev.onepipe.io\/api\/audit?page=2","prev_page_url":null},"message":"Audit trails retrieved successfully"}