{"success":true,"data":[{"id":"01hqn7j7fp33evencb94wmswnw","user_id":"01hq3781r6qm4ney4aaxtfk065","event_type":"Updated kyb-setting","description":"updated document with name - Certificate of Incorporation","business_id":"","date_created":"27\/02\/2024 @ 01:10PM","team_member":"Platform Owner"},{"id":"01hqn7hzm7f63t66xd6rnm3y6f","user_id":"01hq3781r6qm4ney4aaxtfk065","event_type":"Created a kyb-setting","description":"created kyb setting with document-name - Certificate of Incorporation","business_id":"","date_created":"27\/02\/2024 @ 01:10PM","team_member":"Platform Owner"},{"id":"01hqn7hjms7e5nb2dfr9e6mdz9","user_id":"01hq3781r6qm4ney4aaxtfk065","event_type":"Deactivated Business","description":"Deactivated business with name - Habeeb13","business_id":"","date_created":"27\/02\/2024 @ 01:10PM","team_member":"Platform Owner"},{"id":"01hqn7hgmnrp2h0xzq3av1gvyv","user_id":"01hq3781r6qm4ney4aaxtfk065","event_type":"Deactivated Business","description":"Deactivated business with name - Habeeb13","business_id":"","date_created":"27\/02\/2024 @ 01:09PM","team_member":"Platform Owner"},{"id":"01hqn7hemm5f4x69wqdd9skah6","user_id":"01hq3781r6qm4ney4aaxtfk065","event_type":"Activated Business","description":"Activated business with name - Habeeb13","business_id":"","date_created":"27\/02\/2024 @ 01:09PM","team_member":"Platform Owner"},{"id":"01hqn7hc0m7tc7atx98sbs50nq","user_id":"01hq3781r6qm4ney4aaxtfk065","event_type":"Activated Business","description":"Activated business with name - Habeeb13","business_id":"","date_created":"27\/02\/2024 @ 01:09PM","team_member":"Platform Owner"},{"id":"01hqn7gy7azapwe9wfafzsbt41","user_id":"01hq3781r6qm4ney4aaxtfk065","event_type":"Updated team member status","description":"Updated team member status with email - sultan+806@assurdly.com","business_id":"","date_created":"27\/02\/2024 @ 01:09PM","team_member":"Platform Owner"},{"id":"01hqn7gwchycdym5r6cp32zbmv","user_id":"01hq3781r6qm4ney4aaxtfk065","event_type":"Updated team member status","description":"Updated team member status with email - sultan+806@assurdly.com","business_id":"","date_created":"27\/02\/2024 @ 01:09PM","team_member":"Platform Owner"},{"id":"01hqn7gf309cygj05532jdzj21","user_id":"01hq3781r6qm4ney4aaxtfk065","event_type":"Invited team member","description":"Resent Invite team member email - sultan+806@assurdly.com","business_id":"","date_created":"27\/02\/2024 @ 01:09PM","team_member":"Platform Owner"},{"id":"01hqn7gapkggxr51wcgmrtx1wq","user_id":"01hq3781r6qm4ney4aaxtfk065","event_type":"Invited team member","description":"Invited team member email - sultan+806@assurdly.com","business_id":"","date_created":"27\/02\/2024 @ 01:09PM","team_member":"Platform Owner"}],"pagination":{"current_page":1,"per_page":10,"total":642,"next_page_url":"http:\/\/salary.dev.onepipe.io\/api\/audit?page=2","prev_page_url":null},"message":"Audit trails retrieved successfully"}