{"success":true,"data":[{"id":"01hqadsbmtt7h8rsnm1xgahaav","user_id":"01hq3781r6qm4ney4aaxtfk065","event_type":"Created role","description":"created role with name - International","business_id":null,"date_created":"23\/02\/2024 @ 08:27AM","team_member":"Platform Owner"},{"id":"01hqadfk34ja42vm6w8cfyeqpb","user_id":"01hq3781r6qm4ney4aaxtfk065","event_type":"Created role","description":"created role with name - Corporate","business_id":null,"date_created":"23\/02\/2024 @ 08:22AM","team_member":"Platform Owner"},{"id":"01hqad59329qgs6m3g4nmfsejb","user_id":"01hq3781r6qm4ney4aaxtfk065","event_type":"Created role","description":"created role with name - Corporate","business_id":null,"date_created":"23\/02\/2024 @ 08:16AM","team_member":"Platform Owner"},{"id":"01hq8z8cxadn2vtvd73kvyajn5","user_id":"01hq3781r6qm4ney4aaxtfk065","event_type":"Created role","description":"created role with name - Product","business_id":null,"date_created":"22\/02\/2024 @ 06:54PM","team_member":"Platform Owner"},{"id":"01hq8z7kd9qrbvdcfbym8qdsxp","user_id":"01hq3781r6qm4ney4aaxtfk065","event_type":"Created role","description":"created role with name - Customer","business_id":null,"date_created":"22\/02\/2024 @ 06:53PM","team_member":"Platform Owner"},{"id":"01hq8wyt9vgfjdp5a9jwmszrpj","user_id":"01hq3781r6qm4ney4aaxtfk065","event_type":"Created role","description":"created role with name - Customer","business_id":null,"date_created":"22\/02\/2024 @ 06:14PM","team_member":"Platform Owner"},{"id":"01hq879wx0hw91bvpt3jt7gnxx","user_id":"01hq3781r6qm4ney4aaxtfk065","event_type":"Created role","description":"created role with name - Legacy","business_id":null,"date_created":"22\/02\/2024 @ 11:55AM","team_member":"Platform Owner"},{"id":"01hq876d6cgaxrmb6j07aamrrd","user_id":"01hq3781r6qm4ney4aaxtfk065","event_type":"Created role","description":"created role with name - National Research Executive","business_id":null,"date_created":"22\/02\/2024 @ 11:53AM","team_member":"Platform Owner"},{"id":"01hq69hx0ae650r3tt21vpgk5x","user_id":"01hq3781r6qm4ney4aaxtfk065","event_type":"Created role","description":"created role with name - Manager","business_id":null,"date_created":"21\/02\/2024 @ 05:56PM","team_member":"Platform Owner"},{"id":"01hq5tq2j2h664zde0a4g19r28","user_id":"01hq3781r6qm4ney4aaxtfk065","event_type":"Created role","description":"created role with name - QA2","business_id":null,"date_created":"21\/02\/2024 @ 01:37PM","team_member":"Platform Owner"}],"pagination":{"current_page":1,"per_page":10,"total":11,"next_page_url":"http:\/\/salary.dev.onepipe.io\/api\/audit?page=2","prev_page_url":null},"message":"Audit trails retrieved successfully"}