{"success":true,"data":[{"id":"01hqamy4jfrqfe6y56btjq6pvn","user_id":"01hq3781r6qm4ney4aaxtfk065","event_type":"Created role","description":"created role with name - Principal","business_id":null,"date_created":"23\/02\/2024 @ 10:32AM","team_member":"Platform Owner"},{"id":"01hqammbkbmm3bp87scja79c8p","user_id":"01hq3781r6qm4ney4aaxtfk065","event_type":"Created role","description":"created role with name - Investor","business_id":null,"date_created":"23\/02\/2024 @ 10:27AM","team_member":"Platform Owner"},{"id":"01hqamad8adg7b4chhq9yrcae3","user_id":"01hq3781r6qm4ney4aaxtfk065","event_type":"Created role","description":"created role with name - Central","business_id":null,"date_created":"23\/02\/2024 @ 10:21AM","team_member":"Platform Owner"},{"id":"01hqam0v90amj2twxtfe0hw5rd","user_id":"01hq3781r6qm4ney4aaxtfk065","event_type":"Created role","description":"created role with name - Dynamic","business_id":null,"date_created":"23\/02\/2024 @ 10:16AM","team_member":"Platform Owner"},{"id":"01hqakpnzytxvkxct787dfcmne","user_id":"01hq3781r6qm4ney4aaxtfk065","event_type":"Created role","description":"created role with name - Global","business_id":null,"date_created":"23\/02\/2024 @ 10:10AM","team_member":"Platform Owner"},{"id":"01hqakcdh3z12aqmhjb02tk4qf","user_id":"01hq3781r6qm4ney4aaxtfk065","event_type":"Created role","description":"created role with name - Central","business_id":null,"date_created":"23\/02\/2024 @ 10:05AM","team_member":"Platform Owner"},{"id":"01hqak21qhkv9mz8hj5tw9ybk4","user_id":"01hq3781r6qm4ney4aaxtfk065","event_type":"Created role","description":"created role with name - Dynamic","business_id":null,"date_created":"23\/02\/2024 @ 09:59AM","team_member":"Platform Owner"},{"id":"01hqajrktd1tmsmf2c7jy5xwgz","user_id":"01hq3781r6qm4ney4aaxtfk065","event_type":"Created role","description":"created role with name - Chief","business_id":null,"date_created":"23\/02\/2024 @ 09:54AM","team_member":"Platform Owner"},{"id":"01hqajeb2pfth2sa9rpebzktdd","user_id":"01hq3781r6qm4ney4aaxtfk065","event_type":"Created role","description":"created role with name - Dynamic","business_id":null,"date_created":"23\/02\/2024 @ 09:48AM","team_member":"Platform Owner"},{"id":"01hqaje70vqayzqkr0dtz44nfp","user_id":"01hq3781r6qm4ney4aaxtfk065","event_type":"Created role","description":"created role with name - Human","business_id":null,"date_created":"23\/02\/2024 @ 09:48AM","team_member":"Platform Owner"}],"pagination":{"current_page":1,"per_page":10,"total":24,"next_page_url":"http:\/\/salary.dev.onepipe.io\/api\/audit?page=2","prev_page_url":null},"message":"Audit trails retrieved successfully"}