{"success":true,"data":[{"id":"01hskb0anmgtdmy03psw69dqpq","user_id":"01hshhrgmbdtfbnf7vg8tfq95d","event_type":"Deleted KYB setting","description":"Deleted KYB setting with document name - Certificate of Incorporation","business_id":null,"date_created":"22\/03\/2024 @ 04:03PM","team_member":"Platform Owner"},{"id":"01hskb083akrs2p7s0fj7hn922","user_id":"01hshhrgmbdtfbnf7vg8tfq95d","event_type":"Updated KYB setting","description":"Updated document with name - Certificate of Incorporation","business_id":null,"date_created":"22\/03\/2024 @ 04:03PM","team_member":"Platform Owner"},{"id":"01hskazxde5mj6sxr355fn7cjs","user_id":"01hshhrgmbdtfbnf7vg8tfq95d","event_type":"Created a KYB setting","description":"Created KYB setting with document name - Certificate of Incorporation","business_id":null,"date_created":"22\/03\/2024 @ 04:03PM","team_member":"Platform Owner"},{"id":"01hskaxxx45gaf8f6dc0ntrxxc","user_id":"01hshhrgmbdtfbnf7vg8tfq95d","event_type":"Activated business","description":"Activated business with name - Assurdly Bus","business_id":null,"date_created":"22\/03\/2024 @ 04:02PM","team_member":"Platform Owner"},{"id":"01hskaxpvs6pn25qvpnfvqpkqs","user_id":"01hshhrgmbdtfbnf7vg8tfq95d","event_type":"Deactivated business","description":"Deactivated business with name - Assurdly Bus","business_id":null,"date_created":"22\/03\/2024 @ 04:01PM","team_member":"Platform Owner"},{"id":"01hskaxf86we5ak1byartt3xeq","user_id":"01hshhrgmbdtfbnf7vg8tfq95d","event_type":"Activated business","description":"Activated business with name - Assurdly Bus","business_id":null,"date_created":"22\/03\/2024 @ 04:01PM","team_member":"Platform Owner"},{"id":"01hskax7x6kvp1z19gy99apyf7","user_id":"01hshhrgmbdtfbnf7vg8tfq95d","event_type":"Deactivated business","description":"Deactivated business with name - Assurdly Bus","business_id":null,"date_created":"22\/03\/2024 @ 04:01PM","team_member":"Platform Owner"},{"id":"01hskawkrw7yk6v42vnz26pmx5","user_id":"01hshhrgmbdtfbnf7vg8tfq95d","event_type":"Updated team member status","description":"Updated team member status with email - sultan+560@assurdly.com","business_id":null,"date_created":"22\/03\/2024 @ 04:01PM","team_member":"Platform Owner"},{"id":"01hskawh60qdma08wy105h2fkt","user_id":"01hshhrgmbdtfbnf7vg8tfq95d","event_type":"Updated team member status","description":"Updated team member status with email - sultan+560@assurdly.com","business_id":null,"date_created":"22\/03\/2024 @ 04:01PM","team_member":"Platform Owner"},{"id":"01hskawem48aqmx5b0121qrr79","user_id":"01hshhrgmbdtfbnf7vg8tfq95d","event_type":"Updated team member","description":"Updated team with email - ","business_id":null,"date_created":"22\/03\/2024 @ 04:01PM","team_member":"Platform Owner"}],"pagination":{"current_page":1,"per_page":10,"total":56,"next_page_url":"http:\/\/salary.dev.onepipe.io\/api\/audit?page=2","prev_page_url":null},"message":"Audit trails retrieved successfully"}