{"success":true,"data":[{"id":"01hqnc6qyvfjv28v5n9bbw83er","user_id":"01hq3781r6qm4ney4aaxtfk065","event_type":"Updated kyb-setting","description":"updated document with name - Certificate of Incorporation","business_id":"","date_created":"27\/02\/2024 @ 02:31PM","team_member":"Platform Owner"},{"id":"01hqnc6g3tdg04w6y1hxwvtyk3","user_id":"01hq3781r6qm4ney4aaxtfk065","event_type":"Created a kyb-setting","description":"created kyb setting with document-name - Certificate of Incorporation","business_id":"","date_created":"27\/02\/2024 @ 02:31PM","team_member":"Platform Owner"},{"id":"01hqnc6ed8404d9tnh3ehdxqag","user_id":"01hq3781r6qm4ney4aaxtfk065","event_type":"Created a kyb-setting","description":"created kyb setting with document-name - Certificate of Incorporation","business_id":"","date_created":"27\/02\/2024 @ 02:31PM","team_member":"Platform Owner"},{"id":"01hqnc5hy9tk82cjpyy2vac9jw","user_id":"01hq3781r6qm4ney4aaxtfk065","event_type":"Deactivated Business","description":"Deactivated business with name - Habeeb13","business_id":"","date_created":"27\/02\/2024 @ 02:30PM","team_member":"Platform Owner"},{"id":"01hqnc5fxb1qyzptnth0d88y8m","user_id":"01hq3781r6qm4ney4aaxtfk065","event_type":"Deactivated Business","description":"Deactivated business with name - Habeeb13","business_id":"","date_created":"27\/02\/2024 @ 02:30PM","team_member":"Platform Owner"},{"id":"01hqnc5dy84xggggnawkewqnq6","user_id":"01hq3781r6qm4ney4aaxtfk065","event_type":"Activated Business","description":"Activated business with name - Habeeb13","business_id":"","date_created":"27\/02\/2024 @ 02:30PM","team_member":"Platform Owner"},{"id":"01hqnc5be9ttx4j2hmpd2t07a0","user_id":"01hq3781r6qm4ney4aaxtfk065","event_type":"Activated Business","description":"Activated business with name - Habeeb13","business_id":"","date_created":"27\/02\/2024 @ 02:30PM","team_member":"Platform Owner"},{"id":"01hqnc4y6z8s7afhy3ywcm6xnd","user_id":"01hq3781r6qm4ney4aaxtfk065","event_type":"Updated team member status","description":"Updated team member status with email - sultan+804@assurdly.com","business_id":"","date_created":"27\/02\/2024 @ 02:30PM","team_member":"Platform Owner"},{"id":"01hqnc4waqbkb6v0r452hpr7es","user_id":"01hq3781r6qm4ney4aaxtfk065","event_type":"Updated team member status","description":"Updated team member status with email - sultan+804@assurdly.com","business_id":"","date_created":"27\/02\/2024 @ 02:30PM","team_member":"Platform Owner"},{"id":"01hqnc4eckwrq6ctsb7f6a0n9b","user_id":"01hq3781r6qm4ney4aaxtfk065","event_type":"Invited team member","description":"Resent Invite team member email - sultan+804@assurdly.com","business_id":"","date_created":"27\/02\/2024 @ 02:30PM","team_member":"Platform Owner"}],"pagination":{"current_page":1,"per_page":10,"total":748,"next_page_url":"http:\/\/salary.dev.onepipe.io\/api\/audit?page=2","prev_page_url":null},"message":"Audit trails retrieved successfully"}