{"success":true,"data":[{"id":"01hrq8dj4nwy6kgsn1xnqm9898","user_id":"01hrnzwq8cjyvjpvxrhbw8tktc","event_type":"Deleted KYB setting","description":"Deleted KYB setting with document name - Certificate of Incorporation","business_id":null,"date_created":"11\/03\/2024 @ 06:19PM","team_member":"Platform Owner"},{"id":"01hrq8dg0nngx3ngfqcct0jx87","user_id":"01hrnzwq8cjyvjpvxrhbw8tktc","event_type":"Updated KYB setting","description":"Updated document with name - Certificate of Incorporation","business_id":null,"date_created":"11\/03\/2024 @ 06:19PM","team_member":"Platform Owner"},{"id":"01hrq8d71hba342r58c49shgaa","user_id":"01hrnzwq8cjyvjpvxrhbw8tktc","event_type":"Created a KYB setting","description":"Created KYB setting with document name - Certificate of Incorporation","business_id":null,"date_created":"11\/03\/2024 @ 06:19PM","team_member":"Platform Owner"},{"id":"01hrq8bxqtgckptykge7ffcrzy","user_id":"01hrnzwq8cjyvjpvxrhbw8tktc","event_type":"Activated business","description":"Activated business with name - Assurdly Verse","business_id":null,"date_created":"11\/03\/2024 @ 06:18PM","team_member":"Platform Owner"},{"id":"01hrq8bk7wcdjgh4wxc9xbt8b4","user_id":"01hrnzwq8cjyvjpvxrhbw8tktc","event_type":"Activated business","description":"Activated business with name - Assurdly Verse","business_id":null,"date_created":"11\/03\/2024 @ 06:18PM","team_member":"Platform Owner"},{"id":"01hrq8bceebysaqcnk65aesbax","user_id":"01hrnzwq8cjyvjpvxrhbw8tktc","event_type":"Deactivated business","description":"Deactivated business with name - Assurdly Verse","business_id":null,"date_created":"11\/03\/2024 @ 06:18PM","team_member":"Platform Owner"},{"id":"01hrq8b5ycy9g04nrrkc7fy26p","user_id":"01hrnzwq8cjyvjpvxrhbw8tktc","event_type":"Activated business","description":"Activated business with name - Assurdly Verse","business_id":null,"date_created":"11\/03\/2024 @ 06:18PM","team_member":"Platform Owner"},{"id":"01hrq8b0sm8a5svp3tra5b4x9x","user_id":"01hrnzwq8cjyvjpvxrhbw8tktc","event_type":"Deactivated business","description":"Deactivated business with name - Assurdly Verse","business_id":null,"date_created":"11\/03\/2024 @ 06:18PM","team_member":"Platform Owner"},{"id":"01hrq8ag1tss7ppvxdm5cajhq7","user_id":"01hrnzwq8cjyvjpvxrhbw8tktc","event_type":"Updated team member status","description":"Updated team member status with email - sultan+400@assurdly.com","business_id":null,"date_created":"11\/03\/2024 @ 06:17PM","team_member":"Platform Owner"},{"id":"01hrq8ae074a51mm60st45jmzq","user_id":"01hrnzwq8cjyvjpvxrhbw8tktc","event_type":"Updated team member status","description":"Updated team member status with email - sultan+400@assurdly.com","business_id":null,"date_created":"11\/03\/2024 @ 06:17PM","team_member":"Platform Owner"}],"pagination":{"current_page":1,"per_page":10,"total":126,"next_page_url":"http:\/\/salary.dev.onepipe.io\/api\/audit?page=2","prev_page_url":null},"message":"Audit trails retrieved successfully"}