{"success":true,"data":[{"id":"01hrq92ats5amak55jdf58v26a","user_id":"01hrnzwq8cjyvjpvxrhbw8tktc","event_type":"Deleted KYB setting","description":"Deleted KYB setting with document name - Certificate of Incorporation","business_id":null,"date_created":"11\/03\/2024 @ 06:30PM","team_member":"Platform Owner"},{"id":"01hrq928mtae6jarnj99ckjh71","user_id":"01hrnzwq8cjyvjpvxrhbw8tktc","event_type":"Updated KYB setting","description":"Updated document with name - Certificate of Incorporation","business_id":null,"date_created":"11\/03\/2024 @ 06:30PM","team_member":"Platform Owner"},{"id":"01hrq91za2wmd4dr0q248gmzv2","user_id":"01hrnzwq8cjyvjpvxrhbw8tktc","event_type":"Created a KYB setting","description":"Created KYB setting with document name - Certificate of Incorporation","business_id":null,"date_created":"11\/03\/2024 @ 06:30PM","team_member":"Platform Owner"},{"id":"01hrq90mn0sv61bchd8np4hakd","user_id":"01hrnzwq8cjyvjpvxrhbw8tktc","event_type":"Activated business","description":"Activated business with name - Assurdly Verse","business_id":null,"date_created":"11\/03\/2024 @ 06:29PM","team_member":"Platform Owner"},{"id":"01hrq909ts2c1k3yx0rw045qg0","user_id":"01hrnzwq8cjyvjpvxrhbw8tktc","event_type":"Activated business","description":"Activated business with name - Assurdly Verse","business_id":null,"date_created":"11\/03\/2024 @ 06:29PM","team_member":"Platform Owner"},{"id":"01hrq904g5g7h539sex368dfck","user_id":"01hrnzwq8cjyvjpvxrhbw8tktc","event_type":"Deactivated business","description":"Deactivated business with name - Assurdly Verse","business_id":null,"date_created":"11\/03\/2024 @ 06:29PM","team_member":"Platform Owner"},{"id":"01hrq8zxkxjzsx12gnqf6nx9w3","user_id":"01hrnzwq8cjyvjpvxrhbw8tktc","event_type":"Activated business","description":"Activated business with name - Assurdly Verse","business_id":null,"date_created":"11\/03\/2024 @ 06:29PM","team_member":"Platform Owner"},{"id":"01hrq8zq8h5k1h735b58xrtw5h","user_id":"01hrnzwq8cjyvjpvxrhbw8tktc","event_type":"Deactivated business","description":"Deactivated business with name - Assurdly Verse","business_id":null,"date_created":"11\/03\/2024 @ 06:29PM","team_member":"Platform Owner"},{"id":"01hrq8z4zb18sdt4npm2mwdp5m","user_id":"01hrnzwq8cjyvjpvxrhbw8tktc","event_type":"Updated team member status","description":"Updated team member status with email - sultan+700@assurdly.com","business_id":null,"date_created":"11\/03\/2024 @ 06:29PM","team_member":"Platform Owner"},{"id":"01hrq8z2tn5j231pzpwygxny6f","user_id":"01hrnzwq8cjyvjpvxrhbw8tktc","event_type":"Updated team member status","description":"Updated team member status with email - sultan+700@assurdly.com","business_id":null,"date_created":"11\/03\/2024 @ 06:29PM","team_member":"Platform Owner"}],"pagination":{"current_page":1,"per_page":10,"total":141,"next_page_url":"http:\/\/salary.dev.onepipe.io\/api\/audit?page=2","prev_page_url":null},"message":"Audit trails retrieved successfully"}