{"success":true,"data":[{"id":"01hqn92k0pcq3vrkj6kac40kxh","user_id":"01hq3781r6qm4ney4aaxtfk065","event_type":"Updated kyb-setting","description":"updated document with name - Certificate of Incorporation","business_id":"","date_created":"27\/02\/2024 @ 01:36PM","team_member":"Platform Owner"},{"id":"01hqn92b5q1ww2zh0rs921zcn7","user_id":"01hq3781r6qm4ney4aaxtfk065","event_type":"Created a kyb-setting","description":"created kyb setting with document-name - Certificate of Incorporation","business_id":"","date_created":"27\/02\/2024 @ 01:36PM","team_member":"Platform Owner"},{"id":"01hqn91fm4vwy9hrxsy5tep5tv","user_id":"01hq3781r6qm4ney4aaxtfk065","event_type":"Deactivated Business","description":"Deactivated business with name - Habeeb13","business_id":"","date_created":"27\/02\/2024 @ 01:36PM","team_member":"Platform Owner"},{"id":"01hqn91dmvzhgrjy0jknraje0e","user_id":"01hq3781r6qm4ney4aaxtfk065","event_type":"Deactivated Business","description":"Deactivated business with name - Habeeb13","business_id":"","date_created":"27\/02\/2024 @ 01:36PM","team_member":"Platform Owner"},{"id":"01hqn91bmqmrtqvsmra1b0mjsc","user_id":"01hq3781r6qm4ney4aaxtfk065","event_type":"Activated Business","description":"Activated business with name - Habeeb13","business_id":"","date_created":"27\/02\/2024 @ 01:36PM","team_member":"Platform Owner"},{"id":"01hqn9194kzmadp6j9nwe5zheg","user_id":"01hq3781r6qm4ney4aaxtfk065","event_type":"Activated Business","description":"Activated business with name - Habeeb13","business_id":"","date_created":"27\/02\/2024 @ 01:36PM","team_member":"Platform Owner"},{"id":"01hqn90vkc9xs9enkzebfawss1","user_id":"01hq3781r6qm4ney4aaxtfk065","event_type":"Updated team member status","description":"Updated team member status with email - sultan+378@assurdly.com","business_id":"","date_created":"27\/02\/2024 @ 01:35PM","team_member":"Platform Owner"},{"id":"01hqn90ssvzdet5prqta576gqv","user_id":"01hq3781r6qm4ney4aaxtfk065","event_type":"Updated team member status","description":"Updated team member status with email - sultan+378@assurdly.com","business_id":"","date_created":"27\/02\/2024 @ 01:35PM","team_member":"Platform Owner"},{"id":"01hqn90byn2xxy4pzmjkqbr0e2","user_id":"01hq3781r6qm4ney4aaxtfk065","event_type":"Invited team member","description":"Resent Invite team member email - sultan+378@assurdly.com","business_id":"","date_created":"27\/02\/2024 @ 01:35PM","team_member":"Platform Owner"},{"id":"01hqn9069779w2dr1d3h2kwcw9","user_id":"01hq3781r6qm4ney4aaxtfk065","event_type":"Invited team member","description":"Invited team member email - sultan+378@assurdly.com","business_id":"","date_created":"27\/02\/2024 @ 01:35PM","team_member":"Platform Owner"}],"pagination":{"current_page":1,"per_page":10,"total":715,"next_page_url":"http:\/\/salary.dev.onepipe.io\/api\/audit?page=2","prev_page_url":null},"message":"Audit trails retrieved successfully"}