{"success":true,"data":[{"id":"01hqn8sa1sbv33h9102y0wdan5","user_id":"01hq3781r6qm4ney4aaxtfk065","event_type":"Updated kyb-setting","description":"updated document with name - Certificate of Incorporation","business_id":"","date_created":"27\/02\/2024 @ 01:31PM","team_member":"Platform Owner"},{"id":"01hqn8s21ec2z8xe6aqpbcv5hd","user_id":"01hq3781r6qm4ney4aaxtfk065","event_type":"Created a kyb-setting","description":"created kyb setting with document-name - Certificate of Incorporation","business_id":"","date_created":"27\/02\/2024 @ 01:31PM","team_member":"Platform Owner"},{"id":"01hqn8rbrrn0e5jgsqf4yby2yt","user_id":"01hq3781r6qm4ney4aaxtfk065","event_type":"Deactivated Business","description":"Deactivated business with name - Habeeb13","business_id":"","date_created":"27\/02\/2024 @ 01:31PM","team_member":"Platform Owner"},{"id":"01hqn8r9rz3j42zwzq20jw64vk","user_id":"01hq3781r6qm4ney4aaxtfk065","event_type":"Deactivated Business","description":"Deactivated business with name - Habeeb13","business_id":"","date_created":"27\/02\/2024 @ 01:31PM","team_member":"Platform Owner"},{"id":"01hqn8r7r0nxg8vdvrnxp2hmb0","user_id":"01hq3781r6qm4ney4aaxtfk065","event_type":"Activated Business","description":"Activated business with name - Habeeb13","business_id":"","date_created":"27\/02\/2024 @ 01:31PM","team_member":"Platform Owner"},{"id":"01hqn8r57076hj8vj3y2v6w3hr","user_id":"01hq3781r6qm4ney4aaxtfk065","event_type":"Activated Business","description":"Activated business with name - Habeeb13","business_id":"","date_created":"27\/02\/2024 @ 01:31PM","team_member":"Platform Owner"},{"id":"01hqn8qqcs3929f70bjq31zpwy","user_id":"01hq3781r6qm4ney4aaxtfk065","event_type":"Updated team member status","description":"Updated team member status with email - sultan+461@assurdly.com","business_id":"","date_created":"27\/02\/2024 @ 01:30PM","team_member":"Platform Owner"},{"id":"01hqn8qnk1frwwn0g1pne5mbdg","user_id":"01hq3781r6qm4ney4aaxtfk065","event_type":"Updated team member status","description":"Updated team member status with email - sultan+461@assurdly.com","business_id":"","date_created":"27\/02\/2024 @ 01:30PM","team_member":"Platform Owner"},{"id":"01hqn8q5wy0txkx5s877mvfbm1","user_id":"01hq3781r6qm4ney4aaxtfk065","event_type":"Invited team member","description":"Resent Invite team member email - sultan+461@assurdly.com","business_id":"","date_created":"27\/02\/2024 @ 01:30PM","team_member":"Platform Owner"},{"id":"01hqn8q0cd66tdkkz9n0h7ecgb","user_id":"01hq3781r6qm4ney4aaxtfk065","event_type":"Invited team member","description":"Invited team member email - sultan+461@assurdly.com","business_id":"","date_created":"27\/02\/2024 @ 01:30PM","team_member":"Platform Owner"}],"pagination":{"current_page":1,"per_page":10,"total":700,"next_page_url":"http:\/\/salary.dev.onepipe.io\/api\/audit?page=2","prev_page_url":null},"message":"Audit trails retrieved successfully"}