{"success":true,"data":[{"id":"01hsb25g61qqp787fxyavfcmy5","user_id":"01hrnzwq8cjyvjpvxrhbw8tktc","event_type":"Deleted KYB setting","description":"Deleted KYB setting with document name - Certificate of Incorporation","business_id":null,"date_created":"19\/03\/2024 @ 10:55AM","team_member":"Platform Owner"},{"id":"01hsb25e0qqbnnacntezfdtqg3","user_id":"01hrnzwq8cjyvjpvxrhbw8tktc","event_type":"Updated KYB setting","description":"Updated document with name - Certificate of Incorporation","business_id":null,"date_created":"19\/03\/2024 @ 10:54AM","team_member":"Platform Owner"},{"id":"01hsb2559eerrkm4wks1104n8m","user_id":"01hrnzwq8cjyvjpvxrhbw8tktc","event_type":"Created a KYB setting","description":"Created KYB setting with document name - Certificate of Incorporation","business_id":null,"date_created":"19\/03\/2024 @ 10:54AM","team_member":"Platform Owner"},{"id":"01hsb22t0g3fkpmjs54sy13ca1","user_id":"01hrnzwq8cjyvjpvxrhbw8tktc","event_type":"Updated team member status","description":"Updated team member status with email - sultan+281@assurdly.com","business_id":null,"date_created":"19\/03\/2024 @ 10:53AM","team_member":"Platform Owner"},{"id":"01hsb22qtr9w1qyyr54mqfg67q","user_id":"01hrnzwq8cjyvjpvxrhbw8tktc","event_type":"Updated team member status","description":"Updated team member status with email - sultan+281@assurdly.com","business_id":null,"date_created":"19\/03\/2024 @ 10:53AM","team_member":"Platform Owner"},{"id":"01hsb22ns9prxbj6sfwqqpbfbr","user_id":"01hrnzwq8cjyvjpvxrhbw8tktc","event_type":"Updated team member","description":"Updated team with email - ","business_id":null,"date_created":"19\/03\/2024 @ 10:53AM","team_member":"Platform Owner"},{"id":"01hsb225mg6r7mxjty878407dd","user_id":"01hrnzwq8cjyvjpvxrhbw8tktc","event_type":"Invited team member","description":"Resent invite team member email - sultan+281@assurdly.com","business_id":null,"date_created":"19\/03\/2024 @ 10:53AM","team_member":"Platform Owner"},{"id":"01hsb21zbrnftzwptas9mqkq2m","user_id":"01hrnzwq8cjyvjpvxrhbw8tktc","event_type":"Invited team member","description":"Invited team member email - sultan+281@assurdly.com","business_id":null,"date_created":"19\/03\/2024 @ 10:53AM","team_member":"Platform Owner"},{"id":"01hsb21nkm7bv1h0p70a1gjp0n","user_id":"01hrnzwq8cjyvjpvxrhbw8tktc","event_type":"Updated role status","description":"Updated role status with name - Human","business_id":null,"date_created":"19\/03\/2024 @ 10:52AM","team_member":"Platform Owner"},{"id":"01hsb21kk956brhthe9ctmxnk0","user_id":"01hrnzwq8cjyvjpvxrhbw8tktc","event_type":"Updated role status","description":"Updated role status with name - Human","business_id":null,"date_created":"19\/03\/2024 @ 10:52AM","team_member":"Platform Owner"}],"pagination":{"current_page":1,"per_page":10,"total":300,"next_page_url":"http:\/\/salary.dev.onepipe.io\/api\/audit?page=2","prev_page_url":null},"message":"Audit trails retrieved successfully"}