{"success":true,"data":[{"id":"01hsa12x06v40af301cvekf0w7","transaction_ref":"01HSA12X06V40AF301CVEKF0W6","type":"PAYROLL","amount":"166,666.67","narration":"SALARY\/Hab Test Payroll","employee_name":"Habeeb Seun","status":"pending","date":"19\/03\/2024 @ 01:16AM"},{"id":"01hs9qz4ns2k1kdmvvqggeqyg0","transaction_ref":"01HS9QZ4NRTYBD09B24NHB2XTY","type":"PAYROLL","amount":"66,666.67","narration":"SALARY\/Basic Allowance","employee_name":"Udeme Nse","status":"pending","date":"18\/03\/2024 @ 10:37PM"},{"id":"01hrxv4fnd9kh8vk73krqv8zd1","transaction_ref":"01HRXV4FND9KH8VK73KRQV8ZD0","type":"PAYROLL","amount":"1,000,000.00","narration":"SALARY\/{{$randomName}}","employee_name":"Moses George","status":"pending","date":"14\/03\/2024 @ 07:42AM"},{"id":"01hrxttbhx69xbhxdbydheg9mg","transaction_ref":"01HRXTTBHX69XBHXDBYDHEG9MF","type":"PAYROLL","amount":"1,000,000.00","narration":"SALARY\/Test Payroll","employee_name":"Test Tester","status":"pending","date":"14\/03\/2024 @ 07:36AM"},{"id":"01hrxttavxpje64teqb755mp3p","transaction_ref":"01HRXTTAVXPJE64TEQB755MP3N","type":"PAYROLL","amount":"83,333.33","narration":"SALARY\/Test Payroll","employee_name":"George Ebuka","status":"pending","date":"14\/03\/2024 @ 07:36AM"},{"id":"01hrxtta672teee12e6qjj6r4a","transaction_ref":"01HRXTTA660SV8RPEERPT0BZ22","type":"PAYROLL","amount":"1,000,000.00","narration":"SALARY\/Test Payroll","employee_name":"Moses George","status":"pending","date":"14\/03\/2024 @ 07:36AM"},{"id":"01hrsnecsbxtdm3bdqjphn9en3","transaction_ref":"01HRSNECSAYT1TGBMHATY8R7SM","type":"PAYROLL","amount":"1,000,000.00","narration":"SALARY\/Test Payroll","employee_name":"Test Tester","status":"pending","date":"12\/03\/2024 @ 04:45PM"},{"id":"01hrsnebypr4beyhyw1xebnzh0","transaction_ref":"01HRSNEBYPR4BEYHYW1XEBNZGZ","type":"PAYROLL","amount":"83,333.33","narration":"SALARY\/Test Payroll","employee_name":"George Ebuka","status":"pending","date":"12\/03\/2024 @ 04:45PM"},{"id":"01hrsneb462djv0w01ppx4xxbv","transaction_ref":"01HRSNEB45AKG10ECCRM934WKR","type":"PAYROLL","amount":"1,000,000.00","narration":"SALARY\/Test Payroll","employee_name":"Moses George","status":"pending","date":"12\/03\/2024 @ 04:45PM"},{"id":"01hrsn6h6te9pj0yehma220yb8","transaction_ref":"01HRSN6H6SZDJAPZMKV3QXBY79","type":"PAYROLL","amount":"1,000,000.00","narration":"SALARY\/{{$randomName}}","employee_name":"Moses George","status":"pending","date":"12\/03\/2024 @ 04:41PM"}],"pagination":{"current_page":1,"per_page":10,"total":14,"next_page_url":"http:\/\/salary.dev.onepipe.io\/api\/transaction?page=2","prev_page_url":null},"message":"List of transactions fetched successfully"}