{"success":true,"data":[{"id":"01hr4zbep388wxbb5phdwmchbr","user_id":"01hr4nmzv80v0pz35cwm3ynzyn","event_type":"Updated KYB setting","description":"Updated document with name - Certificate of Incorporation","business_id":"","date_created":"04\/03\/2024 @ 03:54PM","team_member":"Platform Owner"},{"id":"01hr4zb5teczr4271b3hdwhyqe","user_id":"01hr4nmzv80v0pz35cwm3ynzyn","event_type":"Created a KYB setting","description":"Created KYB setting with document name - Certificate of Incorporation","business_id":"","date_created":"04\/03\/2024 @ 03:54PM","team_member":"Platform Owner"},{"id":"01hr4z9x5h9638k1chres6p5d8","user_id":"01hr4nmzv80v0pz35cwm3ynzyn","event_type":"Blacklisted business","description":"Blacklisted business with name - Testar Company and Sons","business_id":"","date_created":"04\/03\/2024 @ 03:53PM","team_member":"Platform Owner"},{"id":"01hr4z9tzmr37rm32xdf92dvyw","user_id":"01hr4nmzv80v0pz35cwm3ynzyn","event_type":"Activated business","description":"Activated business with name - Testar Company and Sons","business_id":"","date_created":"04\/03\/2024 @ 03:53PM","team_member":"Platform Owner"},{"id":"01hr4z9rap7knf97f9mhvvzkb9","user_id":"01hr4nmzv80v0pz35cwm3ynzyn","event_type":"Deactivated business","description":"Deactivated business with name - Testar Company and Sons","business_id":"","date_created":"04\/03\/2024 @ 03:53PM","team_member":"Platform Owner"},{"id":"01hr4z9p59czb8t3jrrsycda9w","user_id":"01hr4nmzv80v0pz35cwm3ynzyn","event_type":"Activated business","description":"Activated business with name - Testar Company and Sons","business_id":"","date_created":"04\/03\/2024 @ 03:53PM","team_member":"Platform Owner"},{"id":"01hr4z9kevtaa1mkeknehq2de6","user_id":"01hr4nmzv80v0pz35cwm3ynzyn","event_type":"Deactivated business","description":"Deactivated business with name - Testar Company and Sons","business_id":"","date_created":"04\/03\/2024 @ 03:53PM","team_member":"Platform Owner"},{"id":"01hr4z98m1tnd15prah06e7wh8","user_id":"01hr4nmzv80v0pz35cwm3ynzyn","event_type":"Updated team member status","description":"Updated team member status with email - sultan+231@assurdly.com","business_id":"","date_created":"04\/03\/2024 @ 03:53PM","team_member":"Platform Owner"},{"id":"01hr4z96kcp44yjhcd2eqht24d","user_id":"01hr4nmzv80v0pz35cwm3ynzyn","event_type":"Updated team member status","description":"Updated team member status with email - sultan+231@assurdly.com","business_id":"","date_created":"04\/03\/2024 @ 03:53PM","team_member":"Platform Owner"},{"id":"01hr4z94jhseeb71vahtxm06va","user_id":"01hr4nmzv80v0pz35cwm3ynzyn","event_type":"Updated team member","description":"Updated team with email - ","business_id":"","date_created":"04\/03\/2024 @ 03:53PM","team_member":"Platform Owner"}],"pagination":{"current_page":1,"per_page":10,"total":58,"next_page_url":"http:\/\/salary.dev.onepipe.io\/api\/audit?page=2","prev_page_url":null},"message":"Audit trails retrieved successfully"}