{"success":true,"data":[{"id":"01hska1k8vsgka3an2vs4cf635","user_id":"01hshhrgmbdtfbnf7vg8tfq95d","event_type":"Deleted KYB setting","description":"Deleted KYB setting with document name - Certificate of Incorporation","business_id":null,"date_created":"22\/03\/2024 @ 03:46PM","team_member":"Platform Owner"},{"id":"01hska1gnjp8qwd4y47p40gccj","user_id":"01hshhrgmbdtfbnf7vg8tfq95d","event_type":"Updated KYB setting","description":"Updated document with name - Certificate of Incorporation","business_id":null,"date_created":"22\/03\/2024 @ 03:46PM","team_member":"Platform Owner"},{"id":"01hska165km975hfx1xfy2gxjs","user_id":"01hshhrgmbdtfbnf7vg8tfq95d","event_type":"Created a KYB setting","description":"Created KYB setting with document name - Certificate of Incorporation","business_id":null,"date_created":"22\/03\/2024 @ 03:46PM","team_member":"Platform Owner"},{"id":"01hsk9z9gty6brg3pzan6trw7w","user_id":"01hshhrgmbdtfbnf7vg8tfq95d","event_type":"Activated business","description":"Activated business with name - Assurdly Bus","business_id":null,"date_created":"22\/03\/2024 @ 03:45PM","team_member":"Platform Owner"},{"id":"01hsk9z2kzj57369k7k9m4thrk","user_id":"01hshhrgmbdtfbnf7vg8tfq95d","event_type":"Deactivated business","description":"Deactivated business with name - Assurdly Bus","business_id":null,"date_created":"22\/03\/2024 @ 03:45PM","team_member":"Platform Owner"},{"id":"01hsk9ytwen1bv6f884756emr9","user_id":"01hshhrgmbdtfbnf7vg8tfq95d","event_type":"Activated business","description":"Activated business with name - Assurdly Bus","business_id":null,"date_created":"22\/03\/2024 @ 03:45PM","team_member":"Platform Owner"},{"id":"01hsk9ykq8e1zxm5b1rgthdxsr","user_id":"01hshhrgmbdtfbnf7vg8tfq95d","event_type":"Deactivated business","description":"Deactivated business with name - Assurdly Bus","business_id":null,"date_created":"22\/03\/2024 @ 03:45PM","team_member":"Platform Owner"},{"id":"01hsk9y08vza77vgf9bs249pep","user_id":"01hshhrgmbdtfbnf7vg8tfq95d","event_type":"Updated team member status","description":"Updated team member status with email - sultan+779@assurdly.com","business_id":null,"date_created":"22\/03\/2024 @ 03:44PM","team_member":"Platform Owner"},{"id":"01hsk9xxxdacp5t67sah8cc228","user_id":"01hshhrgmbdtfbnf7vg8tfq95d","event_type":"Updated team member status","description":"Updated team member status with email - sultan+779@assurdly.com","business_id":null,"date_created":"22\/03\/2024 @ 03:44PM","team_member":"Platform Owner"},{"id":"01hsk9xv8sz29jd78xgtj52dmm","user_id":"01hshhrgmbdtfbnf7vg8tfq95d","event_type":"Updated team member","description":"Updated team with email - ","business_id":null,"date_created":"22\/03\/2024 @ 03:44PM","team_member":"Platform Owner"}],"pagination":{"current_page":1,"per_page":10,"total":40,"next_page_url":"http:\/\/salary.dev.onepipe.io\/api\/audit?page=2","prev_page_url":null},"message":"Audit trails retrieved successfully"}