{"success":true,"data":[{"id":"01hr4ydqekwy055rhrz7rgc7ca","user_id":"01hr4nmzv80v0pz35cwm3ynzyn","event_type":"Updated KYB setting","description":"Updated document with name - Certificate of Incorporation","business_id":"","date_created":"04\/03\/2024 @ 03:38PM","team_member":"Platform Owner"},{"id":"01hr4ydez7t8dpzqhwr568cqpe","user_id":"01hr4nmzv80v0pz35cwm3ynzyn","event_type":"Created a KYB setting","description":"Created KYB setting with document name - Certificate of Incorporation","business_id":"","date_created":"04\/03\/2024 @ 03:38PM","team_member":"Platform Owner"},{"id":"01hr4yc8nn38gym6q3gde0dggz","user_id":"01hr4nmzv80v0pz35cwm3ynzyn","event_type":"Blacklisted business","description":"Blacklisted business with name - Testar Company and Sons","business_id":"","date_created":"04\/03\/2024 @ 03:37PM","team_member":"Platform Owner"},{"id":"01hr4yc6hmd9rrg984nm1kfz99","user_id":"01hr4nmzv80v0pz35cwm3ynzyn","event_type":"Activated business","description":"Activated business with name - Testar Company and Sons","business_id":"","date_created":"04\/03\/2024 @ 03:37PM","team_member":"Platform Owner"},{"id":"01hr4yc3xxfptsdcvv3qnjfhwf","user_id":"01hr4nmzv80v0pz35cwm3ynzyn","event_type":"Deactivated business","description":"Deactivated business with name - Testar Company and Sons","business_id":"","date_created":"04\/03\/2024 @ 03:37PM","team_member":"Platform Owner"},{"id":"01hr4yc1ta1k49spztqmncqnw9","user_id":"01hr4nmzv80v0pz35cwm3ynzyn","event_type":"Activated business","description":"Activated business with name - Testar Company and Sons","business_id":"","date_created":"04\/03\/2024 @ 03:37PM","team_member":"Platform Owner"},{"id":"01hr4ybz6k5t845pb755c6rrnm","user_id":"01hr4nmzv80v0pz35cwm3ynzyn","event_type":"Deactivated business","description":"Deactivated business with name - Testar Company and Sons","business_id":"","date_created":"04\/03\/2024 @ 03:37PM","team_member":"Platform Owner"},{"id":"01hr4ybmj7jsgfnae714kms25r","user_id":"01hr4nmzv80v0pz35cwm3ynzyn","event_type":"Updated team member status","description":"Updated team member status with email - sultan+243@assurdly.com","business_id":"","date_created":"04\/03\/2024 @ 03:37PM","team_member":"Platform Owner"},{"id":"01hr4ybjkggdhx3xag3fp3bfpf","user_id":"01hr4nmzv80v0pz35cwm3ynzyn","event_type":"Updated team member status","description":"Updated team member status with email - sultan+243@assurdly.com","business_id":"","date_created":"04\/03\/2024 @ 03:37PM","team_member":"Platform Owner"},{"id":"01hr4ybgmt3b4kj51aa2px3r79","user_id":"01hr4nmzv80v0pz35cwm3ynzyn","event_type":"Updated team member","description":"Updated team with email - ","business_id":"","date_created":"04\/03\/2024 @ 03:37PM","team_member":"Platform Owner"}],"pagination":{"current_page":1,"per_page":10,"total":39,"next_page_url":"http:\/\/salary.dev.onepipe.io\/api\/audit?page=2","prev_page_url":null},"message":"Audit trails retrieved successfully"}