{"success":true,"data":[{"id":"01hqrbq36174fg09bt5pfvfw0e","user_id":"01hq3781r6qm4ney4aaxtfk065","event_type":"Updated kyb-setting","description":"updated document with name - Certificate of Incorporation","business_id":"","date_created":"28\/02\/2024 @ 06:20PM","team_member":"Platform Owner"},{"id":"01hqrbpt86zr3mg24f80enr2d0","user_id":"01hq3781r6qm4ney4aaxtfk065","event_type":"Created a kyb-setting","description":"created kyb setting with document-name - Certificate of Incorporation","business_id":"","date_created":"28\/02\/2024 @ 06:20PM","team_member":"Platform Owner"},{"id":"01hqrbnnxcp42z5w2mzjs5sk3x","user_id":"01hq3781r6qm4ney4aaxtfk065","event_type":"Blacklisted Business","description":"Blacklisted business with name - Habeeb13","business_id":"","date_created":"28\/02\/2024 @ 06:19PM","team_member":"Platform Owner"},{"id":"01hqrbnkp2pgfhfvv4b8c63jt4","user_id":"01hq3781r6qm4ney4aaxtfk065","event_type":"Deactivated Business","description":"Deactivated business with name - Habeeb13","business_id":"","date_created":"28\/02\/2024 @ 06:19PM","team_member":"Platform Owner"},{"id":"01hqrbnhfe66rn7sf9qz2haren","user_id":"01hq3781r6qm4ney4aaxtfk065","event_type":"Deactivated Business","description":"Deactivated business with name - Habeeb13","business_id":"","date_created":"28\/02\/2024 @ 06:19PM","team_member":"Platform Owner"},{"id":"01hqrbnf8cty5n22k9f5tg75ss","user_id":"01hq3781r6qm4ney4aaxtfk065","event_type":"Activated Business","description":"Activated business with name - Habeeb13","business_id":"","date_created":"28\/02\/2024 @ 06:19PM","team_member":"Platform Owner"},{"id":"01hqrbncjg11tsv5ghegsj11k7","user_id":"01hq3781r6qm4ney4aaxtfk065","event_type":"Activated Business","description":"Activated business with name - Habeeb13","business_id":"","date_created":"28\/02\/2024 @ 06:19PM","team_member":"Platform Owner"},{"id":"01hqrbmyzdfzh5tsv3sy1dp6rm","user_id":"01hq3781r6qm4ney4aaxtfk065","event_type":"Updated team member status","description":"Updated team member status with email - sultan+497@assurdly.com","business_id":"","date_created":"28\/02\/2024 @ 06:19PM","team_member":"Platform Owner"},{"id":"01hqrbmwxwh43g2mj2z11c5pbw","user_id":"01hq3781r6qm4ney4aaxtfk065","event_type":"Updated team member status","description":"Updated team member status with email - sultan+497@assurdly.com","business_id":"","date_created":"28\/02\/2024 @ 06:19PM","team_member":"Platform Owner"},{"id":"01hqrbmtwz7b8dfbmf92p9h0kx","user_id":"01hq3781r6qm4ney4aaxtfk065","event_type":"Updated team member","description":"updated team with email - ","business_id":"","date_created":"28\/02\/2024 @ 06:19PM","team_member":"Platform Owner"}],"pagination":{"current_page":1,"per_page":10,"total":999,"next_page_url":"http:\/\/salary.dev.onepipe.io\/api\/audit?page=2","prev_page_url":null},"message":"Audit trails retrieved successfully"}