{"success":true,"data":[{"id":"01hsrxfa6p2bfg1dxk7f4hz9dc","user_id":"01hshhrgmbdtfbnf7vg8tfq95d","event_type":"Deleted KYB setting","description":"Deleted KYB setting with document name - Certificate of Incorporation","business_id":null,"date_created":"24\/03\/2024 @ 08:02PM","team_member":"Platform Owner"},{"id":"01hsrxf81fv54adcd6nza57egs","user_id":"01hshhrgmbdtfbnf7vg8tfq95d","event_type":"Updated KYB setting","description":"Updated document with name - Certificate of Incorporation","business_id":null,"date_created":"24\/03\/2024 @ 08:02PM","team_member":"Platform Owner"},{"id":"01hsrxez3bq6grs6f71ytjb8qy","user_id":"01hshhrgmbdtfbnf7vg8tfq95d","event_type":"Created a KYB setting","description":"Created KYB setting with document name - Certificate of Incorporation","business_id":null,"date_created":"24\/03\/2024 @ 08:02PM","team_member":"Platform Owner"},{"id":"01hsrxdazs6jwsra04sm9kk153","user_id":"01hshhrgmbdtfbnf7vg8tfq95d","event_type":"Activated business","description":"Activated business with name - Assurdly Bus","business_id":null,"date_created":"24\/03\/2024 @ 08:01PM","team_member":"Platform Owner"},{"id":"01hsrxd5ft48byk9tk6v0n1d27","user_id":"01hshhrgmbdtfbnf7vg8tfq95d","event_type":"Deactivated business","description":"Deactivated business with name - Assurdly Bus","business_id":null,"date_created":"24\/03\/2024 @ 08:01PM","team_member":"Platform Owner"},{"id":"01hsrxcznq2y769gt194zfyrvg","user_id":"01hshhrgmbdtfbnf7vg8tfq95d","event_type":"Activated business","description":"Activated business with name - Assurdly Bus","business_id":null,"date_created":"24\/03\/2024 @ 08:01PM","team_member":"Platform Owner"},{"id":"01hsrxctyzrhvp2vs04f23av0k","user_id":"01hshhrgmbdtfbnf7vg8tfq95d","event_type":"Deactivated business","description":"Deactivated business with name - Assurdly Bus","business_id":null,"date_created":"24\/03\/2024 @ 08:01PM","team_member":"Platform Owner"},{"id":"01hsrxca31bcs7qr4bb8mhpxz1","user_id":"01hshhrgmbdtfbnf7vg8tfq95d","event_type":"Updated team member status","description":"Updated team member status with email - sultan+864@assurdly.com","business_id":null,"date_created":"24\/03\/2024 @ 08:00PM","team_member":"Platform Owner"},{"id":"01hsrxc80em6sy4t3a07pqbh01","user_id":"01hshhrgmbdtfbnf7vg8tfq95d","event_type":"Updated team member status","description":"Updated team member status with email - sultan+864@assurdly.com","business_id":null,"date_created":"24\/03\/2024 @ 08:00PM","team_member":"Platform Owner"},{"id":"01hsrxc5xyvd3qh848nvs9dwxp","user_id":"01hshhrgmbdtfbnf7vg8tfq95d","event_type":"Updated team member","description":"Updated team with email - ","business_id":null,"date_created":"24\/03\/2024 @ 08:00PM","team_member":"Platform Owner"}],"pagination":{"current_page":1,"per_page":10,"total":88,"next_page_url":"http:\/\/salary.dev.onepipe.io\/api\/audit?page=2","prev_page_url":null},"message":"Audit trails retrieved successfully"}